"CreateDate","OrderNumber","LineNumber","ItemNumber","Quantity","Price","DiscountPercent",
"2011-08-08 16:40:01","20045187","1","6162644801","1.0000","174.0000","0.0000",
"2011-08-08 16:40:01","20045187","2","6160855601","1.0000","210.0000","0.0000",
"2011-08-08 16:40:01","20045187","3","6162531101","1.0000","100.0000","0.0000",
"2011-08-08 16:40:01","20045187","4","6162299001","1.0000","188.0000","0.0000",
"2011-08-08 16:40:01","20045187","5","6162482602","1.0000","128.0000","0.0000",
