"CreateDate","OrderNumber","LineNumber","ItemNumber","Quantity","Price","DiscountPercent",
"2011-08-09 07:58:00","20045233","1","6162533502","1.0000","180.0000","0.0000",
"2011-08-09 07:58:00","20045233","2","6160744402","1.0000","200.0000","0.0000",
