"CreateDate","OrderNumber","LineNumber","ItemNumber","Quantity","Price","DiscountPercent",
"2011-08-09 09:31:58","20045267","1","6162667701","22.0000","320.0000","0.0000",
"2011-08-09 09:31:58","20045267","2","6162857201","22.0000","148.0000","0.0000",
"2011-08-09 09:31:58","20045267","3","6163893901","1.0000","30.0000","0.0000",
