"CreateDate","OrderNumber","LineNumber","ItemNumber","Quantity","Price","DiscountPercent",
"2011-08-09 13:21:41","20045338","1","6162419201","1.0000","90.0000","0.0000",
"2011-08-09 13:21:41","20045338","2","6161030502","1.0000","310.0000","0.0000",
