"CreateDate","OrderNumber","LineNumber","ItemNumber","Quantity","Price","DiscountPercent",
"2011-08-10 10:01:07","20045448","1","6162722301","29.0000","350.0000","0.0000",
"2011-08-10 10:01:07","20045448","2","6163587701","1.0000","140.0000","0.0000",
