"CreateDate","OrderNumber","LineNumber","ItemNumber","Quantity","Price","DiscountPercent",
"2011-08-10 11:01:42","20045466","1","6161485802","8.0000","240.0000","0.0000",
"2011-08-10 11:01:42","20045466","2","6162720901","33.0000","250.0000","0.0000",
