"CreateDate","OrderNumber","LineNumber","ItemNumber","Quantity","Price","DiscountPercent",
"2011-08-10 21:53:53","20045546","1","6163032201","1.0000","161.0000","0.0000",
"2011-08-10 21:53:53","20045546","2","6163013101","1.0000","134.0000","0.0000",
