"CreateDate","OrderNumber","LineNumber","ItemNumber","Quantity","Price","DiscountPercent",
"2011-08-11 06:50:44","20045556","1","7351919702","1.0000","110.0000","0.0000",
"2011-08-11 06:50:44","20045556","2","7351920002","1.0000","110.0000","0.0000",
"2011-08-11 06:50:44","20045556","3","6160009102","1.0000","120.0000","0.0000",
"2011-08-11 06:50:44","20045556","4","6160700201","1.0000","110.0000","0.0000",
"2011-08-11 06:50:44","20045556","5","6162485701","1.0000","96.0000","0.0000",
"2011-08-11 06:50:44","20045556","6","6163758101","1.0000","250.0000","0.0000",
