"CreateDate","OrderNumber","LineNumber","ItemNumber","Quantity","Price","DiscountPercent",
"2011-08-11 08:48:41","20045577","1","6162560101","61.0000","32.5000","0.0000",
"2011-08-11 08:48:41","20045577","2","6163797001","4.0000","130.0000","0.0000",
