"CreateDate","OrderNumber","LineNumber","ItemNumber","Quantity","Price","DiscountPercent",
"2011-08-11 11:12:03","20045614","1","6162477201","11.0000","240.0000","0.0000",
"2011-08-11 11:12:03","20045614","2","6162627101","11.0000","120.0000","0.0000",
