"CreateDate","OrderNumber","LineNumber","ItemNumber","Quantity","Price","DiscountPercent",
"2011-08-11 12:12:28","20045630","1","6162240201","35.0000","250.0000","0.0000",
"2011-08-11 12:12:28","20045630","2","6161271504","25.0000","295.0000","0.0000",
"2011-08-11 12:12:28","20045630","3","6161306103","25.0000","295.0000","0.0000",
