"CreateDate","OrderNumber","LineNumber","ItemNumber","Quantity","Price","DiscountPercent",
"2011-08-11 14:04:49","20045668","1","6161507201","1.0000","40.0000","0.0000",
"2011-08-11 14:04:49","20045668","2","6161509901","1.0000","40.0000","0.0000",
"2011-08-11 14:04:49","20045668","3","6161640001","1.0000","40.0000","0.0000",
