"CreateDate","OrderNumber","LineNumber","ItemNumber","Quantity","Price","DiscountPercent",
"2011-08-11 15:54:55","20045685","1","6160921803","53.0000","210.0000","0.0000",
"2011-08-11 15:54:55","20045685","2","6162669101","2.0000","190.0000","0.0000",
