"CreateDate","OrderNumber","LineNumber","ItemNumber","Quantity","Price","DiscountPercent",
"2011-08-12 10:50:49","20045811","1","6163094001","6.0000","260.0000","0.0000",
"2011-08-12 10:50:49","20045811","2","6161182402","30.0000","150.0000","0.0000",
