"CreateDate","OrderNumber","LineNumber","ItemNumber","Quantity","Price","DiscountPercent",
"2011-08-12 10:41:05","20045804","1","6162610301","2.0000","288.0000","0.0000",
"2011-08-12 10:41:05","20045804","2","6162609702","2.0000","288.0000","0.0000",
