"CreateDate","OrderNumber","LineNumber","ItemNumber","Quantity","Price","DiscountPercent",
"2011-08-12 13:05:57","20045854","1","6163406101","97.0000","81.0000","40.0000",
"2011-08-12 13:05:57","20045854","2","6163405401","24.0000","45.0000","40.0000",
