"CreateDate","OrderNumber","LineNumber","ItemNumber","Quantity","Price","DiscountPercent",
"2011-08-13 13:50:09","20045889","1","6161170002","1.0000","350.0000","0.0000",
"2011-08-13 13:50:09","20045889","2","6162026202","1.0000","150.0000","0.0000",
