"CreateDate","OrderNumber","LineNumber","ItemNumber","Quantity","Price","DiscountPercent",
"2011-08-14 15:46:08","20045917","1","6163351401","21.0000","80.0000","0.0000",
"2011-08-14 15:46:08","20045917","2","6160973001","21.0000","40.0000","0.0000",
