"CreateDate","OrderNumber","LineNumber","ItemNumber","Quantity","Price","DiscountPercent",
"2011-08-15 10:33:11","20046000","1","6162667701","12.0000","320.0000","0.0000",
"2011-08-15 10:33:11","20046000","2","6162857201","12.0000","148.0000","0.0000",
