"CreateDate","OrderNumber","LineNumber","ItemNumber","Quantity","Price","DiscountPercent",
"2011-08-15 11:46:24","20046029","1","6163094001","40.0000","260.0000","0.0000",
"2011-08-15 11:46:24","20046029","2","6161485802","29.0000","240.0000","0.0000",
