"CreateDate","OrderNumber","LineNumber","ItemNumber","Quantity","Price","DiscountPercent",
"2011-08-15 12:05:34","20046040","1","6162026202","25.0000","150.0000","0.0000",
"2011-08-15 12:05:34","20046040","2","6161170002","25.0000","350.0000","0.0000",
"2011-08-15 12:05:34","20046040","3","6161473402","5.0000","250.0000","0.0000",
