"CreateDate","OrderNumber","LineNumber","ItemNumber","Quantity","Price","DiscountPercent",
"2011-08-15 14:28:52","20046095","1","6161001104","60.0000","70.0000","0.0000",
"2011-08-15 14:28:52","20046095","2","6161493903","30.0000","300.0000","0.0000",
"2011-08-15 14:28:52","20046095","3","6162142902","35.0000","210.0000","0.0000",
