"CreateDate","OrderNumber","LineNumber","ItemNumber","Quantity","Price","DiscountPercent",
"2011-08-15 14:56:20","20046112","1","6164237050","1.0000","86.0000","0.0000",
"2011-08-15 14:56:20","20046112","2","6162833650","1.0000","59.0000","0.0000",
"2011-08-15 14:56:20","20046112","3","6162822050","1.0000","94.0000","0.0000",
