"CreateDate","OrderNumber","LineNumber","ItemNumber","Quantity","Price","DiscountPercent",
"2011-08-15 14:58:29","20046115","1","6162251850","1.0000","84.0000","0.0000",
"2011-08-15 14:58:29","20046115","2","6162821350","1.0000","69.0000","0.0000",
"2011-08-15 14:58:29","20046115","3","6162299050","1.0000","94.0000","0.0000",
