"CreateDate","OrderNumber","LineNumber","ItemNumber","Quantity","Price","DiscountPercent",
"2011-08-15 15:35:22","20046136","1","6162251850","1.0000","84.0000","0.0000",
"2011-08-15 15:35:22","20046136","2","6162821350","1.0000","69.0000","0.0000",
