"CreateDate","OrderNumber","LineNumber","ItemNumber","Quantity","Price","DiscountPercent",
"2011-08-15 17:40:53","20046181","1","6162251850","1.0000","84.0000","0.0000",
"2011-08-15 17:40:53","20046181","2","6162299050","1.0000","94.0000","0.0000",
"2011-08-15 17:40:53","20046181","3","6162821350","1.0000","69.0000","0.0000",
