"CreateDate","OrderNumber","LineNumber","ItemNumber","Quantity","Price","DiscountPercent",
"2011-08-15 17:23:51","20046173","1","6162251850","1.0000","84.0000","0.0000",
"2011-08-15 17:23:51","20046173","2","6162684450","1.0000","60.0000","0.0000",
"2011-08-15 17:23:51","20046173","3","6162821350","1.0000","69.0000","0.0000",
"2011-08-15 17:23:51","20046173","4","6162299050","1.0000","94.0000","0.0000",
"2011-08-15 17:23:51","20046173","5","6163749950","1.0000","49.0000","0.0000",
