"CreateDate","OrderNumber","LineNumber","ItemNumber","Quantity","Price","DiscountPercent",
"2011-08-15 18:34:19","20046201","1","6162251850","1.0000","84.0000","0.0000",
"2011-08-15 18:34:19","20046201","2","6162299050","1.0000","94.0000","0.0000",
