"CreateDate","OrderNumber","LineNumber","ItemNumber","Quantity","Price","DiscountPercent",
"2011-08-16 07:40:14","20046261","1","9083345901","1.0000","276.0000","0.0000",
"2011-08-16 07:40:14","20046261","2","9083392301","1.0000","0.0000","0.0000",
