"CreateDate","OrderNumber","LineNumber","ItemNumber","Quantity","Price","DiscountPercent",
"2011-08-16 07:43:40","20046265","1","6161363002","1.0000","190.0000","0.0000",
"2011-08-16 07:43:40","20046265","2","6160993502","1.0000","190.0000","0.0000",
"2011-08-16 07:43:40","20046265","3","6162299050","2.0000","94.0000","0.0000",
"2011-08-16 07:43:40","20046265","4","6163566250","1.0000","87.0000","0.0000",
