"CreateDate","OrderNumber","LineNumber","ItemNumber","Quantity","Price","DiscountPercent",
"2011-08-16 08:37:43","20046284","1","6164260801","1.0000","73.5000","0.0000",
"2011-08-16 08:37:43","20046284","2","6162809101","1.0000","40.0000","0.0000",
