"CreateDate","OrderNumber","LineNumber","ItemNumber","Quantity","Price","DiscountPercent",
"2011-08-16 08:50:57","20046296","1","6162821350","1.0000","69.0000","0.0000",
"2011-08-16 08:50:57","20046296","2","6162299050","1.0000","94.0000","0.0000",
"2011-08-16 08:50:57","20046296","3","6162251850","1.0000","84.0000","0.0000",
