"CreateDate","OrderNumber","LineNumber","ItemNumber","Quantity","Price","DiscountPercent",
"2011-08-16 08:52:39","20046299","1","6163781950","1.0000","62.0000","0.0000",
"2011-08-16 08:52:39","20046299","2","6162299050","1.0000","94.0000","0.0000",
"2011-08-16 08:52:39","20046299","3","6162821350","1.0000","69.0000","0.0000",
