"CreateDate","OrderNumber","LineNumber","ItemNumber","Quantity","Price","DiscountPercent",
"2011-08-16 08:53:12","20046300","1","6162251850","3.0000","84.0000","0.0000",
"2011-08-16 08:53:12","20046300","2","6162299050","3.0000","94.0000","0.0000",
"2011-08-16 08:53:12","20046300","3","6162821350","3.0000","69.0000","0.0000",
