"CreateDate","OrderNumber","LineNumber","ItemNumber","Quantity","Price","DiscountPercent",
"2011-08-16 08:56:43","20046307","1","6164254750","1.0000","30.0000","0.0000",
"2011-08-16 08:56:43","20046307","2","6162684450","1.0000","60.0000","0.0000",
