"CreateDate","OrderNumber","LineNumber","ItemNumber","Quantity","Price","DiscountPercent",
"2011-08-16 09:45:02","20046368","1","6162303402","1.0000","150.0000","0.0000",
"2011-08-16 09:45:02","20046368","2","6163895350","2.0000","49.0000","0.0000",
"2011-08-16 09:45:02","20046368","3","6162684450","2.0000","60.0000","0.0000",
