"CreateDate","OrderNumber","LineNumber","ItemNumber","Quantity","Price","DiscountPercent",
"2011-08-16 10:26:04","20046399","1","6162684450","1.0000","60.0000","0.0000",
"2011-08-16 10:26:04","20046399","2","6163749950","1.0000","49.0000","0.0000",
