"CreateDate","OrderNumber","LineNumber","ItemNumber","Quantity","Price","DiscountPercent",
"2011-08-16 10:32:24","20046407","1","6163749950","1.0000","49.0000","0.0000",
"2011-08-16 10:32:24","20046407","2","6161706450","1.0000","150.0000","0.0000",
"2011-08-16 10:32:24","20046407","3","6162684450","1.0000","60.0000","0.0000",
