"CreateDate","OrderNumber","LineNumber","ItemNumber","Quantity","Price","DiscountPercent",
"2011-08-16 10:57:34","20046427","1","6162684450","1.0000","60.0000","0.0000",
"2011-08-16 10:57:34","20046427","2","6163895350","1.0000","49.0000","0.0000",
