"CreateDate","OrderNumber","LineNumber","ItemNumber","Quantity","Price","DiscountPercent",
"2011-08-16 11:30:31","20046459","1","6162644850","1.0000","87.0000","0.0000",
"2011-08-16 11:30:31","20046459","2","6163566250","1.0000","87.0000","0.0000",
