"CreateDate","OrderNumber","LineNumber","ItemNumber","Quantity","Price","DiscountPercent",
"2011-08-16 11:50:31","20046473","1","6162374450","1.0000","80.0000","0.0000",
"2011-08-16 11:50:31","20046473","2","6163095701","1.0000","188.0000","0.0000",
