"CreateDate","OrderNumber","LineNumber","ItemNumber","Quantity","Price","DiscountPercent",
"2011-08-16 11:43:54","20046471","1","6162818350","1.0000","59.0000","0.0000",
"2011-08-16 11:43:54","20046471","2","6162821350","1.0000","69.0000","0.0000",
