"CreateDate","OrderNumber","LineNumber","ItemNumber","Quantity","Price","DiscountPercent",
"2011-08-16 12:23:06","20046500","1","6162596001","2.0000","172.0000","0.0000",
"2011-08-16 12:23:06","20046500","2","6161333901","9.0000","180.0000","0.0000",
