"CreateDate","OrderNumber","LineNumber","ItemNumber","Quantity","Price","DiscountPercent",
"2011-08-16 12:28:49","20046507","1","6163749950","1.0000","49.0000","0.0000",
"2011-08-16 12:28:49","20046507","2","6162684450","1.0000","60.0000","0.0000",
