"CreateDate","OrderNumber","LineNumber","ItemNumber","Quantity","Price","DiscountPercent",
"2011-08-16 12:39:00","20046516","1","6163095701","1.0000","188.0000","0.0000",
"2011-08-16 12:39:00","20046516","2","6162374401","1.0000","160.0000","0.0000",
