"CreateDate","OrderNumber","LineNumber","ItemNumber","Quantity","Price","DiscountPercent",
"2011-08-16 14:59:48","20046602","1","6162299050","9.0000","94.0000","0.0000",
"2011-08-16 14:59:48","20046602","2","6162251850","1.0000","84.0000","0.0000",
"2011-08-16 14:59:48","20046602","3","6162821350","9.0000","69.0000","0.0000",
"2011-08-16 14:59:48","20046602","4","6162833601","1.0000","118.0000","0.0000",
