"CreateDate","OrderNumber","LineNumber","ItemNumber","Quantity","Price","DiscountPercent",
"2011-08-16 16:00:51","20046631","1","6162821350","1.0000","69.0000","0.0000",
"2011-08-16 16:00:51","20046631","2","6162299050","1.0000","94.0000","0.0000",
