"CreateDate","OrderNumber","LineNumber","ItemNumber","Quantity","Price","DiscountPercent",
"2011-08-16 16:28:48","20046640","1","6160963201","2.0000","200.0000","0.0000",
"2011-08-16 16:28:48","20046640","2","6161469605","1.0000","190.0000","0.0000",
