"CreateDate","OrderNumber","LineNumber","ItemNumber","Quantity","Price","DiscountPercent",
"2011-08-16 17:31:48","20046655","1","6163759801","24.0000","62.5000","0.0000",
"2011-08-16 17:31:48","20046655","2","6162558801","24.0000","62.5000","0.0000",
"2011-08-16 17:31:48","20046655","3","6161474201","23.0000","40.0000","0.0000",
