"CreateDate","OrderNumber","LineNumber","ItemNumber","Quantity","Price","DiscountPercent",
"2011-08-17 06:02:13","20046743","1","6163759801","1.0000","62.5000","0.0000",
"2011-08-17 06:02:13","20046743","2","6161244802","1.0000","37.5000","0.0000",
"2011-08-17 06:02:13","20046743","3","6162558801","1.0000","62.5000","0.0000",
"2011-08-17 06:02:13","20046743","4","6161406802","1.0000","37.5000","0.0000",
