"CreateDate","OrderNumber","LineNumber","ItemNumber","Quantity","Price","DiscountPercent",
"2011-08-17 07:01:14","20046751","1","6161244802","1.0000","37.5000","0.0000",
"2011-08-17 07:01:14","20046751","2","6163759801","1.0000","62.5000","0.0000",
"2011-08-17 07:01:14","20046751","3","6162558801","1.0000","62.5000","0.0000",
"2011-08-17 07:01:14","20046751","4","6161406802","1.0000","37.5000","0.0000",
