"CreateDate","OrderNumber","LineNumber","ItemNumber","Quantity","Price","DiscountPercent",
"2011-08-17 07:05:02","20046758","1","6161244802","1.0000","37.5000","0.0000",
"2011-08-17 07:05:02","20046758","2","6163759801","1.0000","62.5000","0.0000",
