"CreateDate","OrderNumber","LineNumber","ItemNumber","Quantity","Price","DiscountPercent",
"2011-08-17 07:14:09","20046767","1","6162684450","1.0000","60.0000","0.0000",
"2011-08-17 07:14:09","20046767","2","6163749950","1.0000","49.0000","0.0000",
