"CreateDate","OrderNumber","LineNumber","ItemNumber","Quantity","Price","DiscountPercent",
"2011-08-17 08:26:37","20046819","1","6162251850","1.0000","84.0000","0.0000",
"2011-08-17 08:26:37","20046819","2","6162299050","1.0000","94.0000","0.0000",
"2011-08-17 08:26:37","20046819","3","6162821350","1.0000","69.0000","0.0000",
