"CreateDate","OrderNumber","LineNumber","ItemNumber","Quantity","Price","DiscountPercent",
"2011-08-17 08:53:03","20046834","1","6163434401","50.0000","110.0000","40.0000",
"2011-08-17 08:53:03","20046834","2","6163036001","50.0000","135.0000","40.0000",
