"CreateDate","OrderNumber","LineNumber","ItemNumber","Quantity","Price","DiscountPercent",
"2011-08-17 08:53:50","20046835","1","6163440501","62.0000","210.0000","0.0000",
"2011-08-17 08:53:50","20046835","2","6162792601","80.0000","280.0000","40.0000",
