"CreateDate","OrderNumber","LineNumber","ItemNumber","Quantity","Price","DiscountPercent",
"2011-08-17 09:50:05","20046871","1","6163759801","1.0000","62.5000","0.0000",
"2011-08-17 09:50:05","20046871","2","6161244802","1.0000","37.5000","0.0000",
