"CreateDate","OrderNumber","LineNumber","ItemNumber","Quantity","Price","DiscountPercent",
"2011-08-17 15:14:58","20047004","1","6162299050","16.0000","94.0000","0.0000",
"2011-08-17 15:14:58","20047004","2","6162299001","30.0000","188.0000","0.0000",
