"CreateDate","OrderNumber","LineNumber","ItemNumber","Quantity","Price","DiscountPercent",
"2011-08-17 16:40:55","20047034","1","6162372001","14.0000","128.0000","0.0000",
"2011-08-17 16:40:55","20047034","2","6161485802","20.0000","240.0000","0.0000",
