"CreateDate","OrderNumber","LineNumber","ItemNumber","Quantity","Price","DiscountPercent",
"2011-08-17 17:24:00","20047039","1","6162684450","1.0000","60.0000","0.0000",
"2011-08-17 17:24:00","20047039","2","6163749950","1.0000","49.0000","0.0000",
"2011-08-17 17:24:00","20047039","3","6161706450","1.0000","150.0000","0.0000",
