"CreateDate","OrderNumber","LineNumber","ItemNumber","Quantity","Price","DiscountPercent",
"2011-08-17 19:26:58","20047064","1","6162299050","1.0000","94.0000","0.0000",
"2011-08-17 19:26:58","20047064","2","6162644850","1.0000","87.0000","0.0000",
"2011-08-17 19:26:58","20047064","3","6163566250","1.0000","87.0000","0.0000",
