"CreateDate","OrderNumber","LineNumber","ItemNumber","Quantity","Price","DiscountPercent",
"2011-08-17 20:42:36","20047082","1","6161527502","1.0000","130.0000","0.0000",
"2011-08-17 20:42:36","20047082","2","6160817304","1.0000","110.0000","0.0000",
"2011-08-17 20:42:36","20047082","3","6162821350","1.0000","69.0000","0.0000",
"2011-08-17 20:42:36","20047082","4","6162532802","1.0000","148.0000","0.0000",
"2011-08-17 20:42:36","20047082","5","6161140902","1.0000","195.0000","0.0000",
"2011-08-17 20:42:36","20047082","6","6160532802","1.0000","195.0000","0.0000",
"2011-08-17 20:42:36","20047082","7","6160857201","1.0000","195.0000","0.0000",
