"CreateDate","OrderNumber","LineNumber","ItemNumber","Quantity","Price","DiscountPercent",
"2011-08-18 04:34:21","20047090","1","6163058201","1.0000","67.5000","0.0000",
"2011-08-18 04:34:21","20047090","2","6162944901","50.0000","72.0000","40.0000",
