"CreateDate","OrderNumber","LineNumber","ItemNumber","Quantity","Price","DiscountPercent",
"2011-08-18 06:37:43","20047103","1","6161007015","20.0000","280.0000","0.0000",
"2011-08-18 06:37:43","20047103","2","6161065814","20.0000","170.0000","0.0000",
"2011-08-18 06:37:43","20047103","3","6161485802","10.0000","240.0000","0.0000",
