"CreateDate","OrderNumber","LineNumber","ItemNumber","Quantity","Price","DiscountPercent",
"2011-08-18 07:11:43","20047119","1","6162700101","2.0000","120.0000","0.0000",
"2011-08-18 07:11:43","20047119","2","6164021501","2.0000","120.0000","0.0000",
