"CreateDate","OrderNumber","LineNumber","ItemNumber","Quantity","Price","DiscountPercent",
"2011-08-18 07:58:41","20047135","1","6163566250","1.0000","87.0000","0.0000",
"2011-08-18 07:58:41","20047135","2","6162299050","1.0000","94.0000","0.0000",
