"CreateDate","OrderNumber","LineNumber","ItemNumber","Quantity","Price","DiscountPercent",
"2011-08-18 13:23:06","20047276","1","6163752901","1.0000","57.5000","0.0000",
"2011-08-18 13:23:06","20047276","2","6162671402","1.0000","62.5000","0.0000",
"2011-08-18 13:23:06","20047276","3","6163570901","1.0000","50.0000","0.0000",
