"CreateDate","OrderNumber","LineNumber","ItemNumber","Quantity","Price","DiscountPercent",
"2011-08-18 20:31:45","20047346","1","6163749950","1.0000","49.0000","0.0000",
"2011-08-18 20:31:45","20047346","2","6162684450","1.0000","60.0000","0.0000",
