"CreateDate","OrderNumber","LineNumber","ItemNumber","Quantity","Price","DiscountPercent",
"2011-08-18 20:31:44","20047345","1","6161170002","1.0000","350.0000","0.0000",
"2011-08-18 20:31:44","20047345","2","6161473402","1.0000","250.0000","0.0000",
