"CreateDate","OrderNumber","LineNumber","ItemNumber","Quantity","Price","DiscountPercent",
"2011-08-19 06:49:03","20047375","1","7783159402","30.0000","280.0000","0.0000",
"2011-08-19 06:49:03","20047375","2","6162144301","5.0000","148.0000","0.0000",
