"CreateDate","OrderNumber","LineNumber","ItemNumber","Quantity","Price","DiscountPercent",
"2011-08-19 08:11:41","20047396","1","6163397201","1.0000","33.0000","0.0000",
"2011-08-19 08:11:41","20047396","2","6163398901","1.0000","40.0000","0.0000",
"2011-08-19 08:11:41","20047396","3","6163399601","1.0000","74.0000","0.0000",
"2011-08-19 08:11:41","20047396","4","6161691301","1.0000","98.0000","0.0000",
"2011-08-19 08:11:41","20047396","5","6163401601","1.0000","133.0000","0.0000",
"2011-08-19 08:11:41","20047396","6","6163402301","1.0000","150.0000","0.0000",
"2011-08-19 08:11:41","20047396","7","6163403001","1.0000","216.0000","0.0000",
"2011-08-19 08:11:41","20047396","8","6162923401","1.0000","266.0000","0.0000",
