"CreateDate","OrderNumber","LineNumber","ItemNumber","Quantity","Price","DiscountPercent",
"2011-08-19 10:09:53","20047438","1","6161695102","11.0000","240.0000","0.0000",
"2011-08-19 10:09:53","20047438","2","6160697902","6.0000","210.0000","0.0000",
