"CreateDate","OrderNumber","LineNumber","ItemNumber","Quantity","Price","DiscountPercent",
"2011-08-19 13:12:10","20047493","1","7783787801","1.0000","200.0000","0.0000",
"2011-08-19 13:12:10","20047493","2","6163113801","1.0000","48.0000","0.0000",
"2011-08-19 13:12:10","20047493","3","6163114501","1.0000","60.0000","0.0000",
"2011-08-19 13:12:10","20047493","4","6163115201","1.0000","107.0000","0.0000",
"2011-08-19 13:12:10","20047493","5","6162807701","1.0000","143.0000","0.0000",
"2011-08-19 13:12:10","20047493","6","6163116901","1.0000","95.0000","0.0000",
"2011-08-19 13:12:10","20047493","7","6163117601","1.0000","107.0000","0.0000",
"2011-08-19 13:12:10","20047493","8","6163118301","1.0000","155.0000","0.0000",
"2011-08-19 13:12:10","20047493","9","6162808401","1.0000","190.0000","0.0000",
