"CreateDate","OrderNumber","LineNumber","ItemNumber","Quantity","Price","DiscountPercent",
"2011-08-19 14:12:42","20047501","1","6162871801","40.0000","50.0000","0.0000",
"2011-08-19 14:12:42","20047501","2","6162279201","1.0000","200.0000","0.0000",
"2011-08-19 14:12:42","20047501","3","6160702901","40.0000","80.0000","0.0000",
