"CreateDate","OrderNumber","LineNumber","ItemNumber","Quantity","Price","DiscountPercent",
"2011-08-19 18:49:13","20047532","1","6162821350","1.0000","69.0000","0.0000",
"2011-08-19 18:49:13","20047532","2","6162299050","1.0000","94.0000","0.0000",
