"CreateDate","OrderNumber","LineNumber","ItemNumber","Quantity","Price","DiscountPercent",
"2011-08-20 09:37:40","20047552","1","9083345901","1.0000","276.0000","0.0000",
"2011-08-20 09:37:40","20047552","2","9083392301","1.0000","0.0000","0.0000",
