"CreateDate","OrderNumber","LineNumber","ItemNumber","Quantity","Price","DiscountPercent",
"2011-08-20 13:14:47","20047566","1","6162299001","11.0000","188.0000","0.0000",
"2011-08-20 13:14:47","20047566","2","6162821301","11.0000","138.0000","0.0000",
