"CreateDate","OrderNumber","LineNumber","ItemNumber","Quantity","Price","DiscountPercent",
"2011-08-20 17:52:40","20047580","1","6162230302","1.0000","90.0000","0.0000",
"2011-08-20 17:52:40","20047580","2","6161378901","1.0000","25.0000","0.0000",
"2011-08-20 17:52:40","20047580","3","6161543901","1.0000","30.0000","0.0000",
"2011-08-20 17:52:40","20047580","4","6161760602","1.0000","85.0000","0.0000",
