"CreateDate","OrderNumber","LineNumber","ItemNumber","Quantity","Price","DiscountPercent",
"2011-08-21 12:03:14","20047622","1","6162027901","1.0000","350.0000","0.0000",
"2011-08-21 12:03:14","20047622","2","6162328701","1.0000","350.0000","0.0000",
