"CreateDate","OrderNumber","LineNumber","ItemNumber","Quantity","Price","DiscountPercent",
"2011-08-21 12:29:30","20047626","1","9083345901","1.0000","276.0000","0.0000",
"2011-08-21 12:29:30","20047626","2","9083392301","1.0000","0.0000","0.0000",
