"CreateDate","OrderNumber","LineNumber","ItemNumber","Quantity","Price","DiscountPercent",
"2011-08-21 18:11:26","20047645","1","6163566250","1.0000","87.0000","0.0000",
"2011-08-21 18:11:26","20047645","2","6164237050","1.0000","86.0000","0.0000",
