"CreateDate","OrderNumber","LineNumber","ItemNumber","Quantity","Price","DiscountPercent",
"2011-08-22 07:18:21","20047682","1","6161469605","40.0000","190.0000","0.0000",
"2011-08-22 07:18:21","20047682","2","6162107201","2.0000","110.0000","0.0000",
"2011-08-22 07:18:21","20047682","3","6160641301","1.0000","260.0000","0.0000",
"2011-08-22 07:18:21","20047682","4","6161115802","2.0000","120.0000","0.0000",
"2011-08-22 07:18:21","20047682","5","6161951802","2.0000","200.0000","0.0000",
"2011-08-22 07:18:21","20047682","6","6162511302","1.0000","148.0000","0.0000",
"2011-08-22 07:18:21","20047682","7","6162144301","1.0000","148.0000","0.0000",
