"CreateDate","OrderNumber","LineNumber","ItemNumber","Quantity","Price","DiscountPercent",
"2011-08-22 08:16:20","20047691","1","6162714801","25.0000","198.0000","0.0000",
"2011-08-22 08:16:20","20047691","2","6162139901","1.0000","300.0000","0.0000",
"2011-08-22 08:16:20","20047691","3","6162329402","10.0000","270.0000","0.0000",
"2011-08-22 08:16:20","20047691","4","6162243302","38.0000","150.0000","0.0000",
