"CreateDate","OrderNumber","LineNumber","ItemNumber","Quantity","Price","DiscountPercent",
"2011-08-22 10:20:23","20047747","1","9083345901","1.0000","276.0000","0.0000",
"2011-08-22 10:20:23","20047747","2","9083392301","1.0000","0.0000","0.0000",
