"CreateDate","OrderNumber","LineNumber","ItemNumber","Quantity","Price","DiscountPercent",
"2011-08-22 12:33:49","20047801","1","6161062303","1.0000","290.0000","0.0000",
"2011-08-22 12:33:49","20047801","2","6162198601","1.0000","250.0000","0.0000",
"2011-08-22 12:33:49","20047801","3","6162334802","1.0000","230.0000","0.0000",
"2011-08-22 12:33:49","20047801","4","6160127602","1.0000","250.0000","0.0000",
