"CreateDate","OrderNumber","LineNumber","ItemNumber","Quantity","Price","DiscountPercent",
"2011-08-22 13:03:34","20047812","1","6163524201","50.0000","33.0000","40.0000",
"2011-08-22 13:03:34","20047812","2","6160837805","5.0000","140.0000","0.0000",
"2011-08-22 13:03:34","20047812","3","6161495702","5.0000","220.0000","0.0000",
