"CreateDate","OrderNumber","LineNumber","ItemNumber","Quantity","Price","DiscountPercent",
"2011-08-22 13:34:35","20047823","1","6162533502","1.0000","180.0000","0.0000",
"2011-08-22 13:34:35","20047823","2","6161502201","1.0000","150.0000","0.0000",
"2011-08-22 13:34:35","20047823","3","7783728204","1.0000","98.0000","0.0000",
