"CreateDate","OrderNumber","LineNumber","ItemNumber","Quantity","Price","DiscountPercent",
"2011-08-22 15:16:55","20047841","1","6162029701","1.0000","72.5000","0.0000",
"2011-08-22 15:16:55","20047841","2","6163752901","1.0000","57.5000","0.0000",
