"CreateDate","OrderNumber","LineNumber","ItemNumber","Quantity","Price","DiscountPercent",
"2011-08-23 06:51:36","20047885","1","6161196402","1.0000","80.0000","0.0000",
"2011-08-23 06:51:36","20047885","2","6161796201","1.0000","120.0000","0.0000",
