"CreateDate","OrderNumber","LineNumber","ItemNumber","Quantity","Price","DiscountPercent",
"2011-08-23 07:54:18","20047911","1","6163895350","3.0000","49.0000","0.0000",
"2011-08-23 07:54:18","20047911","2","6162684450","3.0000","60.0000","0.0000",
