"CreateDate","OrderNumber","LineNumber","ItemNumber","Quantity","Price","DiscountPercent",
"2011-08-23 08:25:45","20047932","1","6161055006","12.0000","300.0000","0.0000",
"2011-08-23 08:25:45","20047932","2","7783221303","5.0000","196.0000","0.0000",
