"CreateDate","OrderNumber","LineNumber","ItemNumber","Quantity","Price","DiscountPercent",
"2011-08-23 09:09:57","20047950","1","6162945601","14.0000","90.0000","0.0000",
"2011-08-23 09:09:57","20047950","2","6162517501","2.0000","216.0000","0.0000",
"2011-08-23 09:09:57","20047950","3","6162261701","3.0000","30.0000","0.0000",
"2011-08-23 09:09:57","20047950","4","6160930405","20.0000","330.0000","0.0000",
