"CreateDate","OrderNumber","LineNumber","ItemNumber","Quantity","Price","DiscountPercent",
"2011-08-23 18:41:08","20048063","1","6163058201","1.0000","67.5000","0.0000",
"2011-08-23 18:41:08","20048063","2","6161719401","1.0000","190.0000","0.0000",
"2011-08-23 18:41:08","20048063","3","6160631601","1.0000","200.0000","0.0000",
