"CreateDate","OrderNumber","LineNumber","ItemNumber","Quantity","Price","DiscountPercent",
"2011-08-23 20:10:29","20048071","1","6162419201","1.0000","90.0000","0.0000",
"2011-08-23 20:10:29","20048071","2","6161030502","1.0000","310.0000","0.0000",
