"CreateDate","OrderNumber","LineNumber","ItemNumber","Quantity","Price","DiscountPercent",
"2011-08-23 21:09:32","20048078","1","6162251850","14.0000","84.0000","0.0000",
"2011-08-23 21:09:32","20048078","2","6162821350","15.0000","69.0000","0.0000",
"2011-08-23 21:09:32","20048078","3","6162299050","2.0000","94.0000","0.0000",
