"CreateDate","OrderNumber","LineNumber","ItemNumber","Quantity","Price","DiscountPercent",
"2011-08-24 08:49:17","20048125","1","9083345901","1.0000","276.0000","0.0000",
"2011-08-24 08:49:17","20048125","2","9083392301","1.0000","0.0000","0.0000",
