"CreateDate","OrderNumber","LineNumber","ItemNumber","Quantity","Price","DiscountPercent",
"2011-08-24 11:12:02","20048166","1","6161048803","15.0000","180.0000","0.0000",
"2011-08-24 11:12:02","20048166","2","6164119901","1.0000","27.5000","0.0000",
"2011-08-24 11:12:02","20048166","3","6162710001","1.0000","110.0000","0.0000",
"2011-08-24 11:12:02","20048166","4","6163119001","1.0000","130.0000","0.0000",
"2011-08-24 11:12:02","20048166","5","6163786401","1.0000","110.0000","0.0000",
"2011-08-24 11:12:02","20048166","6","6162384301","1.0000","110.0000","0.0000",
"2011-08-24 11:12:02","20048166","7","6161755501","1.0000","110.0000","0.0000",
"2011-08-24 11:12:02","20048166","8","1203364201","1.0000","150.0000","0.0000",
"2011-08-24 11:12:02","20048166","9","6160548401","1.0000","60.0000","0.0000",
"2011-08-24 11:12:02","20048166","10","7783983801","1.0000","180.0000","0.0000",
