"CreateDate","OrderNumber","LineNumber","ItemNumber","Quantity","Price","DiscountPercent",
"2011-08-24 12:41:40","20048204","1","6161194801","1.0000","80.0000","0.0000",
"2011-08-24 12:41:40","20048204","2","6161797001","1.0000","120.0000","0.0000",
