"CreateDate","OrderNumber","LineNumber","ItemNumber","Quantity","Price","DiscountPercent",
"2011-08-24 16:56:45","20048252","1","6162500701","1.0000","112.0000","0.0000",
"2011-08-24 16:56:45","20048252","2","6162278501","1.0000","208.0000","0.0000",
