"CreateDate","OrderNumber","LineNumber","ItemNumber","Quantity","Price","DiscountPercent",
"2011-08-24 16:22:25","20048248","1","6162596050","1.0000","86.0000","0.0000",
"2011-08-24 16:22:25","20048248","2","6162821350","1.0000","69.0000","0.0000",
