"CreateDate","OrderNumber","LineNumber","ItemNumber","Quantity","Price","DiscountPercent",
"2011-08-24 18:23:15","20048262","1","6164254750","1.0000","30.0000","0.0000",
"2011-08-24 18:23:15","20048262","2","6162821350","1.0000","69.0000","0.0000",
