"CreateDate","OrderNumber","LineNumber","ItemNumber","Quantity","Price","DiscountPercent",
"2011-08-25 09:28:19","20048335","1","6162545802","1.0000","288.0000","0.0000",
"2011-08-25 09:28:19","20048335","2","6162546502","1.0000","228.0000","0.0000",
