"CreateDate","OrderNumber","LineNumber","ItemNumber","Quantity","Price","DiscountPercent",
"2011-08-25 11:26:02","20048364","1","6162646201","4.0000","260.0000","0.0000",
"2011-08-25 11:26:02","20048364","2","6163120601","2.0000","200.0000","0.0000",
