"CreateDate","OrderNumber","LineNumber","ItemNumber","Quantity","Price","DiscountPercent",
"2011-08-25 12:16:37","20048383","1","6161374602","60.0000","180.0000","0.0000",
"2011-08-25 12:16:37","20048383","2","6161469605","34.0000","190.0000","0.0000",
