"CreateDate","OrderNumber","LineNumber","ItemNumber","Quantity","Price","DiscountPercent",
"2011-08-25 16:04:16","20048414","1","6162684450","1.0000","60.0000","0.0000",
"2011-08-25 16:04:16","20048414","2","6163566250","1.0000","87.0000","0.0000",
"2011-08-25 16:04:16","20048414","3","6163749950","1.0000","49.0000","0.0000",
"2011-08-25 16:04:16","20048414","4","6162485701","1.0000","96.0000","0.0000",
