"CreateDate","OrderNumber","LineNumber","ItemNumber","Quantity","Price","DiscountPercent",
"2011-08-25 19:07:16","20048426","1","6162251850","1.0000","84.0000","0.0000",
"2011-08-25 19:07:16","20048426","2","6162821350","1.0000","69.0000","0.0000",
