"CreateDate","OrderNumber","LineNumber","ItemNumber","Quantity","Price","DiscountPercent",
"2011-08-26 11:05:20","20048502","1","6163673701","1.0000","27.0000","0.0000",
"2011-08-26 11:05:20","20048502","2","6163674401","1.0000","34.0000","0.0000",
"2011-08-26 11:05:20","20048502","3","6163675101","1.0000","62.0000","0.0000",
"2011-08-26 11:05:20","20048502","4","6163756701","1.0000","82.0000","0.0000",
"2011-08-26 11:05:20","20048502","5","6163677501","1.0000","55.0000","0.0000",
"2011-08-26 11:05:20","20048502","6","6163678201","1.0000","62.0000","0.0000",
"2011-08-26 11:05:20","20048502","7","6163679901","1.0000","90.0000","0.0000",
"2011-08-26 11:05:20","20048502","8","6163676801","1.0000","110.0000","0.0000",
