"CreateDate","OrderNumber","LineNumber","ItemNumber","Quantity","Price","DiscountPercent",
"2011-08-26 13:03:23","20048525","1","6161328201","1.0000","195.0000","0.0000",
"2011-08-26 13:03:23","20048525","2","6161698202","1.0000","180.0000","0.0000",
