"CreateDate","OrderNumber","LineNumber","ItemNumber","Quantity","Price","DiscountPercent",
"2011-08-27 21:59:11","20048572","1","6163749950","1.0000","49.0000","0.0000",
"2011-08-27 21:59:11","20048572","2","6162684450","1.0000","60.0000","0.0000",
