"CreateDate","OrderNumber","LineNumber","ItemNumber","Quantity","Price","DiscountPercent",
"2011-08-29 07:46:48","20048651","1","6164234901","2.0000","200.0000","0.0000",
"2011-08-29 07:46:48","20048651","2","6162644801","2.0000","174.0000","0.0000",
"2011-08-29 07:46:48","20048651","3","6162511302","2.0000","148.0000","0.0000",
"2011-08-29 07:46:48","20048651","4","6161317701","1.0000","194.0000","0.0000",
"2011-08-29 07:46:48","20048651","5","6162532802","1.0000","148.0000","0.0000",
