"CreateDate","OrderNumber","LineNumber","ItemNumber","Quantity","Price","DiscountPercent",
"2011-08-29 08:53:27","20048667","1","7783744407","2.0000","130.0000","0.0000",
"2011-08-29 08:53:27","20048667","2","7783789404","2.0000","280.0000","0.0000",
