"CreateDate","OrderNumber","LineNumber","ItemNumber","Quantity","Price","DiscountPercent",
"2011-08-29 09:01:14","20048670","1","6162189402","25.0000","250.0000","0.0000",
"2011-08-29 09:01:14","20048670","2","6162273002","25.0000","80.0000","0.0000",
