"CreateDate","OrderNumber","LineNumber","ItemNumber","Quantity","Price","DiscountPercent",
"2011-08-29 13:43:03","20048757","1","6162684401","50.0000","120.0000","0.0000",
"2011-08-29 13:43:03","20048757","2","6163749901","2.0000","98.0000","0.0000",
"2011-08-29 13:43:03","20048757","3","6161130106","100.0000","150.0000","0.0000",
