"CreateDate","OrderNumber","LineNumber","ItemNumber","Quantity","Price","DiscountPercent",
"2011-08-29 13:24:49","20048752","1","6162822001","2.0000","188.0000","0.0000",
"2011-08-29 13:24:49","20048752","2","6162643101","1.0000","188.0000","0.0000",
"2011-08-29 13:24:49","20048752","3","6161137902","2.0000","270.0000","0.0000",
