"CreateDate","OrderNumber","LineNumber","ItemNumber","Quantity","Price","DiscountPercent",
"2011-08-29 14:23:25","20048761","1","6162299050","13.0000","94.0000","0.0000",
"2011-08-29 14:23:25","20048761","2","6162821350","13.0000","69.0000","0.0000",
