"CreateDate","OrderNumber","LineNumber","ItemNumber","Quantity","Price","DiscountPercent",
"2011-08-29 16:12:38","20048770","1","6162299050","1.0000","94.0000","0.0000",
"2011-08-29 16:12:38","20048770","2","6162821350","1.0000","69.0000","0.0000",
