"CreateDate","OrderNumber","LineNumber","ItemNumber","Quantity","Price","DiscountPercent",
"2011-08-29 21:05:45","20048795","1","6161163807","1.0000","132.0000","0.0000",
"2011-08-29 21:05:45","20048795","2","6161161103","1.0000","250.0000","0.0000",
