"CreateDate","OrderNumber","LineNumber","ItemNumber","Quantity","Price","DiscountPercent",
"2011-08-30 06:32:39","20048802","1","6162667701","1.0000","320.0000","0.0000",
"2011-08-30 06:32:39","20048802","2","6162857201","1.0000","148.0000","0.0000",
