"CreateDate","OrderNumber","LineNumber","ItemNumber","Quantity","Price","DiscountPercent",
"2011-08-30 07:22:16","20048815","1","6162667701","1.0000","320.0000","0.0000",
"2011-08-30 07:22:16","20048815","2","6162857201","1.0000","148.0000","0.0000",
