"CreateDate","OrderNumber","LineNumber","ItemNumber","Quantity","Price","DiscountPercent",
"2011-08-30 11:24:06","20048882","1","6160837805","15.0000","140.0000","0.0000",
"2011-08-30 11:24:06","20048882","2","7783897105","14.0000","290.0000","0.0000",
