"CreateDate","OrderNumber","LineNumber","ItemNumber","Quantity","Price","DiscountPercent",
"2011-08-30 11:41:37","20048888","1","6163030801","1.0000","161.0000","0.0000",
"2011-08-30 11:41:37","20048888","2","6163010001","1.0000","134.0000","0.0000",
