"CreateDate","OrderNumber","LineNumber","ItemNumber","Quantity","Price","DiscountPercent",
"2011-08-30 13:51:16","20048909","1","6161161103","1.0000","250.0000","0.0000",
"2011-08-30 13:51:16","20048909","2","6161163807","1.0000","132.0000","0.0000",
