"CreateDate","OrderNumber","LineNumber","ItemNumber","Quantity","Price","DiscountPercent",
"2011-08-30 13:33:49","20048906","1","6163759801","1.0000","62.5000","0.0000",
"2011-08-30 13:33:49","20048906","2","6162558801","1.0000","62.5000","0.0000",
