"CreateDate","OrderNumber","LineNumber","ItemNumber","Quantity","Price","DiscountPercent",
"2011-08-30 14:22:30","20048916","1","6161706401","1.0000","300.0000","0.0000",
"2011-08-30 14:22:30","20048916","2","6162374401","1.0000","160.0000","0.0000",
"2011-08-30 14:22:30","20048916","3","6163095701","1.0000","188.0000","0.0000",
