"CreateDate","OrderNumber","LineNumber","ItemNumber","Quantity","Price","DiscountPercent",
"2011-08-30 19:53:11","20048962","1","6161473402","1.0000","250.0000","0.0000",
"2011-08-30 19:53:11","20048962","2","6162436901","1.0000","200.0000","0.0000",
