"CreateDate","OrderNumber","LineNumber","ItemNumber","Quantity","Price","DiscountPercent",
"2011-08-31 11:18:19","20049045","1","6162613401","1.0000","148.0000","0.0000",
"2011-08-31 11:18:19","20049045","2","6163439901","1.0000","116.5000","0.0000",
