"CreateDate","OrderNumber","LineNumber","ItemNumber","Quantity","Price","DiscountPercent",
"2011-08-31 14:49:38","20049077","1","6162345402","10.0000","250.0000","0.0000",
"2011-08-31 14:49:38","20049077","2","6161463701","16.0000","230.0000","0.0000",
