"CreateDate","OrderNumber","LineNumber","ItemNumber","Quantity","Price","DiscountPercent",
"2011-08-31 16:41:25","20049082","1","6162360702","17.0000","268.0000","0.0000",
"2011-08-31 16:41:25","20049082","2","6161306103","13.0000","295.0000","0.0000",
"2011-08-31 16:41:25","20049082","3","6161271504","1.0000","295.0000","0.0000",
