"CreateDate","OrderNumber","LineNumber","ItemNumber","Quantity","Price","DiscountPercent",
"2011-08-31 15:16:43","20049079","1","6162436901","1.0000","200.0000","0.0000",
"2011-08-31 15:16:43","20049079","2","6161473402","1.0000","250.0000","0.0000",
"2011-08-31 15:16:43","20049079","3","6161170002","1.0000","350.0000","0.0000",
