"CreateDate","OrderNumber","LineNumber","ItemNumber","Quantity","Price","DiscountPercent",
"2011-09-01 06:45:36","20049114","1","6162821350","1.0000","69.0000","0.0000",
"2011-09-01 06:45:36","20049114","2","6162299050","1.0000","94.0000","0.0000",
