"CreateDate","OrderNumber","LineNumber","ItemNumber","Quantity","Price","DiscountPercent",
"2011-09-01 07:00:27","20049116","1","6161261806","30.0000","265.0000","0.0000",
"2011-09-01 07:00:27","20049116","2","6160555701","17.0000","190.0000","0.0000",
