"CreateDate","OrderNumber","LineNumber","ItemNumber","Quantity","Price","DiscountPercent",
"2011-09-01 06:32:18","20049110","1","6162332401","1.0000","67.5000","0.0000",
"2011-09-01 06:32:18","20049110","2","6162244002","1.0000","37.5000","0.0000",
