"CreateDate","OrderNumber","LineNumber","ItemNumber","Quantity","Price","DiscountPercent",
"2011-09-01 07:28:15","20049123","1","6163749950","1.0000","49.0000","0.0000",
"2011-09-01 07:28:15","20049123","2","6162684450","1.0000","60.0000","0.0000",
