"CreateDate","OrderNumber","LineNumber","ItemNumber","Quantity","Price","DiscountPercent",
"2011-09-01 08:44:08","20049135","1","6161493903","10.0000","300.0000","0.0000",
"2011-09-01 08:44:08","20049135","2","7783897105","10.0000","290.0000","0.0000",
