"CreateDate","OrderNumber","LineNumber","ItemNumber","Quantity","Price","DiscountPercent",
"2011-09-01 13:37:02","20049233","1","9083345901","1.0000","276.0000","0.0000",
"2011-09-01 13:37:02","20049233","2","9083392301","1.0000","0.0000","0.0000",
