"CreateDate","OrderNumber","LineNumber","ItemNumber","Quantity","Price","DiscountPercent",
"2011-09-01 14:20:31","20049239","1","6163566250","1.0000","87.0000","0.0000",
"2011-09-01 14:20:31","20049239","2","6160731202","1.0000","230.0000","0.0000",
