"CreateDate","OrderNumber","LineNumber","ItemNumber","Quantity","Price","DiscountPercent",
"2011-09-01 15:02:08","20049245","1","6162932650","1.0000","95.0000","0.0000",
"2011-09-01 15:02:08","20049245","2","6162374450","1.0000","80.0000","0.0000",
