"CreateDate","OrderNumber","LineNumber","ItemNumber","Quantity","Price","DiscountPercent",
"2011-09-02 09:09:30","20049317","1","6161161103","1.0000","250.0000","0.0000",
"2011-09-02 09:09:30","20049317","2","6161163807","1.0000","132.0000","0.0000",
