"CreateDate","OrderNumber","LineNumber","ItemNumber","Quantity","Price","DiscountPercent",
"2011-09-02 09:37:15","20049322","1","6163566201","1.0000","174.0000","0.0000",
"2011-09-02 09:37:15","20049322","2","6160699502","1.0000","200.0000","0.0000",
