"CreateDate","OrderNumber","LineNumber","ItemNumber","Quantity","Price","DiscountPercent",
"2011-09-02 10:42:52","20049336","1","6163749950","1.0000","49.0000","0.0000",
"2011-09-02 10:42:52","20049336","2","6162684450","1.0000","60.0000","0.0000",
"2011-09-02 10:42:52","20049336","3","6162932650","1.0000","95.0000","0.0000",
"2011-09-02 10:42:52","20049336","4","6163758101","1.0000","250.0000","0.0000",
