"CreateDate","OrderNumber","LineNumber","ItemNumber","Quantity","Price","DiscountPercent",
"2011-09-02 10:43:08","20049337","1","6163351401","3.0000","80.0000","0.0000",
"2011-09-02 10:43:08","20049337","2","6161382001","4.0000","90.0000","0.0000",
"2011-09-02 10:43:08","20049337","3","6161163807","5.0000","132.0000","0.0000",
