"CreateDate","OrderNumber","LineNumber","ItemNumber","Quantity","Price","DiscountPercent",
"2011-09-04 12:17:45","20049442","1","6163566250","1.0000","87.0000","0.0000",
"2011-09-04 12:17:45","20049442","2","6162485701","1.0000","96.0000","0.0000",
