"CreateDate","OrderNumber","LineNumber","ItemNumber","Quantity","Price","DiscountPercent",
"2011-09-04 21:32:29","20049471","1","9083345901","1.0000","276.0000","0.0000",
"2011-09-04 21:32:29","20049471","2","9083392301","1.0000","0.0000","0.0000",
