"CreateDate","OrderNumber","LineNumber","ItemNumber","Quantity","Price","DiscountPercent",
"2011-09-04 21:02:53","20049469","1","6162857201","1.0000","148.0000","0.0000",
"2011-09-04 21:02:53","20049469","2","6162667701","1.0000","320.0000","0.0000",
