"CreateDate","OrderNumber","LineNumber","ItemNumber","Quantity","Price","DiscountPercent",
"2011-09-05 09:35:29","20049519","1","6161706450","1.0000","150.0000","0.0000",
"2011-09-05 09:35:29","20049519","2","6162684450","1.0000","60.0000","0.0000",
"2011-09-05 09:35:29","20049519","3","6162374450","1.0000","80.0000","0.0000",
"2011-09-05 09:35:29","20049519","4","6162932650","1.0000","95.0000","0.0000",
