"CreateDate","OrderNumber","LineNumber","ItemNumber","Quantity","Price","DiscountPercent",
"2011-09-05 11:15:24","20049549","1","6162945601","2.0000","90.0000","0.0000",
"2011-09-05 11:15:24","20049549","2","6160930405","2.0000","330.0000","0.0000",
