"CreateDate","OrderNumber","LineNumber","ItemNumber","Quantity","Price","DiscountPercent",
"2011-09-05 11:40:16","20049559","1","6163433701","55.0000","60.0000","40.0000",
"2011-09-05 11:40:16","20049559","2","6163035301","55.0000","75.0000","40.0000",
"2011-09-05 11:40:16","20049559","3","6161495703","2.0000","220.0000","0.0000",
"2011-09-05 11:40:16","20049559","4","6161052604","2.0000","260.0000","0.0000",
