"CreateDate","OrderNumber","LineNumber","ItemNumber","Quantity","Price","DiscountPercent",
"2011-09-05 12:45:19","20049578","1","6162299001","1.0000","188.0000","0.0000",
"2011-09-05 12:45:19","20049578","2","6162821301","1.0000","138.0000","0.0000",
