"CreateDate","OrderNumber","LineNumber","ItemNumber","Quantity","Price","DiscountPercent",
"2011-09-05 18:24:11","20049604","1","6162802201","1.0000","30.0000","0.0000",
"2011-09-05 18:24:11","20049604","2","6162785801","1.0000","30.0000","0.0000",
