"CreateDate","OrderNumber","LineNumber","ItemNumber","Quantity","Price","DiscountPercent",
"2011-09-06 09:01:27","20049665","1","6162684401","32.0000","120.0000","0.0000",
"2011-09-06 09:01:27","20049665","2","6162685101","25.0000","30.0000","0.0000",
