"CreateDate","OrderNumber","LineNumber","ItemNumber","Quantity","Price","DiscountPercent",
"2011-09-06 11:45:31","20049693","1","6162788901","3.0000","220.0000","0.0000",
"2011-09-06 11:45:31","20049693","2","6162684401","3.0000","120.0000","0.0000",
