"CreateDate","OrderNumber","LineNumber","ItemNumber","Quantity","Price","DiscountPercent",
"2011-09-06 11:48:37","20049695","1","6163206701","25.0000","50.0000","0.0000",
"2011-09-06 11:48:37","20049695","2","6161347901","25.0000","50.0000","0.0000",
