"CreateDate","OrderNumber","LineNumber","ItemNumber","Quantity","Price","DiscountPercent",
"2011-09-06 12:58:18","20049714","1","9083345901","1.0000","276.0000","0.0000",
"2011-09-06 12:58:18","20049714","2","9083392301","1.0000","0.0000","0.0000",
