"CreateDate","OrderNumber","LineNumber","ItemNumber","Quantity","Price","DiscountPercent",
"2011-09-06 12:52:17","20049713","1","6162303402","25.0000","150.0000","0.0000",
"2011-09-06 12:52:17","20049713","2","6162561801","1.0000","37.5000","0.0000",
