"CreateDate","OrderNumber","LineNumber","ItemNumber","Quantity","Price","DiscountPercent",
"2011-09-06 15:55:20","20049731","1","6162932650","1.0000","95.0000","0.0000",
"2011-09-06 15:55:20","20049731","2","6161313404","13.0000","230.0000","0.0000",
