"CreateDate","OrderNumber","LineNumber","ItemNumber","Quantity","Price","DiscountPercent",
"2011-09-07 06:52:29","20049772","1","6163446701","3.0000","62.0000","0.0000",
"2011-09-07 06:52:29","20049772","2","6162857201","5.0000","148.0000","0.0000",
