"CreateDate","OrderNumber","LineNumber","ItemNumber","Quantity","Price","DiscountPercent",
"2011-09-07 09:58:41","20049813","1","6162516801","2.0000","220.0000","0.0000",
"2011-09-07 09:58:41","20049813","2","6161494701","1.0000","100.0000","0.0000",
