"CreateDate","OrderNumber","LineNumber","ItemNumber","Quantity","Price","DiscountPercent",
"2011-09-07 12:27:57","20049843","1","6161201402","2.0000","160.0000","0.0000",
"2011-09-07 12:27:57","20049843","2","6161382001","2.0000","90.0000","0.0000",
