"CreateDate","OrderNumber","LineNumber","ItemNumber","Quantity","Price","DiscountPercent",
"2011-09-07 20:12:16","20049908","1","6162251850","1.0000","84.0000","0.0000",
"2011-09-07 20:12:16","20049908","2","6160714201","1.0000","21.2500","0.0000",
