"CreateDate","OrderNumber","LineNumber","ItemNumber","Quantity","Price","DiscountPercent",
"2011-09-07 21:04:01","20049916","1","6161425401","1.0000","40.0000","0.0000",
"2011-09-07 21:04:01","20049916","2","6161426201","1.0000","40.0000","0.0000",
