"CreateDate","OrderNumber","LineNumber","ItemNumber","Quantity","Price","DiscountPercent",
"2011-09-08 07:34:10","20049935","1","6162792601","1.0000","280.0000","0.0000",
"2011-09-08 07:34:10","20049935","2","6163498601","1.0000","45.0000","0.0000",
