"CreateDate","OrderNumber","LineNumber","ItemNumber","Quantity","Price","DiscountPercent",
"2011-09-08 08:50:03","20049958","1","6161007015","1.0000","280.0000","0.0000",
"2011-09-08 08:50:03","20049958","2","6161065814","1.0000","170.0000","0.0000",
