"CreateDate","OrderNumber","LineNumber","ItemNumber","Quantity","Price","DiscountPercent",
"2011-09-08 12:24:38","20050012","1","6163752901","30.0000","57.5000","0.0000",
"2011-09-08 12:24:38","20050012","2","6162192701","60.0000","10.0000","0.0000",
"2011-09-08 12:24:38","20050012","3","6160127602","1.0000","250.0000","0.0000",
