"CreateDate","OrderNumber","LineNumber","ItemNumber","Quantity","Price","DiscountPercent",
"2011-09-08 19:39:45","20050047","1","6161481501","1.0000","350.0000","0.0000",
"2011-09-08 19:39:45","20050047","2","6162437601","1.0000","200.0000","0.0000",
