"CreateDate","OrderNumber","LineNumber","ItemNumber","Quantity","Price","DiscountPercent",
"2011-09-09 09:37:31","20050102","1","6161329005","1.0000","300.0000","0.0000",
"2011-09-09 09:37:31","20050102","2","6161759803","2.0000","90.0000","0.0000",
