"CreateDate","OrderNumber","LineNumber","ItemNumber","Quantity","Price","DiscountPercent",
"2011-09-09 10:21:11","20050112","1","6162251850","12.0000","84.0000","0.0000",
"2011-09-09 10:21:11","20050112","2","6162299050","12.0000","94.0000","0.0000",
"2011-09-09 10:21:11","20050112","3","6162821350","12.0000","69.0000","0.0000",
