"CreateDate","OrderNumber","LineNumber","ItemNumber","Quantity","Price","DiscountPercent",
"2011-09-09 13:18:22","20050134","1","6162553301","1.0000","120.0000","0.0000",
"2011-09-09 13:18:22","20050134","2","6163068101","1.0000","100.0000","0.0000",
