"CreateDate","OrderNumber","LineNumber","ItemNumber","Quantity","Price","DiscountPercent",
"2011-09-09 17:37:32","20050149","1","6163068101","1.0000","100.0000","0.0000",
"2011-09-09 17:37:32","20050149","2","6162644801","1.0000","174.0000","0.0000",
"2011-09-09 17:37:32","20050149","3","6163566201","1.0000","174.0000","0.0000",
"2011-09-09 17:37:32","20050149","4","7783980302","1.0000","170.0000","0.0000",
"2011-09-09 17:37:32","20050149","5","6160161603","1.0000","200.0000","0.0000",
