"CreateDate","OrderNumber","LineNumber","ItemNumber","Quantity","Price","DiscountPercent",
"2011-09-10 13:07:59","20050173","1","6161170002","1.0000","350.0000","0.0000",
"2011-09-10 13:07:59","20050173","2","6162026203","1.0000","150.0000","0.0000",
