"CreateDate","OrderNumber","LineNumber","ItemNumber","Quantity","Price","DiscountPercent",
"2011-09-12 06:29:15","20050268","1","6162251850","1.0000","84.0000","0.0000",
"2011-09-12 06:29:15","20050268","2","6162722301","1.0000","350.0000","0.0000",
"2011-09-12 06:29:15","20050268","3","6163758101","1.0000","250.0000","0.0000",
