"CreateDate","OrderNumber","LineNumber","ItemNumber","Quantity","Price","DiscountPercent",
"2011-09-12 10:54:02","20050324","1","6161396703","10.0000","200.0000","0.0000",
"2011-09-12 10:54:02","20050324","2","6160974902","1.0000","230.0000","0.0000",
"2011-09-12 10:54:02","20050324","3","6162113902","2.0000","128.0000","0.0000",
"2011-09-12 10:54:02","20050324","4","6161653201","2.0000","140.0000","0.0000",
"2011-09-12 10:54:02","20050324","5","7351345802","2.0000","150.0000","0.0000",
"2011-09-12 10:54:02","20050324","6","6162629501","1.0000","30.0000","0.0000",
"2011-09-12 10:54:02","20050324","7","6162485701","2.0000","96.0000","0.0000",
"2011-09-12 10:54:02","20050324","8","6161464301","2.0000","180.0000","0.0000",
"2011-09-12 10:54:02","20050324","9","6162213601","2.0000","50.0000","0.0000",
"2011-09-12 10:54:02","20050324","10","6162239601","1.0000","50.0000","0.0000",
"2011-09-12 10:54:02","20050324","11","6161032101","3.0000","160.0000","0.0000",
"2011-09-12 10:54:02","20050324","12","6160784301","2.0000","110.0000","0.0000",
