"CreateDate","OrderNumber","LineNumber","ItemNumber","Quantity","Price","DiscountPercent",
"2011-09-12 11:38:50","20050334","1","6162821350","1.0000","69.0000","0.0000",
"2011-09-12 11:38:50","20050334","2","6163566250","1.0000","87.0000","0.0000",
"2011-09-12 11:38:50","20050334","3","6162299050","1.0000","94.0000","0.0000",
"2011-09-12 11:38:50","20050334","4","6162251850","1.0000","84.0000","0.0000",
