"CreateDate","OrderNumber","LineNumber","ItemNumber","Quantity","Price","DiscountPercent",
"2011-09-12 12:38:54","20050350","1","6162610301","5.0000","288.0000","0.0000",
"2011-09-12 12:38:54","20050350","2","6162613401","1.0000","148.0000","0.0000",
"2011-09-12 12:38:54","20050350","3","6162612702","5.0000","148.0000","0.0000",
