"CreateDate","OrderNumber","LineNumber","ItemNumber","Quantity","Price","DiscountPercent",
"2011-09-12 20:14:28","20050434","1","6161007015","1.0000","280.0000","0.0000",
"2011-09-12 20:14:28","20050434","2","6162476502","1.0000","250.0000","0.0000",
"2011-09-12 20:14:28","20050434","3","6161065814","1.0000","170.0000","0.0000",
