"CreateDate","OrderNumber","LineNumber","ItemNumber","Quantity","Price","DiscountPercent",
"2011-09-13 06:56:40","20050452","1","6162684450","20.0000","60.0000","0.0000",
"2011-09-13 06:56:40","20050452","2","6163749950","20.0000","49.0000","0.0000",
