"CreateDate","OrderNumber","LineNumber","ItemNumber","Quantity","Price","DiscountPercent",
"2011-09-13 07:45:54","20050465","1","6162299050","7.0000","94.0000","0.0000",
"2011-09-13 07:45:54","20050465","2","6162251850","8.0000","84.0000","0.0000",
"2011-09-13 07:45:54","20050465","3","6162821350","8.0000","69.0000","0.0000",
"2011-09-13 07:45:54","20050465","4","6162664601","7.0000","180.0000","0.0000",
