"CreateDate","OrderNumber","LineNumber","ItemNumber","Quantity","Price","DiscountPercent",
"2011-09-13 10:28:31","20050499","1","6162610301","42.0000","288.0000","0.0000",
"2011-09-13 10:28:31","20050499","2","6162613401","42.0000","148.0000","0.0000",
