"CreateDate","OrderNumber","LineNumber","ItemNumber","Quantity","Price","DiscountPercent",
"2011-09-13 12:16:20","20050524","1","6161532301","1.0000","30.0000","0.0000",
"2011-09-13 12:16:20","20050524","2","6163060501","1.0000","90.0000","0.0000",
