"CreateDate","OrderNumber","LineNumber","ItemNumber","Quantity","Price","DiscountPercent",
"2011-09-13 14:05:24","20050550","1","6162907401","1.0000","70.0000","0.0000",
"2011-09-13 14:05:24","20050550","2","6162908101","1.0000","42.5000","0.0000",
