"CreateDate","OrderNumber","LineNumber","ItemNumber","Quantity","Price","DiscountPercent",
"2011-09-13 16:32:03","20050567","1","6161329005","1.0000","300.0000","0.0000",
"2011-09-13 16:32:03","20050567","2","6161759803","1.0000","90.0000","0.0000",
