"CreateDate","OrderNumber","LineNumber","ItemNumber","Quantity","Price","DiscountPercent",
"2011-09-13 18:05:49","20050583","1","6162700101","1.0000","120.0000","0.0000",
"2011-09-13 18:05:49","20050583","2","6164021501","1.0000","120.0000","0.0000",
