"CreateDate","OrderNumber","LineNumber","ItemNumber","Quantity","Price","DiscountPercent",
"2011-09-14 07:25:59","20050633","1","6162596001","1.0000","172.0000","0.0000",
"2011-09-14 07:25:59","20050633","2","6161042904","5.0000","190.0000","0.0000",
