"CreateDate","OrderNumber","LineNumber","ItemNumber","Quantity","Price","DiscountPercent",
"2011-09-14 07:36:13","20050636","1","6163566250","1.0000","87.0000","0.0000",
"2011-09-14 07:36:13","20050636","2","6162684450","1.0000","60.0000","0.0000",
"2011-09-14 07:36:13","20050636","3","6161123906","1.0000","270.0000","0.0000",
