"CreateDate","OrderNumber","LineNumber","ItemNumber","Quantity","Price","DiscountPercent",
"2011-09-14 10:51:05","20050675","1","6163749901","1.0000","98.0000","0.0000",
"2011-09-14 10:51:05","20050675","2","6161332001","1.0000","230.0000","0.0000",
