"CreateDate","OrderNumber","LineNumber","ItemNumber","Quantity","Price","DiscountPercent",
"2011-09-14 11:10:47","20050677","1","6161329005","3.0000","300.0000","0.0000",
"2011-09-14 11:10:47","20050677","2","6161759803","3.0000","90.0000","0.0000",
