"CreateDate","OrderNumber","LineNumber","ItemNumber","Quantity","Price","DiscountPercent",
"2011-09-14 10:46:33","20050673","1","9083345901","1.0000","276.0000","0.0000",
"2011-09-14 10:46:33","20050673","2","9083392301","1.0000","0.0000","0.0000",
