"CreateDate","OrderNumber","LineNumber","ItemNumber","Quantity","Price","DiscountPercent",
"2011-09-14 12:52:19","20050694","1","6161110701","1.0000","25.0000","0.0000",
"2011-09-14 12:52:19","20050694","2","6162908101","1.0000","42.5000","0.0000",
"2011-09-14 12:52:19","20050694","3","6162907401","1.0000","70.0000","0.0000",
