"CreateDate","OrderNumber","LineNumber","ItemNumber","Quantity","Price","DiscountPercent",
"2011-09-14 20:30:13","20050749","1","6162374450","3.0000","80.0000","0.0000",
"2011-09-14 20:30:13","20050749","2","6162374401","10.0000","160.0000","0.0000",
