"CreateDate","OrderNumber","LineNumber","ItemNumber","Quantity","Price","DiscountPercent",
"2011-09-15 08:13:52","20050775","1","6161294404","35.0000","256.0000","0.0000",
"2011-09-15 08:13:52","20050775","2","6161132102","30.0000","360.0000","0.0000",
"2011-09-15 08:13:52","20050775","3","6161137902","15.0000","270.0000","0.0000",
"2011-09-15 08:13:52","20050775","4","6162533502","15.0000","180.0000","0.0000",
