"CreateDate","OrderNumber","LineNumber","ItemNumber","Quantity","Price","DiscountPercent",
"2011-09-15 07:40:46","20050766","1","6161201402","1.0000","160.0000","0.0000",
"2011-09-15 07:40:46","20050766","2","6162417801","1.0000","100.0000","0.0000",
