"CreateDate","OrderNumber","LineNumber","ItemNumber","Quantity","Price","DiscountPercent",
"2011-09-15 10:05:40","20050795","1","6162672101","2.0000","163.0000","0.0000",
"2011-09-15 10:05:40","20050795","2","6161425401","2.0000","40.0000","0.0000",
"2011-09-15 10:05:40","20050795","3","6162671402","2.0000","62.5000","0.0000",
"2011-09-15 10:05:40","20050795","4","6161130106","27.0000","150.0000","0.0000",
"2011-09-15 10:05:40","20050795","5","6162720901","27.0000","250.0000","0.0000",
