"CreateDate","OrderNumber","LineNumber","ItemNumber","Quantity","Price","DiscountPercent",
"2011-09-15 17:49:00","20050845","1","6162251850","1.0000","84.0000","0.0000",
"2011-09-15 17:49:00","20050845","2","6162821350","1.0000","69.0000","0.0000",
