"CreateDate","OrderNumber","LineNumber","ItemNumber","Quantity","Price","DiscountPercent",
"2011-09-16 08:00:56","20050876","1","6163067401","1.0000","190.0000","0.0000",
"2011-09-16 08:00:56","20050876","2","6164234901","1.0000","200.0000","0.0000",
"2011-09-16 08:00:56","20050876","3","6162511302","1.0000","148.0000","0.0000",
