"CreateDate","OrderNumber","LineNumber","ItemNumber","Quantity","Price","DiscountPercent",
"2011-09-16 12:21:57","20050914","1","6161007015","2.0000","280.0000","0.0000",
"2011-09-16 12:21:57","20050914","2","6161065814","2.0000","170.0000","0.0000",
