"CreateDate","OrderNumber","LineNumber","ItemNumber","Quantity","Price","DiscountPercent",
"2011-09-17 02:14:14","20050934","1","6162813801","2.0000","190.0000","0.0000",
"2011-09-17 02:14:14","20050934","2","6163119001","3.0000","130.0000","0.0000",
"2011-09-17 02:14:14","20050934","3","6162648601","1.0000","148.0000","0.0000",
"2011-09-17 02:14:14","20050934","4","6160963201","2.0000","200.0000","0.0000",
"2011-09-17 02:14:14","20050934","5","6162107201","2.0000","110.0000","0.0000",
"2011-09-17 02:14:14","20050934","6","6161566807","1.0000","330.0000","0.0000",
"2011-09-17 02:14:14","20050934","7","1203364201","1.0000","150.0000","0.0000",
"2011-09-17 02:14:14","20050934","8","6161469605","1.0000","190.0000","0.0000",
"2011-09-17 02:14:14","20050934","9","6162210502","1.0000","188.0000","0.0000",
"2011-09-17 02:14:14","20050934","10","6162386701","1.0000","190.0000","0.0000",
"2011-09-17 02:14:14","20050934","11","6162144301","1.0000","148.0000","0.0000",
