"CreateDate","OrderNumber","LineNumber","ItemNumber","Quantity","Price","DiscountPercent",
"2011-09-18 16:44:23","20051014","1","6162026203","1.0000","150.0000","0.0000",
"2011-09-18 16:44:23","20051014","2","6161170002","1.0000","350.0000","0.0000",
"2011-09-18 16:44:23","20051014","3","6161473402","1.0000","250.0000","0.0000",
