"CreateDate","OrderNumber","LineNumber","ItemNumber","Quantity","Price","DiscountPercent",
"2011-09-19 06:12:56","20051055","1","6162669101","2.0000","190.0000","0.0000",
"2011-09-19 06:12:56","20051055","2","6162291402","2.0000","88.0000","0.0000",
