"CreateDate","OrderNumber","LineNumber","ItemNumber","Quantity","Price","DiscountPercent",
"2011-09-19 14:47:55","20051166","1","6163057501","1.0000","27.5000","0.0000",
"2011-09-19 14:47:55","20051166","2","6162355304","1.0000","85.0000","0.0000",
