"CreateDate","OrderNumber","LineNumber","ItemNumber","Quantity","Price","DiscountPercent",
"2011-09-19 19:44:12","20051214","1","6160532802","1.0000","195.0000","0.0000",
"2011-09-19 19:44:12","20051214","2","6160968701","1.0000","194.0000","0.0000",
"2011-09-19 19:44:12","20051214","3","6162553301","1.0000","120.0000","0.0000",
"2011-09-19 19:44:12","20051214","4","6161266901","1.0000","120.0000","0.0000",
