"CreateDate","OrderNumber","LineNumber","ItemNumber","Quantity","Price","DiscountPercent",
"2011-09-20 08:34:33","20051276","1","6161759803","1.0000","90.0000","0.0000",
"2011-09-20 08:34:33","20051276","2","6161329005","1.0000","300.0000","0.0000",
