"CreateDate","OrderNumber","LineNumber","ItemNumber","Quantity","Price","DiscountPercent",
"2011-09-20 12:07:50","20051327","1","6161181606","5.0000","280.0000","0.0000",
"2011-09-20 12:07:50","20051327","2","6160734702","1.0000","195.0000","0.0000",
"2011-09-20 12:07:50","20051327","3","6161105001","1.0000","40.0000","0.0000",
