"CreateDate","OrderNumber","LineNumber","ItemNumber","Quantity","Price","DiscountPercent",
"2011-09-20 13:26:13","20051346","1","6161201402","2.0000","160.0000","0.0000",
"2011-09-20 13:26:13","20051346","2","6161382001","2.0000","90.0000","0.0000",
"2011-09-20 13:26:13","20051346","3","6161362203","1.0000","150.0000","0.0000",
