"CreateDate","OrderNumber","LineNumber","ItemNumber","Quantity","Price","DiscountPercent",
"2011-09-20 19:31:44","20051407","1","6164253001","1.0000","80.0000","0.0000",
"2011-09-20 19:31:44","20051407","2","6164258501","1.0000","37.0000","0.0000",
