"CreateDate","OrderNumber","LineNumber","ItemNumber","Quantity","Price","DiscountPercent",
"2011-09-20 21:18:40","20051416","1","6161329005","1.0000","300.0000","0.0000",
"2011-09-20 21:18:40","20051416","2","6161759803","1.0000","90.0000","0.0000",
