"CreateDate","OrderNumber","LineNumber","ItemNumber","Quantity","Price","DiscountPercent",
"2011-09-21 08:44:22","20051456","1","6162026203","1.0000","150.0000","0.0000",
"2011-09-21 08:44:22","20051456","2","6161170002","1.0000","350.0000","0.0000",
"2011-09-21 08:44:22","20051456","3","6161473402","1.0000","250.0000","0.0000",
"2011-09-21 08:44:22","20051456","4","6162027901","1.0000","350.0000","0.0000",
