"CreateDate","OrderNumber","LineNumber","ItemNumber","Quantity","Price","DiscountPercent",
"2011-09-21 09:10:50","20051461","1","6162365205","1.0000","90.0000","0.0000",
"2011-09-21 09:10:50","20051461","2","6162562505","1.0000","60.0000","0.0000",
