"CreateDate","OrderNumber","LineNumber","ItemNumber","Quantity","Price","DiscountPercent",
"2011-09-21 10:49:14","20051493","1","6161329005","2.0000","300.0000","0.0000",
"2011-09-21 10:49:14","20051493","2","6161759803","2.0000","90.0000","0.0000",
