"CreateDate","OrderNumber","LineNumber","ItemNumber","Quantity","Price","DiscountPercent",
"2011-09-21 13:40:08","20051538","1","6161328201","1.0000","195.0000","0.0000",
"2011-09-21 13:40:08","20051538","2","6162466601","1.0000","80.0000","0.0000",
