"CreateDate","OrderNumber","LineNumber","ItemNumber","Quantity","Price","DiscountPercent",
"2011-09-22 08:14:27","20051631","1","6162481950","1.0000","90.0000","0.0000",
"2011-09-22 08:14:27","20051631","2","6163566250","1.0000","87.0000","0.0000",
