"CreateDate","OrderNumber","LineNumber","ItemNumber","Quantity","Price","DiscountPercent",
"2011-09-22 08:22:18","20051633","1","6162245702","60.0000","268.0000","0.0000",
"2011-09-22 08:22:18","20051633","2","6162210502","60.0000","188.0000","0.0000",
