"CreateDate","OrderNumber","LineNumber","ItemNumber","Quantity","Price","DiscountPercent",
"2011-09-22 11:16:00","20051659","1","6162695001","1.0000","40.0000","0.0000",
"2011-09-22 11:16:00","20051659","2","6162379901","1.0000","10.0000","0.0000",
