"CreateDate","OrderNumber","LineNumber","ItemNumber","Quantity","Price","DiscountPercent",
"2011-09-22 13:04:42","20051676","1","6162821350","1.0000","69.0000","0.0000",
"2011-09-22 13:04:42","20051676","2","6162251850","1.0000","84.0000","0.0000",
