"CreateDate","OrderNumber","LineNumber","ItemNumber","Quantity","Price","DiscountPercent",
"2011-09-23 08:19:07","20051767","1","6162932601","2.0000","190.0000","0.0000",
"2011-09-23 08:19:07","20051767","2","6163749901","2.0000","98.0000","0.0000",
