"CreateDate","OrderNumber","LineNumber","ItemNumber","Quantity","Price","DiscountPercent",
"2011-09-23 11:06:54","20051797","1","6162821350","1.0000","69.0000","0.0000",
"2011-09-23 11:06:54","20051797","2","6162299050","1.0000","94.0000","0.0000",
"2011-09-23 11:06:54","20051797","3","6164254750","1.0000","30.0000","0.0000",
