"CreateDate","OrderNumber","LineNumber","ItemNumber","Quantity","Price","DiscountPercent",
"2011-09-24 22:09:02","20051858","1","6161065814","1.0000","170.0000","0.0000",
"2011-09-24 22:09:02","20051858","2","6161007015","1.0000","280.0000","0.0000",
