"CreateDate","OrderNumber","LineNumber","ItemNumber","Quantity","Price","DiscountPercent",
"2011-09-25 10:16:08","20051869","1","6161329005","2.0000","300.0000","0.0000",
"2011-09-25 10:16:08","20051869","2","6161759803","1.0000","90.0000","0.0000",
