"CreateDate","OrderNumber","LineNumber","ItemNumber","Quantity","Price","DiscountPercent",
"2011-09-26 15:05:42","20051999","1","6162251850","1.0000","84.0000","0.0000",
"2011-09-26 15:05:42","20051999","2","6162299050","1.0000","94.0000","0.0000",
