"CreateDate","OrderNumber","LineNumber","ItemNumber","Quantity","Price","DiscountPercent",
"2011-09-26 18:09:06","20052015","1","6162821350","1.0000","69.0000","0.0000",
"2011-09-26 18:09:06","20052015","2","6162669101","1.0000","190.0000","0.0000",
