"CreateDate","OrderNumber","LineNumber","ItemNumber","Quantity","Price","DiscountPercent",
"2011-09-27 11:28:51","20052097","1","6161030502","1.0000","310.0000","0.0000",
"2011-09-27 11:28:51","20052097","2","6162419201","1.0000","90.0000","0.0000",
