"CreateDate","OrderNumber","LineNumber","ItemNumber","Quantity","Price","DiscountPercent",
"2011-09-27 12:40:02","20052108","1","6161408401","1.0000","70.0000","0.0000",
"2011-09-27 12:40:02","20052108","2","6161238302","1.0000","65.0000","0.0000",
"2011-09-27 12:40:02","20052108","3","6161474201","1.0000","40.0000","0.0000",
