"CreateDate","OrderNumber","LineNumber","ItemNumber","Quantity","Price","DiscountPercent",
"2011-09-27 16:57:47","20052137","1","6163893901","1.0000","30.0000","0.0000",
"2011-09-27 16:57:47","20052137","2","6162857201","1.0000","148.0000","0.0000",
