"CreateDate","OrderNumber","LineNumber","ItemNumber","Quantity","Price","DiscountPercent",
"2011-09-28 06:11:26","20052181","1","6160029601","1.0000","100.0000","0.0000",
"2011-09-28 06:11:26","20052181","2","6160999401","4.0000","160.0000","0.0000",
"2011-09-28 06:11:26","20052181","3","6162713101","1.0000","220.0000","0.0000",
"2011-09-28 06:11:26","20052181","4","6163749901","1.0000","98.0000","0.0000",
