"CreateDate","OrderNumber","LineNumber","ItemNumber","Quantity","Price","DiscountPercent",
"2011-09-28 08:13:50","20052198","1","6163895350","1.0000","49.0000","0.0000",
"2011-09-28 08:13:50","20052198","2","6162684450","1.0000","60.0000","0.0000",
"2011-09-28 08:13:50","20052198","3","6162481950","1.0000","90.0000","0.0000",
