"CreateDate","OrderNumber","LineNumber","ItemNumber","Quantity","Price","DiscountPercent",
"2011-09-28 09:59:49","20052228","1","9083345901","1.0000","276.0000","0.0000",
"2011-09-28 09:59:49","20052228","2","9083392301","1.0000","0.0000","0.0000",
