"CreateDate","OrderNumber","LineNumber","ItemNumber","Quantity","Price","DiscountPercent",
"2011-09-28 19:12:24","20052289","1","6161329005","2.0000","300.0000","0.0000",
"2011-09-28 19:12:24","20052289","2","6161759803","2.0000","90.0000","0.0000",
