"CreateDate","OrderNumber","LineNumber","ItemNumber","Quantity","Price","DiscountPercent",
"2011-09-29 08:39:22","20052344","1","6161130106","60.0000","150.0000","0.0000",
"2011-09-29 08:39:22","20052344","2","6164339101","90.0000","150.0000","0.0000",
