"CreateDate","OrderNumber","LineNumber","ItemNumber","Quantity","Price","DiscountPercent",
"2011-09-29 09:42:38","20052357","1","7783744407","1.0000","130.0000","0.0000",
"2011-09-29 09:42:38","20052357","2","6160817304","1.0000","110.0000","0.0000",
