"CreateDate","OrderNumber","LineNumber","ItemNumber","Quantity","Price","DiscountPercent",
"2011-09-29 12:01:40","20052378","1","6162643101","1.0000","188.0000","0.0000",
"2011-09-29 12:01:40","20052378","2","6162822001","1.0000","188.0000","0.0000",
"2011-09-29 12:01:40","20052378","3","6164237001","1.0000","172.0000","0.0000",
"2011-09-29 12:01:40","20052378","4","6161760602","1.0000","85.0000","0.0000",
