"CreateDate","OrderNumber","LineNumber","ItemNumber","Quantity","Price","DiscountPercent",
"2011-09-29 20:40:22","20052444","1","7351324508","1.0000","120.0000","0.0000",
"2011-09-29 20:40:22","20052444","2","6161759803","2.0000","90.0000","0.0000",
"2011-09-29 20:40:22","20052444","3","6161329005","2.0000","300.0000","0.0000",
