"CreateDate","OrderNumber","LineNumber","ItemNumber","Quantity","Price","DiscountPercent",
"2011-10-03 11:07:59","20052681","1","6162234101","1.0000","190.0000","0.0000",
"2011-10-03 11:07:59","20052681","2","6162043201","1.0000","140.0000","0.0000",
