"CreateDate","OrderNumber","LineNumber","ItemNumber","Quantity","Price","DiscountPercent",
"2011-10-03 11:18:47","20052684","1","6161382001","1.0000","90.0000","0.0000",
"2011-10-03 11:18:47","20052684","2","6161010032","1.0000","90.0000","0.0000",
