"CreateDate","OrderNumber","LineNumber","ItemNumber","Quantity","Price","DiscountPercent",
"2011-10-03 13:36:29","20052697","1","6162279201","4.0000","200.0000","0.0000",
"2011-10-03 13:36:29","20052697","2","6162786501","3.0000","200.0000","0.0000",
