"CreateDate","OrderNumber","LineNumber","ItemNumber","Quantity","Price","DiscountPercent",
"2011-10-04 08:31:02","20052758","1","6162792601","1.0000","280.0000","0.0000",
"2011-10-04 08:31:02","20052758","2","6163498601","1.0000","45.0000","0.0000",
