"CreateDate","OrderNumber","LineNumber","ItemNumber","Quantity","Price","DiscountPercent",
"2011-10-04 11:55:53","20052810","1","6162240201","1.0000","250.0000","0.0000",
"2011-10-04 11:55:53","20052810","2","6161706401","1.0000","300.0000","0.0000",
