"CreateDate","OrderNumber","LineNumber","ItemNumber","Quantity","Price","DiscountPercent",
"2011-10-04 18:02:49","20052855","1","6161329005","2.0000","300.0000","0.0000",
"2011-10-04 18:02:49","20052855","2","6161759803","2.0000","90.0000","0.0000",
