"CreateDate","OrderNumber","LineNumber","ItemNumber","Quantity","Price","DiscountPercent",
"2011-10-04 19:32:24","20052866","1","6162222801","1.0000","15.0000","0.0000",
"2011-10-04 19:32:24","20052866","2","6162223501","1.0000","20.0000","0.0000",
"2011-10-04 19:32:24","20052866","3","6161536601","1.0000","20.0000","0.0000",
"2011-10-04 19:32:24","20052866","4","6162224201","1.0000","15.0000","0.0000",
"2011-10-04 19:32:24","20052866","5","6161538201","1.0000","15.0000","0.0000",
"2011-10-04 19:32:24","20052866","6","6162225901","1.0000","25.0000","0.0000",
"2011-10-04 19:32:24","20052866","7","6162226601","1.0000","22.0000","0.0000",
