"CreateDate","OrderNumber","LineNumber","ItemNumber","Quantity","Price","DiscountPercent",
"2011-10-05 08:36:43","20052904","1","6161007015","1.0000","280.0000","0.0000",
"2011-10-05 08:36:43","20052904","2","6161065814","1.0000","170.0000","0.0000",
"2011-10-05 08:36:43","20052904","3","6161061502","1.0000","30.0000","0.0000",
