"CreateDate","OrderNumber","LineNumber","ItemNumber","Quantity","Price","DiscountPercent",
"2011-10-05 14:22:34","20052970","1","6162130703","1.0000","60.0000","0.0000",
"2011-10-05 14:22:34","20052970","2","6161244802","1.0000","37.5000","0.0000",
