"CreateDate","OrderNumber","LineNumber","ItemNumber","Quantity","Price","DiscountPercent",
"2011-10-05 20:37:24","20053005","1","6162854101","1.0000","45.0000","0.0000",
"2011-10-05 20:37:24","20053005","2","6163559401","1.0000","10.0000","0.0000",
"2011-10-05 20:37:24","20053005","3","6163287601","1.0000","42.0000","0.0000",
"2011-10-05 20:37:24","20053005","4","6162276101","1.0000","72.5000","0.0000",
