"CreateDate","OrderNumber","LineNumber","ItemNumber","Quantity","Price","DiscountPercent",
"2011-10-06 02:39:14","20053010","1","6163752901","1.0000","57.5000","0.0000",
"2011-10-06 02:39:14","20053010","2","6162295201","1.0000","37.5000","0.0000",
"2011-10-06 02:39:14","20053010","3","6162029701","1.0000","72.5000","0.0000",
"2011-10-06 02:39:14","20053010","4","6161450501","1.0000","50.0000","0.0000",
"2011-10-06 02:39:14","20053010","5","6161215401","1.0000","72.5000","0.0000",
"2011-10-06 02:39:14","20053010","6","6161037201","1.0000","32.5000","0.0000",
"2011-10-06 02:39:14","20053010","7","6160854801","1.0000","32.5000","0.0000",
"2011-10-06 02:39:14","20053010","8","6160616201","1.0000","60.0000","0.0000",
"2011-10-06 02:39:14","20053010","9","6162566301","1.0000","40.0000","0.0000",
"2011-10-06 02:39:14","20053010","10","6161652401","1.0000","82.5000","0.0000",
