"CreateDate","OrderNumber","LineNumber","ItemNumber","Quantity","Price","DiscountPercent",
"2011-10-06 07:19:36","20053017","1","6163060501","88.0000","90.0000","40.0000",
"2011-10-06 07:19:36","20053017","2","6163059901","25.0000","162.0000","40.0000",
"2011-10-06 07:19:36","20053017","3","6163076601","88.0000","100.0000","40.0000",
"2011-10-06 07:19:36","20053017","4","6163077301","25.0000","120.0000","40.0000",
