"CreateDate","OrderNumber","LineNumber","ItemNumber","Quantity","Price","DiscountPercent",
"2011-10-06 11:44:23","20053077","1","6162481950","1.0000","90.0000","0.0000",
"2011-10-06 11:44:23","20053077","2","6162741450","1.0000","82.5000","0.0000",
