"CreateDate","OrderNumber","LineNumber","ItemNumber","Quantity","Price","DiscountPercent",
"2011-10-07 13:30:36","20053281","1","7351324508","1.0000","120.0000","0.0000",
"2011-10-07 13:30:36","20053281","2","1202224104","1.0000","70.0000","0.0000",
"2011-10-07 13:30:36","20053281","3","6161232401","1.0000","57.5000","0.0000",
