"CreateDate","OrderNumber","LineNumber","ItemNumber","Quantity","Price","DiscountPercent",
"2011-10-07 18:23:39","20053307","1","6161329005","1.0000","300.0000","0.0000",
"2011-10-07 18:23:39","20053307","2","6161759803","1.0000","90.0000","0.0000",
