"CreateDate","OrderNumber","LineNumber","ItemNumber","Quantity","Price","DiscountPercent",
"2011-10-08 11:06:09","20053321","1","6162741450","1.0000","82.5000","0.0000",
"2011-10-08 11:06:09","20053321","2","6160026101","1.0000","188.0000","0.0000",
