"CreateDate","OrderNumber","LineNumber","ItemNumber","Quantity","Price","DiscountPercent",
"2011-10-08 12:25:19","20053322","1","6161800901","1.0000","74.0000","0.0000",
"2011-10-08 12:25:19","20053322","2","6161108501","1.0000","170.0000","0.0000",
"2011-10-08 12:25:19","20053322","3","6161363002","1.0000","190.0000","0.0000",
