"CreateDate","OrderNumber","LineNumber","ItemNumber","Quantity","Price","DiscountPercent",
"2011-10-09 13:11:32","20053363","1","6162298301","1.0000","50.0000","0.0000",
"2011-10-09 13:11:32","20053363","2","6162913501","1.0000","47.5000","0.0000",
"2011-10-09 13:11:32","20053363","3","6161378901","1.0000","25.0000","0.0000",
