"CreateDate","OrderNumber","LineNumber","ItemNumber","Quantity","Price","DiscountPercent",
"2011-10-09 14:52:31","20053368","1","6163806901","11.0000","48.0000","0.0000",
"2011-10-09 14:52:31","20053368","2","6162376801","2.0000","128.0000","0.0000",
"2011-10-09 14:52:31","20053368","3","6160608101","2.0000","100.0000","0.0000",
