"CreateDate","OrderNumber","LineNumber","ItemNumber","Quantity","Price","DiscountPercent",
"2011-10-09 17:07:55","20053375","1","6161329005","1.0000","300.0000","0.0000",
"2011-10-09 17:07:55","20053375","2","6161759803","1.0000","90.0000","0.0000",
