"CreateDate","OrderNumber","LineNumber","ItemNumber","Quantity","Price","DiscountPercent",
"2011-10-10 04:54:53","20053389","1","6161065814","1.0000","170.0000","0.0000",
"2011-10-10 04:54:53","20053389","2","6161007015","1.0000","280.0000","0.0000",
