"CreateDate","OrderNumber","LineNumber","ItemNumber","Quantity","Price","DiscountPercent",
"2011-10-10 12:46:21","20053473","1","6160881501","1.0000","196.0000","0.0000",
"2011-10-10 12:46:21","20053473","2","6160879302","1.0000","188.0000","0.0000",
"2011-10-10 12:46:21","20053473","3","6160880702","1.0000","196.0000","0.0000",
"2011-10-10 12:46:21","20053473","4","6162533502","9.0000","180.0000","0.0000",
