"CreateDate","OrderNumber","LineNumber","ItemNumber","Quantity","Price","DiscountPercent",
"2011-10-10 12:21:41","20053468","1","6160641301","30.0000","260.0000","0.0000",
"2011-10-10 12:21:41","20053468","2","6162815202","60.0000","275.0000","0.0000",
