"CreateDate","OrderNumber","LineNumber","ItemNumber","Quantity","Price","DiscountPercent",
"2011-10-10 15:09:19","20053486","1","6161473402","1.0000","250.0000","0.0000",
"2011-10-10 15:09:19","20053486","2","6161170002","1.0000","350.0000","0.0000",
"2011-10-10 15:09:19","20053486","3","6162027901","1.0000","350.0000","0.0000",
"2011-10-10 15:09:19","20053486","4","6162026203","1.0000","150.0000","0.0000",
