"CreateDate","OrderNumber","LineNumber","ItemNumber","Quantity","Price","DiscountPercent",
"2011-10-10 20:17:21","20053511","1","6162907401","1.0000","70.0000","0.0000",
"2011-10-10 20:17:21","20053511","2","6162908101","1.0000","42.5000","0.0000",
