"CreateDate","OrderNumber","LineNumber","ItemNumber","Quantity","Price","DiscountPercent",
"2011-10-11 12:42:56","20053586","1","6161889601","1.0000","150.0000","0.0000",
"2011-10-11 12:42:56","20053586","2","6161202201","1.0000","160.0000","0.0000",
"2011-10-11 12:42:56","20053586","3","6161382001","1.0000","90.0000","0.0000",
