"CreateDate","OrderNumber","LineNumber","ItemNumber","Quantity","Price","DiscountPercent",
"2011-10-11 18:25:27","20053610","1","6162245702","1.0000","268.0000","0.0000",
"2011-10-11 18:25:27","20053610","2","6161317701","1.0000","194.0000","0.0000",
"2011-10-11 18:25:27","20053610","3","6161049601","1.0000","194.0000","0.0000",
