"CreateDate","OrderNumber","LineNumber","ItemNumber","Quantity","Price","DiscountPercent",
"2011-10-13 09:06:26","20053760","1","6162531101","2.0000","100.0000","0.0000",
"2011-10-13 09:06:26","20053760","2","6162722301","1.0000","350.0000","0.0000",
"2011-10-13 09:06:26","20053760","3","6160968701","2.0000","194.0000","0.0000",
"2011-10-13 09:06:26","20053760","4","6163065001","2.0000","220.0000","0.0000",
