"CreateDate","OrderNumber","LineNumber","ItemNumber","Quantity","Price","DiscountPercent",
"2011-10-13 17:51:01","20053824","1","6161065814","1.0000","170.0000","0.0000",
"2011-10-13 17:51:01","20053824","2","6161007015","1.0000","280.0000","0.0000",
