"CreateDate","OrderNumber","LineNumber","ItemNumber","Quantity","Price","DiscountPercent",
"2011-10-14 09:11:11","20053861","1","6162644801","30.0000","174.0000","0.0000",
"2011-10-14 09:11:11","20053861","2","6161123906","60.0000","270.0000","0.0000",
