"CreateDate","OrderNumber","LineNumber","ItemNumber","Quantity","Price","DiscountPercent",
"2011-10-15 15:32:30","20053897","1","6161481501","1.0000","350.0000","0.0000",
"2011-10-15 15:32:30","20053897","2","6162260001","1.0000","150.0000","0.0000",
