"CreateDate","OrderNumber","LineNumber","ItemNumber","Quantity","Price","DiscountPercent",
"2011-10-18 12:21:23","20053975","1","6161408401","1.0000","70.0000","0.0000",
"2011-10-18 12:21:23","20053975","2","6161474201","1.0000","40.0000","0.0000",
