"CreateDate","OrderNumber","LineNumber","ItemNumber","Quantity","Price","DiscountPercent",
"2011-10-19 08:24:28","20053998","1","6163076601","12.0000","100.0000","0.0000",
"2011-10-19 08:24:28","20053998","2","6162706301","1.0000","140.0000","0.0000",
