"CreateDate","OrderNumber","LineNumber","ItemNumber","Quantity","Price","DiscountPercent",
"2011-10-19 11:52:57","20054008","1","6162612702","30.0000","148.0000","0.0000",
"2011-10-19 11:52:57","20054008","2","6162609702","186.0000","288.0000","0.0000",
"2011-10-19 11:52:57","20054008","3","6162611001","30.0000","176.0000","0.0000",
