"CreateDate","OrderNumber","LineNumber","ItemNumber","Quantity","Price","DiscountPercent",
"2011-10-21 10:14:27","20054070","1","9083345901","1.0000","276.0000","0.0000",
"2011-10-21 10:14:27","20054070","2","9083392301","1.0000","0.0000","0.0000",
