"CreateDate","OrderNumber","LineNumber","ItemNumber","Quantity","Price","DiscountPercent",
"2011-10-24 07:51:19","20054152","1","6162189402","2.0000","250.0000","0.0000",
"2011-10-24 07:51:19","20054152","2","6162273002","2.0000","80.0000","0.0000",
