"CreateDate","OrderNumber","LineNumber","ItemNumber","Quantity","Price","DiscountPercent",
"2011-10-24 13:15:41","20054212","1","6161271504","1.0000","295.0000","0.0000",
"2011-10-24 13:15:41","20054212","2","6161306103","1.0000","295.0000","0.0000",
