"CreateDate","OrderNumber","LineNumber","ItemNumber","Quantity","Price","DiscountPercent",
"2011-10-24 18:28:07","20054229","1","6161010032","1.0000","90.0000","0.0000",
"2011-10-24 18:28:07","20054229","2","6162365205","1.0000","90.0000","0.0000",
