"CreateDate","OrderNumber","LineNumber","ItemNumber","Quantity","Price","DiscountPercent",
"2011-10-24 19:53:33","20054240","1","6161495703","10.0000","220.0000","0.0000",
"2011-10-24 19:53:33","20054240","2","6161052604","10.0000","260.0000","0.0000",
"2011-10-24 19:53:33","20054240","3","6160736302","2.0000","175.0000","0.0000",
