"CreateDate","OrderNumber","LineNumber","ItemNumber","Quantity","Price","DiscountPercent",
"2011-10-25 10:14:15","20054286","1","6162240201","1.0000","250.0000","0.0000",
"2011-10-25 10:14:15","20054286","2","6162423901","1.0000","100.0000","0.0000",
