"CreateDate","OrderNumber","LineNumber","ItemNumber","Quantity","Price","DiscountPercent",
"2011-10-25 13:03:06","20054323","1","7351091202","1.0000","90.0000","0.0000",
"2011-10-25 13:03:06","20054323","2","6161201402","1.0000","160.0000","0.0000",
