"CreateDate","OrderNumber","LineNumber","ItemNumber","Quantity","Price","DiscountPercent",
"2011-10-25 15:46:11","20054343","1","6160919601","1.0000","195.0000","0.0000",
"2011-10-25 15:46:11","20054343","2","6162533502","1.0000","180.0000","0.0000",
