"CreateDate","OrderNumber","LineNumber","ItemNumber","Quantity","Price","DiscountPercent",
"2011-10-25 19:37:28","20054357","1","9083345901","1.0000","276.0000","0.0000",
"2011-10-25 19:37:28","20054357","2","9083392301","1.0000","0.0000","0.0000",
