"CreateDate","OrderNumber","LineNumber","ItemNumber","Quantity","Price","DiscountPercent",
"2011-10-26 14:22:02","20054450","1","7351324508","1.0000","120.0000","0.0000",
"2011-10-26 14:22:02","20054450","2","6161259602","1.0000","120.0000","0.0000",
