"CreateDate","OrderNumber","LineNumber","ItemNumber","Quantity","Price","DiscountPercent",
"2011-10-27 07:43:36","20054499","1","6162515102","1.0000","168.0000","0.0000",
"2011-10-27 07:43:36","20054499","2","6162249502","1.0000","180.0000","0.0000",
