"CreateDate","OrderNumber","LineNumber","ItemNumber","Quantity","Price","DiscountPercent",
"2011-10-27 09:35:03","20054522","1","6162038601","1.0000","250.0000","0.0000",
"2011-10-27 09:35:03","20054522","2","6162027901","1.0000","350.0000","0.0000",
"2011-10-27 09:35:03","20054522","3","6162026203","1.0000","150.0000","0.0000",
"2011-10-27 09:35:03","20054522","4","6162260001","1.0000","150.0000","0.0000",
