"CreateDate","OrderNumber","LineNumber","ItemNumber","Quantity","Price","DiscountPercent",
"2011-10-27 09:41:43","20054525","1","6161635402","1.0000","80.0000","0.0000",
"2011-10-27 09:41:43","20054525","2","6161244802","1.0000","37.5000","0.0000",
"2011-10-27 09:41:43","20054525","3","6160654501","1.0000","60.0000","0.0000",
"2011-10-27 09:41:43","20054525","4","6162281501","1.0000","70.0000","0.0000",
"2011-10-27 09:41:43","20054525","5","6162336201","1.0000","50.0000","0.0000",
