"CreateDate","OrderNumber","LineNumber","ItemNumber","Quantity","Price","DiscountPercent",
"2011-10-27 11:49:03","20054541","1","6163111401","1.0000","96.0000","0.0000",
"2011-10-27 11:49:03","20054541","2","6163159601","1.0000","65.0000","0.0000",
"2011-10-27 11:49:03","20054541","3","6162283901","1.0000","75.0000","0.0000",
