"CreateDate","OrderNumber","LineNumber","ItemNumber","Quantity","Price","DiscountPercent",
"2011-10-28 08:35:15","20054594","1","6164252301","1.0000","87.5000","0.0000",
"2011-10-28 08:35:15","20054594","2","6163111401","1.0000","96.0000","0.0000",
