"CreateDate","OrderNumber","LineNumber","ItemNumber","Quantity","Price","DiscountPercent",
"2011-10-28 11:13:31","20054622","1","6161329005","1.0000","300.0000","0.0000",
"2011-10-28 11:13:31","20054622","2","6161759803","2.0000","90.0000","0.0000",
