"CreateDate","OrderNumber","LineNumber","ItemNumber","Quantity","Price","DiscountPercent",
"2011-10-31 09:27:24","20054722","1","6160889002","20.0000","270.0000","0.0000",
"2011-10-31 09:27:24","20054722","2","6161952501","20.0000","120.0000","0.0000",
