"CreateDate","OrderNumber","LineNumber","ItemNumber","Quantity","Price","DiscountPercent",
"2011-10-31 11:39:19","20054745","1","6162485701","1.0000","96.0000","0.0000",
"2011-10-31 11:39:19","20054745","2","6162531101","1.0000","100.0000","0.0000",
"2011-10-31 11:39:19","20054745","3","6162553301","1.0000","120.0000","0.0000",
"2011-10-31 11:39:19","20054745","4","6161268501","1.0000","140.0000","0.0000",
"2011-10-31 11:39:19","20054745","5","6160364302","1.0000","190.0000","0.0000",
"2011-10-31 11:39:19","20054745","6","6160161603","1.0000","200.0000","0.0000",
"2011-10-31 11:39:19","20054745","7","6160064402","1.0000","170.0000","0.0000",
"2011-10-31 11:39:19","20054745","8","6161140902","1.0000","195.0000","0.0000",
"2011-10-31 11:39:19","20054745","9","6160300703","32.0000","220.0000","0.0000",
"2011-10-31 11:39:19","20054745","10","6161052604","20.0000","260.0000","0.0000",
