"CreateDate","OrderNumber","LineNumber","ItemNumber","Quantity","Price","DiscountPercent",
"2011-10-31 11:38:58","20054744","1","6163893901","1.0000","30.0000","0.0000",
"2011-10-31 11:38:58","20054744","2","6164253001","1.0000","80.0000","0.0000",
