"CreateDate","OrderNumber","LineNumber","ItemNumber","Quantity","Price","DiscountPercent",
"2011-10-31 17:25:17","20054778","1","6162667702","1.0000","320.0000","0.0000",
"2011-10-31 17:25:17","20054778","2","6162857201","1.0000","148.0000","0.0000",
