"CreateDate","OrderNumber","LineNumber","ItemNumber","Quantity","Price","DiscountPercent",
"2011-11-01 09:00:13","20054815","1","6162684401","5.0000","120.0000","0.0000",
"2011-11-01 09:00:13","20054815","2","6163385901","1.0000","55.0000","0.0000",
