"CreateDate","OrderNumber","LineNumber","ItemNumber","Quantity","Price","DiscountPercent",
"2011-11-01 22:44:35","20054888","1","6161201402","1.0000","160.0000","0.0000",
"2011-11-01 22:44:35","20054888","2","6161362203","1.0000","150.0000","0.0000",
