"CreateDate","OrderNumber","LineNumber","ItemNumber","Quantity","Price","DiscountPercent",
"2011-11-02 10:17:39","20054907","1","6162562505","1.0000","60.0000","0.0000",
"2011-11-02 10:17:39","20054907","2","1202747203","1.0000","80.0000","0.0000",
