"CreateDate","OrderNumber","LineNumber","ItemNumber","Quantity","Price","DiscountPercent",
"2011-11-03 08:50:10","20054968","1","6162481901","8.0000","180.0000","0.0000",
"2011-11-03 08:50:10","20054968","2","6163120601","8.0000","200.0000","0.0000",
