"CreateDate","OrderNumber","LineNumber","ItemNumber","Quantity","Price","DiscountPercent",
"2011-11-03 09:56:51","20054976","1","6161759803","1.0000","90.0000","0.0000",
"2011-11-03 09:56:51","20054976","2","6161329005","1.0000","300.0000","0.0000",
