"CreateDate","OrderNumber","LineNumber","ItemNumber","Quantity","Price","DiscountPercent",
"2011-11-03 14:49:06","20055012","1","6162485701","2.0000","96.0000","0.0000",
"2011-11-03 14:49:06","20055012","2","6162713101","2.0000","220.0000","0.0000",
"2011-11-03 14:49:06","20055012","3","6160999401","2.0000","160.0000","0.0000",
