"CreateDate","OrderNumber","LineNumber","ItemNumber","Quantity","Price","DiscountPercent",
"2011-11-03 18:11:38","20055025","1","6160734702","1.0000","195.0000","0.0000",
"2011-11-03 18:11:38","20055025","2","6163758101","1.0000","250.0000","0.0000",
"2011-11-03 18:11:38","20055025","3","7783704501","1.0000","160.0000","0.0000",
"2011-11-03 18:11:38","20055025","4","7351345802","1.0000","150.0000","0.0000",
