"CreateDate","OrderNumber","LineNumber","ItemNumber","Quantity","Price","DiscountPercent",
"2011-11-04 10:15:31","20055058","1","6160919601","1.0000","195.0000","0.0000",
"2011-11-04 10:15:31","20055058","2","6160953601","1.0000","210.0000","0.0000",
