"CreateDate","OrderNumber","LineNumber","ItemNumber","Quantity","Price","DiscountPercent",
"2011-11-04 13:44:44","20055092","1","6163845801","1.0000","28.0000","0.0000",
"2011-11-04 13:44:44","20055092","2","6163846501","1.0000","35.0000","0.0000",
"2011-11-04 13:44:44","20055092","3","6163847201","1.0000","62.0000","0.0000",
"2011-11-04 13:44:44","20055092","4","6163843401","1.0000","83.0000","0.0000",
"2011-11-04 13:44:44","20055092","5","6163849601","1.0000","56.0000","0.0000",
"2011-11-04 13:44:44","20055092","6","6163850201","1.0000","62.0000","0.0000",
"2011-11-04 13:44:44","20055092","7","6163852601","1.0000","90.0000","0.0000",
"2011-11-04 13:44:44","20055092","8","6163853301","1.0000","110.0000","0.0000",
