"CreateDate","OrderNumber","LineNumber","ItemNumber","Quantity","Price","DiscountPercent",
"2011-11-07 06:41:22","20055162","1","6161759803","1.0000","90.0000","0.0000",
"2011-11-07 06:41:22","20055162","2","6161329005","1.0000","300.0000","0.0000",
