"CreateDate","OrderNumber","LineNumber","ItemNumber","Quantity","Price","DiscountPercent",
"2011-11-07 12:06:56","20055205","1","6162218101","1.0000","170.0000","0.0000",
"2011-11-07 12:06:56","20055205","2","6160445301","1.0000","180.0000","0.0000",
"2011-11-07 12:06:56","20055205","3","6160557301","1.0000","150.0000","0.0000",
