"CreateDate","OrderNumber","LineNumber","ItemNumber","Quantity","Price","DiscountPercent",
"2011-11-08 18:59:16","20055317","1","6161007015","1.0000","280.0000","0.0000",
"2011-11-08 18:59:16","20055317","2","6161065814","1.0000","170.0000","0.0000",
"2011-11-08 18:59:16","20055317","3","6162907401","1.0000","70.0000","0.0000",
