"CreateDate","OrderNumber","LineNumber","ItemNumber","Quantity","Price","DiscountPercent",
"2011-11-08 21:22:28","20055331","1","6163434401","1.0000","110.0000","0.0000",
"2011-11-08 21:22:28","20055331","2","6163036001","1.0000","135.0000","0.0000",
