"CreateDate","OrderNumber","LineNumber","ItemNumber","Quantity","Price","DiscountPercent",
"2011-11-08 21:05:32","20055329","1","6162907401","1.0000","70.0000","0.0000",
"2011-11-08 21:05:32","20055329","2","6162908101","1.0000","42.5000","0.0000",
