"CreateDate","OrderNumber","LineNumber","ItemNumber","Quantity","Price","DiscountPercent",
"2011-11-09 09:17:41","20055348","1","6162255602","1.0000","148.0000","0.0000",
"2011-11-09 09:17:41","20055348","2","6162709404","1.0000","80.0000","0.0000",
