"CreateDate","OrderNumber","LineNumber","ItemNumber","Quantity","Price","DiscountPercent",
"2011-11-09 09:38:47","20055353","1","9083346601","1.0000","220.0000","0.0000",
"2011-11-09 09:38:47","20055353","2","9083359601","1.0000","252.0000","0.0000",
