"CreateDate","OrderNumber","LineNumber","ItemNumber","Quantity","Price","DiscountPercent",
"2011-11-09 11:05:41","20055363","1","6162684401","5.0000","120.0000","0.0000",
"2011-11-09 11:05:41","20055363","2","6163749901","5.0000","98.0000","0.0000",
"2011-11-09 11:05:41","20055363","3","6162485701","5.0000","96.0000","0.0000",
"2011-11-09 11:05:41","20055363","4","6162310201","10.0000","112.0000","0.0000",
"2011-11-09 11:05:41","20055363","5","6161659101","5.0000","35.0000","0.0000",
