"CreateDate","OrderNumber","LineNumber","ItemNumber","Quantity","Price","DiscountPercent",
"2011-11-09 14:37:32","20055389","1","6162515102","1.0000","168.0000","0.0000",
"2011-11-09 14:37:32","20055389","2","6161294403","1.0000","256.0000","0.0000",
"2011-11-09 14:37:32","20055389","3","6161526904","1.0000","95.0000","0.0000",
