"CreateDate","OrderNumber","LineNumber","ItemNumber","Quantity","Price","DiscountPercent",
"2011-11-09 20:18:26","20055404","1","6161362203","1.0000","150.0000","0.0000",
"2011-11-09 20:18:26","20055404","2","6161201402","1.0000","160.0000","0.0000",
