"CreateDate","OrderNumber","LineNumber","ItemNumber","Quantity","Price","DiscountPercent",
"2011-11-10 12:15:26","20055453","1","6161527502","100.0000","100.0000","0.0000",
"2011-11-10 12:15:26","20055453","2","7783980302","35.0000","170.0000","0.0000",
"2011-11-10 12:15:26","20055453","3","6162146703","33.0000","268.0000","0.0000",
"2011-11-10 12:15:26","20055453","4","6162360702","33.0000","268.0000","0.0000",
"2011-11-10 12:15:26","20055453","5","6162245702","40.0000","268.0000","0.0000",
