"CreateDate","OrderNumber","LineNumber","ItemNumber","Quantity","Price","DiscountPercent",
"2011-11-10 21:56:05","20055502","1","6162565601","1.0000","348.0000","0.0000",
"2011-11-10 21:56:05","20055502","2","6162611001","1.0000","176.0000","0.0000",
