"CreateDate","OrderNumber","LineNumber","ItemNumber","Quantity","Price","DiscountPercent",
"2011-11-11 08:57:33","20055518","1","6162419201","4.0000","90.0000","0.0000",
"2011-11-11 08:57:33","20055518","2","6161030503","2.0000","310.0000","0.0000",
