"CreateDate","OrderNumber","LineNumber","ItemNumber","Quantity","Price","DiscountPercent",
"2011-11-11 10:17:10","20055537","1","6161052604","40.0000","260.0000","0.0000",
"2011-11-11 10:17:10","20055537","2","6161495703","40.0000","220.0000","0.0000",
