"CreateDate","OrderNumber","LineNumber","ItemNumber","Quantity","Price","DiscountPercent",
"2011-11-11 11:54:56","20055550","1","7783704501","1.0000","160.0000","0.0000",
"2011-11-11 11:54:56","20055550","2","7783188802","1.0000","160.0000","0.0000",
