"CreateDate","OrderNumber","LineNumber","ItemNumber","Quantity","Price","DiscountPercent",
"2011-11-14 11:13:06","20055654","1","6163124450","7.0000","124.0000","0.0000",
"2011-11-14 11:13:06","20055654","2","6163844101","8.0000","156.0000","0.0000",
