"CreateDate","OrderNumber","LineNumber","ItemNumber","Quantity","Price","DiscountPercent",
"2011-11-15 08:59:15","20055728","1","9083345901","1.0000","276.0000","0.0000",
"2011-11-15 08:59:15","20055728","2","9083392301","1.0000","0.0000","0.0000",
