"CreateDate","OrderNumber","LineNumber","ItemNumber","Quantity","Price","DiscountPercent",
"2011-11-15 13:13:03","20055759","1","6162419201","2.0000","90.0000","0.0000",
"2011-11-15 13:13:03","20055759","2","6161030503","2.0000","310.0000","0.0000",
