"CreateDate","OrderNumber","LineNumber","ItemNumber","Quantity","Price","DiscountPercent",
"2011-11-15 20:21:49","20055791","1","6160968701","1.0000","194.0000","0.0000",
"2011-11-15 20:21:49","20055791","2","6163433701","1.0000","60.0000","0.0000",
"2011-11-15 20:21:49","20055791","3","6162296902","1.0000","194.0000","0.0000",
"2011-11-15 20:21:49","20055791","4","6163035301","1.0000","75.0000","0.0000",
"2011-11-15 20:21:49","20055791","5","6161495703","1.0000","220.0000","0.0000",
"2011-11-15 20:21:49","20055791","6","6161052604","1.0000","260.0000","0.0000",
"2011-11-15 20:21:49","20055791","7","6160734702","1.0000","195.0000","0.0000",
"2011-11-15 20:21:49","20055791","8","6163068101","1.0000","100.0000","0.0000",
