"CreateDate","OrderNumber","LineNumber","ItemNumber","Quantity","Price","DiscountPercent",
"2011-11-18 10:07:11","20055954","1","9083350302","1.0000","110.0000","0.0000",
"2011-11-18 10:07:11","20055954","2","9137304201","1.0000","36.0000","0.0000",
