"CreateDate","OrderNumber","LineNumber","ItemNumber","Quantity","Price","DiscountPercent",
"2011-11-21 08:44:02","20056033","1","6162437601","1.0000","200.0000","0.0000",
"2011-11-21 08:44:02","20056033","2","6161481501","1.0000","350.0000","0.0000",
