"CreateDate","OrderNumber","LineNumber","ItemNumber","Quantity","Price","DiscountPercent",
"2011-11-21 11:02:23","20056053","1","6161952501","2.0000","120.0000","0.0000",
"2011-11-21 11:02:23","20056053","2","6160529802","2.0000","195.0000","0.0000",
"2011-11-21 11:02:23","20056053","3","6160553002","2.0000","260.0000","0.0000",
