"CreateDate","OrderNumber","LineNumber","ItemNumber","Quantity","Price","DiscountPercent",
"2011-11-22 18:59:41","20056177","1","6162704901","1.0000","84.0000","0.0000",
"2011-11-22 18:59:41","20056177","2","6162703201","1.0000","136.0000","0.0000",
"2011-11-22 18:59:41","20056177","3","6163223401","25.0000","100.0000","0.0000",
"2011-11-22 18:59:41","20056177","4","6164862401","2.0000","130.0000","0.0000",
"2011-11-22 18:59:41","20056177","5","6163065001","1.0000","220.0000","0.0000",
"2011-11-22 18:59:41","20056177","6","6163124450","16.0000","124.0000","0.0000",
"2011-11-22 18:59:41","20056177","7","6162791901","2.0000","180.0000","0.0000",
