"CreateDate","OrderNumber","LineNumber","ItemNumber","Quantity","Price","DiscountPercent",
"2011-11-22 21:52:28","20056182","1","6162254903","1.0000","290.0000","0.0000",
"2011-11-22 21:52:28","20056182","2","6162274702","1.0000","130.0000","0.0000",
"2011-11-22 21:52:28","20056182","3","6162791901","1.0000","180.0000","0.0000",
