"CreateDate","OrderNumber","LineNumber","ItemNumber","Quantity","Price","DiscountPercent",
"2011-11-23 08:43:43","20056197","1","6161473402","1.0000","250.0000","0.0000",
"2011-11-23 08:43:43","20056197","2","6162436901","1.0000","200.0000","0.0000",
"2011-11-23 08:43:43","20056197","3","6161170002","1.0000","350.0000","0.0000",
"2011-11-23 08:43:43","20056197","4","6162026203","1.0000","150.0000","0.0000",
