"CreateDate","OrderNumber","LineNumber","ItemNumber","Quantity","Price","DiscountPercent",
"2011-11-23 11:11:36","20056220","1","6162596001","1.0000","172.0000","0.0000",
"2011-11-23 11:11:36","20056220","2","6162662201","1.0000","320.0000","0.0000",
"2011-11-23 11:11:36","20056220","3","6160825401","1.0000","180.0000","0.0000",
"2011-11-23 11:11:36","20056220","4","6160538702","1.0000","140.0000","0.0000",
