"CreateDate","OrderNumber","LineNumber","ItemNumber","Quantity","Price","DiscountPercent",
"2011-11-23 15:07:24","20056250","1","6163752901","1.0000","57.5000","0.0000",
"2011-11-23 15:07:24","20056250","2","6162029701","1.0000","72.5000","0.0000",
