"CreateDate","OrderNumber","LineNumber","ItemNumber","Quantity","Price","DiscountPercent",
"2011-11-24 08:55:01","20056287","1","7783369404","2.0000","186.0000","0.0000",
"2011-11-24 08:55:01","20056287","2","6162123801","2.0000","150.0000","0.0000",
"2011-11-24 08:55:01","20056287","3","6162291402","34.0000","88.0000","0.0000",
"2011-11-24 08:55:01","20056287","4","6162669101","60.0000","190.0000","0.0000",
"2011-11-24 08:55:01","20056287","5","7783401109","2.0000","170.0000","0.0000",
"2011-11-24 08:55:01","20056287","6","6162270901","33.0000","180.0000","0.0000",
"2011-11-24 08:55:01","20056287","7","6160927702","33.0000","170.0000","0.0000",
