"CreateDate","OrderNumber","LineNumber","ItemNumber","Quantity","Price","DiscountPercent",
"2011-11-24 11:46:43","20056313","1","6163067401","5.0000","190.0000","0.0000",
"2011-11-24 11:46:43","20056313","2","6162481901","130.0000","180.0000","0.0000",
