"CreateDate","OrderNumber","LineNumber","ItemNumber","Quantity","Price","DiscountPercent",
"2011-11-24 14:33:20","20056351","1","6163124450","10.0000","124.0000","0.0000",
"2011-11-24 14:33:20","20056351","2","6162791950","10.0000","90.0000","0.0000",
"2011-11-24 14:33:20","20056351","3","6162387401","1.0000","10.0000","0.0000",
"2011-11-24 14:33:20","20056351","4","6162351501","1.0000","10.0000","0.0000",
