"CreateDate","OrderNumber","LineNumber","ItemNumber","Quantity","Price","DiscountPercent",
"2011-11-24 15:23:21","20056355","1","6162419201","2.0000","90.0000","0.0000",
"2011-11-24 15:23:21","20056355","2","6161030503","4.0000","310.0000","0.0000",
