"CreateDate","OrderNumber","LineNumber","ItemNumber","Quantity","Price","DiscountPercent",
"2011-11-25 09:50:47","20056399","1","6161321504","2.0000","90.0000","0.0000",
"2011-11-25 09:50:47","20056399","2","6161042904","2.0000","190.0000","0.0000",
