"CreateDate","OrderNumber","LineNumber","ItemNumber","Quantity","Price","DiscountPercent",
"2011-11-28 07:22:12","20056483","1","6163758101","3.0000","250.0000","0.0000",
"2011-11-28 07:22:12","20056483","2","6162684401","2.0000","120.0000","0.0000",
"2011-11-28 07:22:12","20056483","3","6163749901","2.0000","98.0000","0.0000",
"2011-11-28 07:22:12","20056483","4","6162372001","2.0000","128.0000","0.0000",
"2011-11-28 07:22:12","20056483","5","6161653201","2.0000","140.0000","0.0000",
"2011-11-28 07:22:12","20056483","6","6162310201","2.0000","112.0000","0.0000",
