"CreateDate","OrderNumber","LineNumber","ItemNumber","Quantity","Price","DiscountPercent",
"2011-11-28 13:47:36","20056538","1","6162648601","9.0000","148.0000","0.0000",
"2011-11-28 13:47:36","20056538","2","6162813801","1.0000","190.0000","0.0000",
"2011-11-28 13:47:36","20056538","3","6163785701","1.0000","110.0000","0.0000",
"2011-11-28 13:47:36","20056538","4","6163786401","1.0000","110.0000","0.0000",
"2011-11-28 13:47:36","20056538","5","6162144301","1.0000","148.0000","0.0000",
"2011-11-28 13:47:36","20056538","6","6161374603","1.0000","180.0000","0.0000",
"2011-11-28 13:47:36","20056538","7","6161349301","1.0000","180.0000","0.0000",
