"CreateDate","OrderNumber","LineNumber","ItemNumber","Quantity","Price","DiscountPercent",
"2011-11-28 20:45:43","20056574","1","9083345901","1.0000","276.0000","0.0000",
"2011-11-28 20:45:43","20056574","2","9083392301","1.0000","0.0000","0.0000",
