"CreateDate","OrderNumber","LineNumber","ItemNumber","Quantity","Price","DiscountPercent",
"2011-11-29 12:59:39","20056621","1","9271101401","1.0000","240.0000","0.0000",
"2011-11-29 12:59:39","20056621","2","9083362601","1.0000","238.0000","0.0000",
