"CreateDate","OrderNumber","LineNumber","ItemNumber","Quantity","Price","DiscountPercent",
"2011-11-29 18:28:32","20056637","1","6161363002","10.0000","190.0000","0.0000",
"2011-11-29 18:28:32","20056637","2","6161328201","4.0000","195.0000","0.0000",
"2011-11-29 18:28:32","20056637","3","6161698202","4.0000","180.0000","0.0000",
"2011-11-29 18:28:32","20056637","4","6162032701","4.0000","48.7500","0.0000",
"2011-11-29 18:28:32","20056637","5","6161108501","10.0000","170.0000","0.0000",
