"CreateDate","OrderNumber","LineNumber","ItemNumber","Quantity","Price","DiscountPercent",
"2011-11-30 10:37:10","20056680","1","6162700101","65.0000","120.0000","0.0000",
"2011-11-30 10:37:10","20056680","2","6164021501","65.0000","120.0000","0.0000",
