"CreateDate","OrderNumber","LineNumber","ItemNumber","Quantity","Price","DiscountPercent",
"2011-11-30 13:01:39","20056697","1","6161381302","1.0000","140.0000","0.0000",
"2011-11-30 13:01:39","20056697","2","6162664601","1.0000","180.0000","0.0000",
"2011-11-30 13:01:39","20056697","3","7783704501","1.0000","160.0000","0.0000",
"2011-11-30 13:01:39","20056697","4","6160855601","1.0000","210.0000","0.0000",
"2011-11-30 13:01:39","20056697","5","6161051802","1.0000","260.0000","0.0000",
"2011-11-30 13:01:39","20056697","6","6161104207","1.0000","260.0000","0.0000",
"2011-11-30 13:01:39","20056697","7","6161319308","1.0000","260.0000","0.0000",
"2011-11-30 13:01:39","20056697","8","6160993502","1.0000","190.0000","0.0000",
