"CreateDate","OrderNumber","LineNumber","ItemNumber","Quantity","Price","DiscountPercent",
"2011-11-30 15:28:38","20056713","1","6160700201","10.0000","110.0000","0.0000",
"2011-11-30 15:28:38","20056713","2","6162509001","30.0000","100.0000","0.0000",
"2011-11-30 15:28:38","20056713","3","6162819001","6.0000","96.0000","0.0000",
