"CreateDate","OrderNumber","LineNumber","ItemNumber","Quantity","Price","DiscountPercent",
"2011-12-01 09:01:52","20056749","1","6163392701","1.0000","144.0000","0.0000",
"2011-12-01 09:01:52","20056749","2","6163386601","1.0000","99.0000","0.0000",
"2011-12-01 09:01:52","20056749","3","6162959301","1.0000","86.0000","0.0000",
"2011-12-01 09:01:52","20056749","4","6163426901","1.0000","112.0000","0.0000",
"2011-12-01 09:01:52","20056749","5","6163295101","1.0000","108.0000","0.0000",
"2011-12-01 09:01:52","20056749","6","6164321601","1.0000","108.0000","0.0000",
"2011-12-01 09:01:52","20056749","7","6163155801","1.0000","100.0000","0.0000",
