"CreateDate","OrderNumber","LineNumber","ItemNumber","Quantity","Price","DiscountPercent",
"2011-12-01 10:16:16","20056758","1","9083345901","1.0000","276.0000","0.0000",
"2011-12-01 10:16:16","20056758","2","9083392301","1.0000","0.0000","0.0000",
