"CreateDate","OrderNumber","LineNumber","ItemNumber","Quantity","Price","DiscountPercent",
"2011-12-01 13:48:45","20056781","1","6161330402","1.0000","45.0000","0.0000",
"2011-12-01 13:48:45","20056781","2","6162032701","1.0000","48.7500","0.0000",
