"CreateDate","OrderNumber","LineNumber","ItemNumber","Quantity","Price","DiscountPercent",
"2011-12-02 12:38:02","20056848","1","6162626401","30.0000","120.0000","0.0000",
"2011-12-02 12:38:02","20056848","2","6162494901","30.0000","240.0000","0.0000",
"2011-12-02 12:38:02","20056848","3","6162477201","30.0000","240.0000","0.0000",
"2011-12-02 12:38:02","20056848","4","6162627101","60.0000","120.0000","0.0000",
