"CreateDate","OrderNumber","LineNumber","ItemNumber","Quantity","Price","DiscountPercent",
"2011-12-02 15:53:29","20056857","1","6162685101","1.0000","30.0000","0.0000",
"2011-12-02 15:53:29","20056857","2","6164230101","1.0000","24.5000","0.0000",
