"CreateDate","OrderNumber","LineNumber","ItemNumber","Quantity","Price","DiscountPercent",
"2011-12-02 14:11:49","20056856","1","6162032701","1.0000","48.7500","0.0000",
"2011-12-02 14:11:49","20056856","2","6162466601","1.0000","80.0000","0.0000",
