"CreateDate","OrderNumber","LineNumber","ItemNumber","Quantity","Price","DiscountPercent",
"2011-12-04 20:12:18","20056928","1","6161481501","1.0000","350.0000","0.0000",
"2011-12-04 20:12:18","20056928","2","6162038601","1.0000","250.0000","0.0000",
"2011-12-04 20:12:18","20056928","3","6161473402","1.0000","250.0000","0.0000",
"2011-12-04 20:12:18","20056928","4","6162027901","1.0000","350.0000","0.0000",
"2011-12-04 20:12:18","20056928","5","6162260001","1.0000","150.0000","0.0000",
