"CreateDate","OrderNumber","LineNumber","ItemNumber","Quantity","Price","DiscountPercent",
"2011-12-05 11:32:35","20056958","1","6161271504","1.0000","295.0000","0.0000",
"2011-12-05 11:32:35","20056958","2","6161306103","1.0000","295.0000","0.0000",
