"CreateDate","OrderNumber","LineNumber","ItemNumber","Quantity","Price","DiscountPercent",
"2011-12-05 10:57:18","20056954","1","6161706401","2.0000","300.0000","0.0000",
"2011-12-05 10:57:18","20056954","2","6162240202","2.0000","250.0000","0.0000",
