"CreateDate","OrderNumber","LineNumber","ItemNumber","Quantity","Price","DiscountPercent",
"2011-12-06 11:22:56","20057036","1","6162376801","30.0000","128.0000","0.0000",
"2011-12-06 11:22:56","20057036","2","6162254902","30.0000","290.0000","0.0000",
