"CreateDate","OrderNumber","LineNumber","ItemNumber","Quantity","Price","DiscountPercent",
"2011-12-06 11:06:33","20057035","1","6162819001","1.0000","96.0000","0.0000",
"2011-12-06 11:06:33","20057035","2","6160696001","1.0000","110.0000","0.0000",
