"CreateDate","OrderNumber","LineNumber","ItemNumber","Quantity","Price","DiscountPercent",
"2011-12-06 16:00:33","20057132","1","6162249502","1.0000","180.0000","0.0000",
"2011-12-06 16:00:33","20057132","2","6162820650","1.0000","49.0000","0.0000",
