"CreateDate","OrderNumber","LineNumber","ItemNumber","Quantity","Price","DiscountPercent",
"2011-12-06 17:45:16","20057171","1","6162820650","1.0000","49.0000","0.0000",
"2011-12-06 17:45:16","20057171","2","6162791950","1.0000","90.0000","0.0000",
