"CreateDate","OrderNumber","LineNumber","ItemNumber","Quantity","Price","DiscountPercent",
"2011-12-06 19:10:51","20057194","1","6162791950","1.0000","90.0000","0.0000",
"2011-12-06 19:10:51","20057194","2","6160736302","1.0000","175.0000","0.0000",
"2011-12-06 19:10:51","20057194","3","6160369401","1.0000","200.0000","0.0000",
"2011-12-06 19:10:51","20057194","4","6161345203","1.0000","130.0000","0.0000",
"2011-12-06 19:10:51","20057194","5","7783980302","1.0000","170.0000","0.0000",
"2011-12-06 19:10:51","20057194","6","6160161603","1.0000","200.0000","0.0000",
