"CreateDate","OrderNumber","LineNumber","ItemNumber","Quantity","Price","DiscountPercent",
"2011-12-06 19:55:58","20057211","1","6162820650","1.0000","49.0000","0.0000",
"2011-12-06 19:55:58","20057211","2","6160714201","1.0000","21.2500","0.0000",
