"CreateDate","OrderNumber","LineNumber","ItemNumber","Quantity","Price","DiscountPercent",
"2011-12-06 20:22:59","20057216","1","6163124450","1.0000","124.0000","0.0000",
"2011-12-06 20:22:59","20057216","2","6162791950","1.0000","90.0000","0.0000",
"2011-12-06 20:22:59","20057216","3","6162820650","1.0000","49.0000","0.0000",
