"CreateDate","OrderNumber","LineNumber","ItemNumber","Quantity","Price","DiscountPercent",
"2011-12-07 08:06:57","20057265","1","6161795401","1.0000","180.0000","0.0000",
"2011-12-07 08:06:57","20057265","2","6162162790","6.0000","65.0000","0.0000",
