"CreateDate","OrderNumber","LineNumber","ItemNumber","Quantity","Price","DiscountPercent",
"2011-12-07 08:40:57","20057276","1","6162792601","1.0000","280.0000","0.0000",
"2011-12-07 08:40:57","20057276","2","6162981401","1.0000","93.0000","0.0000",
