"CreateDate","OrderNumber","LineNumber","ItemNumber","Quantity","Price","DiscountPercent",
"2011-12-07 15:26:57","20057377","1","6162820601","1.0000","98.0000","0.0000",
"2011-12-07 15:26:57","20057377","2","6162791901","1.0000","180.0000","0.0000",
"2011-12-07 15:26:57","20057377","3","6162374401","1.0000","160.0000","0.0000",
"2011-12-07 15:26:57","20057377","4","6162648601","1.0000","148.0000","0.0000",
"2011-12-07 15:26:57","20057377","5","6162662201","2.0000","320.0000","0.0000",
"2011-12-07 15:26:57","20057377","6","6163781901","1.0000","124.0000","0.0000",
