"CreateDate","OrderNumber","LineNumber","ItemNumber","Quantity","Price","DiscountPercent",
"2011-12-08 07:29:57","20057418","1","6162820650","1.0000","49.0000","0.0000",
"2011-12-08 07:29:57","20057418","2","6162533502","1.0000","180.0000","0.0000",
"2011-12-08 07:29:57","20057418","3","6162532802","1.0000","148.0000","0.0000",
