"CreateDate","OrderNumber","LineNumber","ItemNumber","Quantity","Price","DiscountPercent",
"2011-12-08 09:34:07","20057438","1","6162644801","1.0000","174.0000","0.0000",
"2011-12-08 09:34:07","20057438","2","6161140902","1.0000","195.0000","0.0000",
"2011-12-08 09:34:07","20057438","3","6160300703","1.0000","220.0000","0.0000",
