"CreateDate","OrderNumber","LineNumber","ItemNumber","Quantity","Price","DiscountPercent",
"2011-12-08 11:52:24","20057464","1","6163075901","12.0000","80.0000","0.0000",
"2011-12-08 11:52:24","20057464","2","6163001801","12.0000","60.0000","0.0000",
"2011-12-08 11:52:24","20057464","3","6161187501","12.0000","50.0000","0.0000",
