"CreateDate","OrderNumber","LineNumber","ItemNumber","Quantity","Price","DiscountPercent",
"2011-12-08 13:08:50","20057480","1","6160799190","1.0000","59.0000","0.0000",
"2011-12-08 13:08:50","20057480","2","6162043290","1.0000","45.0000","0.0000",
"2011-12-08 13:08:50","20057480","3","6162162790","1.0000","65.0000","0.0000",
