"CreateDate","OrderNumber","LineNumber","ItemNumber","Quantity","Price","DiscountPercent",
"2011-12-08 13:51:14","20057499","1","6160517490","1.0000","64.0000","0.0000",
"2011-12-08 13:51:14","20057499","2","6161046190","1.0000","100.0000","0.0000",
"2011-12-08 13:51:14","20057499","3","6160312090","1.0000","70.0000","0.0000",
