"CreateDate","OrderNumber","LineNumber","ItemNumber","Quantity","Price","DiscountPercent",
"2011-12-08 15:10:37","20057543","1","6160339290","1.0000","45.0000","0.0000",
"2011-12-08 15:10:37","20057543","2","6160312090","1.0000","70.0000","0.0000",
