"CreateDate","OrderNumber","LineNumber","ItemNumber","Quantity","Price","DiscountPercent",
"2011-12-08 15:46:22","20057557","1","6162162790","1.0000","65.0000","0.0000",
"2011-12-08 15:46:22","20057557","2","6162043290","1.0000","45.0000","0.0000",
"2011-12-08 15:46:22","20057557","3","6161000390","1.0000","49.0000","0.0000",
"2011-12-08 15:46:22","20057557","4","6160799190","1.0000","59.0000","0.0000",
