"CreateDate","OrderNumber","LineNumber","ItemNumber","Quantity","Price","DiscountPercent",
"2011-12-08 19:02:13","20057591","1","6162400001","1.0000","30.0000","0.0000",
"2011-12-08 19:02:13","20057591","2","6163285201","1.0000","80.0000","0.0000",
