"CreateDate","OrderNumber","LineNumber","ItemNumber","Quantity","Price","DiscountPercent",
"2011-12-08 19:44:07","20057602","1","9083345901","4.0000","276.0000","0.0000",
"2011-12-08 19:44:07","20057602","2","9083392301","4.0000","0.0000","0.0000",
