"CreateDate","OrderNumber","LineNumber","ItemNumber","Quantity","Price","DiscountPercent",
"2011-12-08 20:06:32","20057608","1","1219743290","1.0000","19.0000","0.0000",
"2011-12-08 20:06:32","20057608","2","1219738690","1.0000","19.0000","0.0000",
