"CreateDate","OrderNumber","LineNumber","ItemNumber","Quantity","Price","DiscountPercent",
"2011-12-08 20:24:14","20057618","1","6162290790","1.0000","70.0000","0.0000",
"2011-12-08 20:24:14","20057618","2","6162162790","1.0000","65.0000","0.0000",
"2011-12-08 20:24:14","20057618","3","6161000390","1.0000","49.0000","0.0000",
"2011-12-08 20:24:14","20057618","4","6161046190","1.0000","100.0000","0.0000",
"2011-12-08 20:24:14","20057618","5","6162482602","1.0000","128.0000","0.0000",
"2011-12-08 20:24:14","20057618","6","6160517490","1.0000","64.0000","0.0000",
