"CreateDate","OrderNumber","LineNumber","ItemNumber","Quantity","Price","DiscountPercent",
"2011-12-08 20:57:44","20057623","1","6161046190","2.0000","100.0000","0.0000",
"2011-12-08 20:57:44","20057623","2","6160339290","8.0000","45.0000","0.0000",
