"CreateDate","OrderNumber","LineNumber","ItemNumber","Quantity","Price","DiscountPercent",
"2011-12-08 21:40:44","20057633","1","7351919702","14.0000","110.0000","0.0000",
"2011-12-08 21:40:44","20057633","2","7783789404","15.0000","280.0000","0.0000",
"2011-12-08 21:40:44","20057633","3","7783451890","2.0000","35.0000","0.0000",
"2011-12-08 21:40:44","20057633","4","7783350390","2.0000","35.0000","0.0000",
"2011-12-08 21:40:44","20057633","5","7351920090","1.0000","35.0000","0.0000",
"2011-12-08 21:40:44","20057633","6","6160197790","2.0000","58.0000","0.0000",
"2011-12-08 21:40:44","20057633","7","7783499290","2.0000","50.0000","0.0000",
