"CreateDate","OrderNumber","LineNumber","ItemNumber","Quantity","Price","DiscountPercent",
"2011-12-08 21:24:32","20057632","1","7783004090","1.0000","70.0000","0.0000",
"2011-12-08 21:24:32","20057632","2","7351920090","1.0000","35.0000","0.0000",
