"CreateDate","OrderNumber","LineNumber","ItemNumber","Quantity","Price","DiscountPercent",
"2011-12-09 09:28:19","20057704","1","6160912990","35.0000","38.0000","0.0000",
"2011-12-09 09:28:19","20057704","2","6161198090","35.0000","38.0000","0.0000",
