"CreateDate","OrderNumber","LineNumber","ItemNumber","Quantity","Price","DiscountPercent",
"2011-12-09 09:55:53","20057719","1","6160938290","1.0000","55.0000","0.0000",
"2011-12-09 09:55:53","20057719","2","6162043290","1.0000","45.0000","0.0000",
