"CreateDate","OrderNumber","LineNumber","ItemNumber","Quantity","Price","DiscountPercent",
"2011-12-09 11:07:17","20057751","1","6162376801","30.0000","128.0000","0.0000",
"2011-12-09 11:07:17","20057751","2","6162481901","30.0000","180.0000","0.0000",
"2011-12-09 11:07:17","20057751","3","6163124401","50.0000","248.0000","0.0000",
"2011-12-09 11:07:17","20057751","4","6162791901","30.0000","180.0000","0.0000",
