"CreateDate","OrderNumber","LineNumber","ItemNumber","Quantity","Price","DiscountPercent",
"2011-12-09 12:03:00","20057772","1","6160968701","32.0000","194.0000","0.0000",
"2011-12-09 12:03:00","20057772","2","6160517490","32.0000","64.0000","0.0000",
"2011-12-09 12:03:00","20057772","3","6161140902","1.0000","195.0000","0.0000",
"2011-12-09 12:03:00","20057772","4","6160731202","1.0000","230.0000","0.0000",
