"CreateDate","OrderNumber","LineNumber","ItemNumber","Quantity","Price","DiscountPercent",
"2011-12-09 15:52:30","20057818","1","6161198090","1.0000","38.0000","0.0000",
"2011-12-09 15:52:30","20057818","2","6161812890","1.0000","49.0000","0.0000",
"2011-12-09 15:52:30","20057818","3","6160994390","1.0000","55.0000","0.0000",
"2011-12-09 15:52:30","20057818","4","6162290790","1.0000","70.0000","0.0000",
"2011-12-09 15:52:30","20057818","5","6161000390","1.0000","49.0000","0.0000",
"2011-12-09 15:52:30","20057818","6","6160912990","1.0000","38.0000","0.0000",
"2011-12-09 15:52:30","20057818","7","6161205790","1.0000","60.0000","0.0000",
"2011-12-09 15:52:30","20057818","8","6160888290","1.0000","60.0000","0.0000",
"2011-12-09 15:52:30","20057818","9","6161760602","1.0000","85.0000","0.0000",
"2011-12-09 15:52:30","20057818","10","6161567601","1.0000","120.0000","0.0000",
"2011-12-09 15:52:30","20057818","11","6163065001","1.0000","220.0000","0.0000",
"2011-12-09 15:52:30","20057818","12","6163120601","1.0000","200.0000","0.0000",
"2011-12-09 15:52:30","20057818","13","6162481901","1.0000","180.0000","0.0000",
"2011-12-09 15:52:30","20057818","14","6162684401","1.0000","120.0000","0.0000",
"2011-12-09 15:52:30","20057818","15","6163895301","1.0000","98.0000","0.0000",
"2011-12-09 15:52:30","20057818","16","6162791901","1.0000","180.0000","0.0000",
"2011-12-09 15:52:30","20057818","17","6162779701","1.0000","80.0000","0.0000",
"2011-12-09 15:52:30","20057818","18","6162376801","1.0000","128.0000","0.0000",
"2011-12-09 15:52:30","20057818","19","6162538001","1.0000","140.0000","0.0000",
"2011-12-09 15:52:30","20057818","20","6160312090","1.0000","70.0000","0.0000",
"2011-12-09 15:52:30","20057818","21","6162115301","1.0000","65.0000","0.0000",
"2011-12-09 15:52:30","20057818","22","6162355304","1.0000","85.0000","0.0000",
"2011-12-09 15:52:30","20057818","23","6162491801","1.0000","128.0000","0.0000",
"2011-12-09 15:52:30","20057818","24","6161497101","1.0000","65.0000","0.0000",
"2011-12-09 15:52:30","20057818","25","6161499802","1.0000","65.0000","0.0000",
