"CreateDate","OrderNumber","LineNumber","ItemNumber","Quantity","Price","DiscountPercent",
"2011-12-09 18:57:53","20057827","1","6161198090","1.0000","38.0000","0.0000",
"2011-12-09 18:57:53","20057827","2","6160912990","1.0000","38.0000","0.0000",
"2011-12-09 18:57:53","20057827","3","6160799190","1.0000","59.0000","0.0000",
"2011-12-09 18:57:53","20057827","4","6161000390","1.0000","49.0000","0.0000",
