"CreateDate","OrderNumber","LineNumber","ItemNumber","Quantity","Price","DiscountPercent",
"2011-12-10 12:44:23","20057859","1","6162363801","27.0000","27.5000","0.0000",
"2011-12-10 12:44:23","20057859","2","6163758101","2.0000","250.0000","0.0000",
"2011-12-10 12:44:23","20057859","3","7783618904","2.0000","110.0000","0.0000",
