"CreateDate","OrderNumber","LineNumber","ItemNumber","Quantity","Price","DiscountPercent",
"2011-12-11 16:43:21","20057930","1","1203629390","1.0000","64.0000","0.0000",
"2011-12-11 16:43:21","20057930","2","6160799190","1.0000","59.0000","0.0000",
