"CreateDate","OrderNumber","LineNumber","ItemNumber","Quantity","Price","DiscountPercent",
"2011-12-11 17:08:19","20057933","1","6162820650","1.0000","49.0000","0.0000",
"2011-12-11 17:08:19","20057933","2","6160517490","1.0000","64.0000","0.0000",
"2011-12-11 17:08:19","20057933","3","6161000390","1.0000","49.0000","0.0000",
"2011-12-11 17:08:19","20057933","4","6160799190","1.0000","59.0000","0.0000",
