"CreateDate","OrderNumber","LineNumber","ItemNumber","Quantity","Price","DiscountPercent",
"2011-12-11 17:17:03","20057934","1","6162043290","1.0000","45.0000","0.0000",
"2011-12-11 17:17:03","20057934","2","7351920090","1.0000","35.0000","0.0000",
"2011-12-11 17:17:03","20057934","3","6161000390","1.0000","49.0000","0.0000",
"2011-12-11 17:17:03","20057934","4","6160799190","1.0000","59.0000","0.0000",
