"CreateDate","OrderNumber","LineNumber","ItemNumber","Quantity","Price","DiscountPercent",
"2011-12-11 21:53:17","20057959","1","6160487990","40.0000","50.0000","0.0000",
"2011-12-11 21:53:17","20057959","2","7783983890","2.0000","58.0000","0.0000",
