"CreateDate","OrderNumber","LineNumber","ItemNumber","Quantity","Price","DiscountPercent",
"2011-12-12 08:36:05","20057986","1","6163060501","1.0000","90.0000","0.0000",
"2011-12-12 08:36:05","20057986","2","6162535901","1.0000","158.0000","0.0000",
