"CreateDate","OrderNumber","LineNumber","ItemNumber","Quantity","Price","DiscountPercent",
"2011-12-12 10:43:36","20058020","1","6162820650","1.0000","49.0000","0.0000",
"2011-12-12 10:43:36","20058020","2","7783004090","1.0000","70.0000","0.0000",
"2011-12-12 10:43:36","20058020","3","6160517490","1.0000","64.0000","0.0000",
"2011-12-12 10:43:36","20058020","4","6161198090","1.0000","38.0000","0.0000",
