"CreateDate","OrderNumber","LineNumber","ItemNumber","Quantity","Price","DiscountPercent",
"2011-12-12 12:51:35","20058065","1","7783451890","30.0000","35.0000","0.0000",
"2011-12-12 12:51:35","20058065","2","7351920090","25.0000","35.0000","0.0000",
