"CreateDate","OrderNumber","LineNumber","ItemNumber","Quantity","Price","DiscountPercent",
"2011-12-12 14:06:39","20058078","1","6160312090","1.0000","70.0000","0.0000",
"2011-12-12 14:06:39","20058078","2","6162290790","1.0000","70.0000","0.0000",
