"CreateDate","OrderNumber","LineNumber","ItemNumber","Quantity","Price","DiscountPercent",
"2011-12-12 14:25:36","20058083","1","6160197790","1.0000","58.0000","0.0000",
"2011-12-12 14:25:36","20058083","2","7783499290","1.0000","50.0000","0.0000",
"2011-12-12 14:25:36","20058083","3","7783451890","1.0000","35.0000","0.0000",
"2011-12-12 14:25:36","20058083","4","7783350390","1.0000","35.0000","0.0000",
"2011-12-12 14:25:36","20058083","5","7351920090","1.0000","35.0000","0.0000",
