"CreateDate","OrderNumber","LineNumber","ItemNumber","Quantity","Price","DiscountPercent",
"2011-12-12 15:43:44","20058099","1","6162820650","1.0000","49.0000","0.0000",
"2011-12-12 15:43:44","20058099","2","6164867901","1.0000","24.5000","0.0000",
"2011-12-12 15:43:44","20058099","3","6161181606","25.0000","280.0000","0.0000",
