"CreateDate","OrderNumber","LineNumber","ItemNumber","Quantity","Price","DiscountPercent",
"2011-12-12 15:42:34","20058098","1","6161349301","1.0000","180.0000","0.0000",
"2011-12-12 15:42:34","20058098","2","6162210502","3.0000","188.0000","0.0000",
