"CreateDate","OrderNumber","LineNumber","ItemNumber","Quantity","Price","DiscountPercent",
"2011-12-12 14:47:20","20058090","1","6160785190","1.0000","40.0000","0.0000",
"2011-12-12 14:47:20","20058090","2","6162122103","35.0000","190.0000","0.0000",
"2011-12-12 14:47:20","20058090","3","6163566201","17.0000","174.0000","0.0000",
