"CreateDate","OrderNumber","LineNumber","ItemNumber","Quantity","Price","DiscountPercent",
"2011-12-13 07:27:02","20058147","1","6162789601","5.0000","160.0000","0.0000",
"2011-12-13 07:27:02","20058147","2","6162646201","5.0000","260.0000","0.0000",
"2011-12-13 07:27:02","20058147","3","6162533502","15.0000","180.0000","0.0000",
