"CreateDate","OrderNumber","LineNumber","ItemNumber","Quantity","Price","DiscountPercent",
"2011-12-13 10:10:19","20058186","1","1203629390","4.0000","64.0000","0.0000",
"2011-12-13 10:10:19","20058186","2","7783983890","10.0000","58.0000","0.0000",
"2011-12-13 10:10:19","20058186","3","6160487990","30.0000","50.0000","0.0000",
