"CreateDate","OrderNumber","LineNumber","ItemNumber","Quantity","Price","DiscountPercent",
"2011-12-13 12:27:25","20058221","1","7783757606","1.0000","180.0000","0.0000",
"2011-12-13 12:27:25","20058221","2","6162516801","1.0000","220.0000","0.0000",
