"CreateDate","OrderNumber","LineNumber","ItemNumber","Quantity","Price","DiscountPercent",
"2011-12-13 19:44:12","20058272","1","6160855690","1.0000","68.0000","0.0000",
"2011-12-13 19:44:12","20058272","2","6162290790","1.0000","70.0000","0.0000",
"2011-12-13 19:44:12","20058272","3","6160517490","1.0000","64.0000","0.0000",
"2011-12-13 19:44:12","20058272","4","6162644801","1.0000","174.0000","0.0000",
