"CreateDate","OrderNumber","LineNumber","ItemNumber","Quantity","Price","DiscountPercent",
"2011-12-14 08:25:36","20058296","1","6161046190","1.0000","100.0000","0.0000",
"2011-12-14 08:25:36","20058296","2","7783983890","1.0000","58.0000","0.0000",
"2011-12-14 08:25:36","20058296","3","7783350390","1.0000","35.0000","0.0000",
