"CreateDate","OrderNumber","LineNumber","ItemNumber","Quantity","Price","DiscountPercent",
"2011-12-14 10:05:15","20058313","1","6161123906","35.0000","270.0000","0.0000",
"2011-12-14 10:05:15","20058313","2","6162644801","1.0000","174.0000","0.0000",
"2011-12-14 10:05:15","20058313","3","6163566201","1.0000","174.0000","0.0000",
"2011-12-14 10:05:15","20058313","4","6164234901","1.0000","200.0000","0.0000",
"2011-12-14 10:05:15","20058313","5","6162245702","1.0000","268.0000","0.0000",
"2011-12-14 10:05:15","20058313","6","6160871001","1.0000","180.0000","0.0000",
