"CreateDate","OrderNumber","LineNumber","ItemNumber","Quantity","Price","DiscountPercent",
"2011-12-14 10:27:15","20058322","1","9083345901","13.0000","276.0000","0.0000",
"2011-12-14 10:27:15","20058322","2","9083392301","13.0000","0.0000","0.0000",
