"CreateDate","OrderNumber","LineNumber","ItemNumber","Quantity","Price","DiscountPercent",
"2011-12-15 11:07:36","20058463","1","6163119001","1.0000","130.0000","0.0000",
"2011-12-15 11:07:36","20058463","2","6163785701","1.0000","110.0000","0.0000",
"2011-12-15 11:07:36","20058463","3","6162648601","1.0000","148.0000","0.0000",
"2011-12-15 11:07:36","20058463","4","6163786402","5.0000","110.0000","0.0000",
"2011-12-15 11:07:36","20058463","5","6163783301","1.0000","110.0000","0.0000",
"2011-12-15 11:07:36","20058463","6","6164338401","1.0000","110.0000","0.0000",
"2011-12-15 11:07:36","20058463","7","6162710002","1.0000","110.0000","0.0000",
"2011-12-15 11:07:36","20058463","8","6161374603","40.0000","180.0000","0.0000",
"2011-12-15 11:07:36","20058463","9","6161172701","1.0000","165.0000","0.0000",
"2011-12-15 11:07:36","20058463","10","6160487990","1.0000","50.0000","0.0000",
"2011-12-15 11:07:36","20058463","11","7783983890","1.0000","58.0000","0.0000",
"2011-12-15 11:07:36","20058463","12","6160124190","1.0000","54.0000","0.0000",
"2011-12-15 11:07:36","20058463","13","6163682901","1.0000","48.0000","0.0000",
