"CreateDate","OrderNumber","LineNumber","ItemNumber","Quantity","Price","DiscountPercent",
"2011-12-15 13:07:32","20058485","1","9083345901","1.0000","276.0000","0.0000",
"2011-12-15 13:07:32","20058485","2","6162596001","1.0000","172.0000","0.0000",
"2011-12-15 13:07:32","20058485","3","9083392301","1.0000","0.0000","0.0000",
"2011-12-15 13:07:32","20058485","4","6162813801","1.0000","190.0000","0.0000",
"2011-12-15 13:07:32","20058485","5","6162662201","1.0000","320.0000","0.0000",
