"CreateDate","OrderNumber","LineNumber","ItemNumber","Quantity","Price","DiscountPercent",
"2011-12-15 20:48:31","20058537","1","6161117404","1.0000","100.0000","0.0000",
"2011-12-15 20:48:31","20058537","2","6163067402","1.0000","190.0000","0.0000",
"2011-12-15 20:48:31","20058537","3","6162122103","1.0000","190.0000","0.0000",
