"CreateDate","OrderNumber","LineNumber","ItemNumber","Quantity","Price","DiscountPercent",
"2011-12-15 21:26:42","20058547","1","6163384201","18.0000","44.0000","0.0000",
"2011-12-15 21:26:42","20058547","2","6162704901","1.0000","84.0000","0.0000",
"2011-12-15 21:26:42","20058547","3","6162703201","1.0000","136.0000","0.0000",
"2011-12-15 21:26:42","20058547","4","6162906701","1.0000","34.0000","0.0000",
"2011-12-15 21:26:42","20058547","5","6163223401","24.0000","100.0000","0.0000",
"2011-12-15 21:26:42","20058547","6","6163807601","1.0000","25.0000","0.0000",
"2011-12-15 21:26:42","20058547","7","6162614101","1.0000","138.0000","0.0000",
"2011-12-15 21:26:42","20058547","8","6163467201","2.0000","60.0000","0.0000",
