"CreateDate","OrderNumber","LineNumber","ItemNumber","Quantity","Price","DiscountPercent",
"2011-12-16 11:06:21","20058596","1","6162043290","2.0000","45.0000","0.0000",
"2011-12-16 11:06:21","20058596","2","6160799190","2.0000","59.0000","0.0000",
"2011-12-16 11:06:21","20058596","3","6161000390","2.0000","49.0000","0.0000",
"2011-12-16 11:06:21","20058596","4","6161471801","1.0000","180.0000","0.0000",
"2011-12-16 11:06:21","20058596","5","6161692001","1.0000","100.0000","0.0000",
"2011-12-16 11:06:21","20058596","6","6162403101","2.0000","50.0000","0.0000",
"2011-12-16 11:06:21","20058596","7","6162011801","1.0000","190.0000","0.0000",
