"CreateDate","OrderNumber","LineNumber","ItemNumber","Quantity","Price","DiscountPercent",
"2011-12-16 11:37:05","20058603","1","6161800901","24.0000","74.0000","0.0000",
"2011-12-16 11:47:09","20058604","1","6161978702","4.0000","270.0000","0.0000",
"2011-12-16 11:47:09","20058604","2","6162034701","1.0000","98.0000","0.0000",
"2011-12-16 11:47:09","20058604","3","6162516801","1.0000","220.0000","0.0000",
"2011-12-16 11:47:09","20058604","4","6160744403","1.0000","200.0000","0.0000",
"2011-12-16 12:12:08","20058605","1","6160968701","1.0000","194.0000","0.0000",
"2011-12-16 12:12:08","20058605","2","6162531101","1.0000","100.0000","0.0000",
"2011-12-16 12:12:08","20058605","3","6161482304","1.0000","120.0000","0.0000",
"2011-12-16 12:12:08","20058605","4","6160732003","1.0000","100.0000","0.0000",
"2011-12-16 12:12:08","20058605","5","6160734702","1.0000","195.0000","0.0000",
"2011-12-16 12:12:08","20058605","6","6160731202","1.0000","230.0000","0.0000",
"2011-12-16 12:12:08","20058605","7","6160930405","1.0000","330.0000","0.0000",
