"CreateDate","OrderNumber","LineNumber","ItemNumber","Quantity","Price","DiscountPercent",
"2011-12-18 10:16:36","20058658","1","6162738401","1.0000","90.0000","0.0000",
"2011-12-18 10:16:36","20058658","2","6162681301","1.0000","60.0000","0.0000",
"2011-12-18 10:16:36","20058658","3","6162765001","1.0000","144.0000","0.0000",
