"CreateDate","OrderNumber","LineNumber","ItemNumber","Quantity","Price","DiscountPercent",
"2011-12-19 09:06:32","20058700","1","6160026101","50.0000","188.0000","0.0000",
"2011-12-19 09:06:32","20058700","2","6162162790","10.0000","65.0000","0.0000",
"2011-12-19 09:06:32","20058700","3","6160697902","10.0000","210.0000","0.0000",
"2011-12-19 09:06:32","20058700","4","6160799190","5.0000","59.0000","0.0000",
