"CreateDate","OrderNumber","LineNumber","ItemNumber","Quantity","Price","DiscountPercent",
"2011-12-19 12:36:36","20058729","1","6161408401","1.0000","70.0000","0.0000",
"2011-12-19 12:36:36","20058729","2","6161765202","1.0000","27.5000","0.0000",
