"CreateDate","ESalesNumber","Name","Company","Address1","Address2","Address3","Zip","Country","Phone","Email","DeliveryName","DeliveryCompany","DeliveryAddress1","DeliveryAddress2","DeliveryAddress3","DeliveryZip","DeliveryCountry","Status","DebtorAccount","Payment","DelMode","Fee","Eordrenotat","VatNo","EanLokNr","IKO","OIOAttention","OIORequisNumber","Lines","GrandTotal",
"2011-12-18 14:32:11","20058666","Christoffer Bondo Rasmussen","","Nedergade 29C 1. tv","","Odense C","5000","Danmark","42 409654","cbondo@live.dk","Christoffer Bondo Rasmussen","","Nedergade 29C 1. tv","","Odense C","5000","Danmark","2","1100","Dankort","NBC","0.00","","","","","","","2","345.00",
"2011-12-18 15:13:05","20058667","Hanne Frøsig","","Stillidsvej 22","","Taastrup","2630","Danmark","00000000","hannefro@gmail.com","Hanne Frøsig","","Stillidsvej 22","","Taastrup","2630","Danmark","2","1100","Dankort","NBC","40.00","","","","","","","5","331.25",
"2011-12-18 15:17:47","20058668","Hanne Frøsig","","Stillidsvej 22","","Taastrup","2630","Danmark","00000000","hannefro@gmail.com","Hanne Frøsig","","Stillidsvej 22","","Taastrup","2630","Danmark","2","1100","Dankort","NBC","40.00","","","","","","","5","331.25",
"2011-12-18 15:35:44","20058669","Helle Fraes Dittmann","Viborg Gymnasium og HF","Skaldehøjvej 12","","Viborg","8800","Danmark","86 67 15 33","hd@vghf.dk","Helle Fraes Dittmann","Viborg Gymnasium og HF","Skaldehøjvej 12","","Viborg","8800","Danmark","2","10125","Netto14","NBC","0.00","","","5798000558403","","","","2","325.00",
"2011-12-18 15:45:58","20058670","Eva Stokholm","Fyns HF-kursus","Hunderupvej 17","","Odense C","5000","Danmark","62656580","eva.stokholm@dsa-net.dk","Eva Stokholm","Fyns HF-kursus","Hunderupvej 17","","Odense C","5000","Danmark","2","10139","Netto14","NBC","0.00","Bestilling fra Kulur og samfundsfag Samfundsfag IPad-klassen","","5798000558496","rekv. nr. 15311","EST","EST","3","16875.00",
"2011-12-18 16:17:34","20058671","lene kirk-sørensen","","middelvej 30, 1","","gentofte","2820","Danmark","25574149","lekir1@udst.dk","lene kirk-sørensen","","middelvej 30, 1","","gentofte","2820","Danmark","2","1100","Dankort","NBC","40.00","","","","","","","1","375.00",
"2011-12-18 16:32:26","20058672","Sofie Boel","","Frederiksborgvej 220, 3th","","Kbh Nv","2400","Danmark","71242504","sofieboel@hotmail.com","","","","","","","","2","1100","Dankort","NBC","0.00","","","","","","","1","180.00",
"2011-12-18 16:51:30","20058673","johnny kragelund","","snebærvej 37","","odthåbg","9230","Danmark","42321029","jaydapper@hotmail.com","","","","","","","","2","1100","Dankort","NBC","0.00","","","","","","","1","62.50",
"2011-12-18 17:12:39","20058674","Albert Lange","Frederikssund Gymnasium","Odinsvej 6","","Frederikssund","3600","Danmark","47 31 30 11","fgla@frsgym.dk","Albert Lange","Frederikssund Gymnasium","Odinsvej 6","","Frederikssund","3600","Danmark","2","10025","Netto14","NBC","0.00","","","5798000557338","oldtidskundskab","Albert Lange","","3","1082.50",
"2011-12-18 17:59:30","20058675","Betty Pedersen","KVUC","Krebsens Kvarter 7E","","Albertslund","2620","Danmark","31411810","bep@kvuc.dk","Betty Pedersen","KVUC","Krebsens Kvarter 7E","","Albertslund","2620","Danmark","2","1100","Dankort","NBC","40.00","","","","","","","6","571.25",
"2011-12-18 18:09:18","20058676","henning simonsen","","hc andersensgade 18","","horsens","8700","Danmark","004526207916","henning.simonsen1@skolekom.dk","henning simonsen","","hc andersensgade 18","","horsens","8700","Danmark","2","1100","Dankort","NBC","40.00","gerne i boks","","","","","","1","187.50",
"2011-12-18 18:40:32","20058677","Lars Jørgensen","Campus Bornholm","Krystalgade 9-11","","Rønne","3700","Danmark","56 92 17 00","lj@cabh.dk","Lars Jørgensen","Campus Bornholm","Krystalgade 9-11","","Rønne","3700","Danmark","2","11148","Netto14","NBC","0.00","","","5798000553699","","Lars Jørgensen","engelsk hf e","4","731.25",
"2011-12-18 18:41:56","20058678","Kathrine Hallas","","Gundestrupbakken 48","","Fårup","8990","Danmark","23468010","kathrine.hallas@gmail.com","","","","","","","","2","1100","Dankort","NBC","0.00","","","","","","","1","180.00",
"2011-12-18 19:54:36","20058679","Jan Wiitanen","","Vognmandsmarken 30 st.tv","","København Ø","2100","Danmark","51924083","jandwiit@hotmail.com","Jan Wiitanen","Kuehne + Nagel","Vallensbækvej 16","","Brøndby","2605","Danmark","2","1100","Dankort","NBC","40.00","","","","","","","1","150.00",
"2011-12-18 20:21:03","20058680","Susanne Simon","Nørre Gymnasium","Mørkhøjvej 78","","Brønshøj","2700","Danmark","44 94 27 22","ssi@brygge.dk","","","","","","","","2","10079","Netto14","NBC","0.00","","","5798000557819","","","","1","112.50",
"2011-12-18 20:32:12","20058681","marwa ahmad","","runddyssen 3B 1","","herlev","2730","Danmark","52198434","marwa_ahmad05@hotmail.com","","","","","","","","2","1100","Dankort","NBC","0.00","","","","","","","1","84.38",
"2011-12-18 20:39:34","20058682","menekse demirtas","","kierulffsvej nr 74 2 th","","slagelse","4200","Danmark","40944905","meneksedemirtas@hotmail.com","menekse demirtas","","kierulffsvej nr 74 2 th","","slagelse","4200","Danmark","2","1100","Dankort","NBC","40.00","","","","","","","1","275.00",
"2011-12-18 20:45:41","20058683","marwa ahmad","","runddyssen 3B 1","","herlev","2730","Danmark","52198434","marwa_ahmad05@hotmail.com","","","","","","","","2","1100","Dankort","NBC","0.00","","","","","","","1","84.38",
"2011-12-18 21:00:51","20058684","esben dreesen","Ribe Handelsskole","Skyttevej 29","","Ribe","6760","Danmark","76 88 21 00","ed@ribehs.dk","esben dreesen","Ribe Handelsskole","Skyttevej 29","","Ribe","6760","Danmark","2","10253","Netto14","NBC","0.00","","","5798000553897","","","","1","275.00",
"2011-12-18 21:29:06","20058685","Samir Salman","","Middelfartvej 197, 2th","","Odense","5200","Danmark","28656800","sami0977@tietgen.dk","","","","","","","","2","1100","Dankort","NBC","0.00","","","","","","","1","12.50",
"2011-12-18 21:30:49","20058686","Jesper Madsen","","Gammel Kongevej 164, 1 TH","","Frederiksberg","1850","Danmark","26701428","jmcph@hotmail.com","Erik Madsen","","Gammelmosevej 138","","Lyngby","2800","Danmark","2","1100","Dankort","NBC","40.00","","","","","","","1","925.00",
"2011-12-18 21:31:22","20058687","Jette Lydom","","Reginehøjvej 7, 2. th","","Århus N","8200","Danmark","26744828","jettelk@hotmail.com","Jette Lydom","","Reginehøjvej 7, 2. th","","Århus N","8200","Danmark","2","1100","Dankort","NBC","40.00","","","","","","","2","183.75",
"2011-12-19 01:00:40","20058688","Jon Kvist","Kvist Consulting","Hestkøbvej 11A","","Birkerød","3460","Danmark","51718561","kvi@sam.sdu.dk","Jon Kvist","Kvist Consulting","Hestkøbvej 11A","","Birkerød","3460","Danmark","2","1100","Dankort","NBC","40.00","","","","","","","2","381.25",
"2011-12-19 05:42:44","20058689","Martin Kristensen","Vestjysk Gymnasium Tarm","Skolegade 15","","Tarm","6880","Danmark","97 37 18 33","mk@vgt.dk","","","","","","","","2","10123","Netto14","NBC","0.00","","","5798000558380","","","","1","37.50",
