"CreateDate","OrderNumber","LineNumber","ItemNumber","Quantity","Price","DiscountPercent",
"2011-12-20 08:42:02","20058785","1","6161764402","35.0000","110.0000","0.0000",
"2011-12-20 08:42:02","20058785","2","6161395902","35.0000","210.0000","0.0000",
