"CreateDate","OrderNumber","LineNumber","ItemNumber","Quantity","Price","DiscountPercent",
"2011-12-20 19:35:37","20058875","1","6162211202","1.0000","150.0000","0.0000",
"2011-12-20 19:35:37","20058875","2","6162333101","1.0000","240.0000","0.0000",
