"CreateDate","OrderNumber","LineNumber","ItemNumber","Quantity","Price","DiscountPercent",
"2011-12-21 04:56:12","20058890","1","7783451890","1.0000","35.0000","0.0000",
"2011-12-21 04:56:12","20058890","2","7783350390","1.0000","35.0000","0.0000",
"2011-12-21 04:56:12","20058890","3","7351920090","1.0000","35.0000","0.0000",
"2011-12-21 04:56:12","20058890","4","6160197790","1.0000","58.0000","0.0000",
"2011-12-21 04:56:12","20058890","5","7783499290","1.0000","50.0000","0.0000",
"2011-12-21 04:56:12","20058890","6","6160785190","1.0000","40.0000","0.0000",
