"CreateDate","OrderNumber","LineNumber","ItemNumber","Quantity","Price","DiscountPercent",
"2011-12-21 10:47:58","20058922","1","6162644801","1.0000","174.0000","0.0000",
"2011-12-21 10:47:58","20058922","2","6161760602","1.0000","85.0000","0.0000",
"2011-12-21 10:47:58","20058922","3","6162545802","1.0000","288.0000","0.0000",
"2011-12-21 10:47:58","20058922","4","6163065001","1.0000","220.0000","0.0000",
"2011-12-21 10:47:58","20058922","5","6162821301","1.0000","138.0000","0.0000",
"2011-12-21 10:47:58","20058922","6","6162251801","1.0000","168.0000","0.0000",
