"CreateDate","ESalesNumber","Name","Company","Address1","Address2","Address3","Zip","Country","Phone","Email","DeliveryName","DeliveryCompany","DeliveryAddress1","DeliveryAddress2","DeliveryAddress3","DeliveryZip","DeliveryCountry","Status","DebtorAccount","Payment","DelMode","Fee","Eordrenotat","VatNo","EanLokNr","IKO","OIOAttention","OIORequisNumber","Lines","GrandTotal",
"2011-12-20 13:22:08","20058825","Gert Moltzen","Learnmark Horsens","Stadionsvej 2","","Horsens","8700","Danmark","76 25 13 00","mediatek@bchorsens.dk","","","","","","","","2","10215","Netto14","NBC","0.00","bedes faktureret i dette kalenderår - 2011","","5798000553941","3010","gm","","6","2437.50",
"2011-12-20 13:27:15","20058826","Lilian Rasmussen","Svendborg Erhvervsskole","Skovsbovej 43","","Svendborg","5700","Danmark","72 22 57 00","lhr@svend-es.dk","Lilian Rasmussen","Svendborg Erhvervsskole","Skovsbovej 43","","Svendborg","5700","Danmark","2","10264","Netto14","NBC","0.00","Bedes leveret mandag 2 januar 2012.","","5798000553767","","","","1","56875.00",
"2011-12-20 13:36:52","20058827","Anne Hansen","Københavns VUC","Vognmagergade 8","","København K","1120","Danmark","8232 6650","flex@kvuc.dk","","","","","","","","2","12016","Netto14","NBC","0.00","","","5798000557635","","Anne Hansen, flex","","1","2250.00",
"2011-12-20 13:38:02","20058828","Mikkel Dall","Alssundgymnasiet Sønderborg - AGS","Grundtvigs Allé 86","","Sønderborg","6400","Danmark","7442 0501","mikkeldall@gmail.com","Mikkel Dall","Alssundgymnasiet Sønderborg - AGS","Grundtvigs Allé 86","","Sønderborg","6400","Danmark","2","10110","Netto14","NBC","0.00","DALL TESTER","","5798000557116","","","","1","195.00",
"2011-12-20 13:38:43","20058829","Lotte Lajer","","Ladelundsvej 38","","Silkeborg","8600","Danmark","61707001","ll@ikast-gym.dk","Lotte Lajer","","Ladelundsvej 38","","Silkeborg","8600","Danmark","2","1100","Dankort","NBC","40.00","","","","","","","1","106.25",
"2011-12-20 13:39:29","20058830","Lotte Lajer","","Ladelundsvej 38","","Silkeborg","8600","Danmark","61707001","ll@ikast-gym.dk","Lotte Lajer","","Ladelundsvej 38","","Silkeborg","8600","Danmark","2","1100","Dankort","NBC","40.00","","","","","","","1","106.25",
"2011-12-20 13:39:37","20058831","Anne Mette Christensen","CPH WEST","Baltorpvej 20 A","","Ballerup","2750","Danmark","44 20 02 00","amch@cphwest.dk","Anne Mette Christensen","CPH WEST","Baltorpvej 20 A","","Ballerup","2750","Danmark","2","10201","Netto14","NBC","0.00","Opgavebøgerne VØ A1 og VØ B ønskes leveret i juli, 2012. Alt betales i 2011.","","5798000553521","","","","4","45985.00",
"2011-12-20 13:40:46","20058832","gfn gfn","Systime A/S","Skt. Pauls Gade 25","","Århus C","8000","Danmark","70121100","gfn@systime.dk","gfn gfn","Systime A/S","Skt. Pauls Gade 25","","Århus C","8000","Danmark","2","1100","Dankort","NBC","40.00","","1119111","","","","","1","450.00",
"2011-12-20 13:41:07","20058833","gfn gfn","Systime A/S","Skt. Pauls Gade 25","","Århus C","8000","Danmark","70121100","gfn@systime.dk","gfn gfn","Systime A/S","Skt. Pauls Gade 25","","Århus C","8000","Danmark","2","1100","Dankort","NBC","40.00","","1119111","","","","","1","450.00",
"2011-12-20 13:43:25","20058834","Vibeke Jeppesen","Tietgenskolen","Elmelundsvej 10","","Odense V","5200","Danmark","65452200","bibelm@tietgen.dk","","","","","","","","2","10244","Netto14","NBC","0.00","","","5798000553743","","","","2","270.00",
"2011-12-20 13:47:04","20058835","Mikkel Ricky","Systime A/S","Skt. Pauls Gade 25","","Århus C","8000","Danmark","70121100","mri@systime.dk","","","","","","","","2","1100","Dankort","NBC","0.00","Test","1119111","","","","","1","75.00",
"2011-12-20 13:47:16","20058836","Mikkel Dall","Alssundgymnasiet Sønderborg - AGS","Grundtvigs Allé 86","","Sønderborg","6400","Danmark","7442 0501","mikkeldall@gmail.com","Mikkel Dall","Alssundgymnasiet Sønderborg - AGS","Grundtvigs Allé 86","","Sønderborg","6400","Danmark","2","1100","Dankort","NBC","40.00","","","5798000557116","","","","1","280.00",
"2011-12-20 13:48:37","20058837","Mikkel Ricky","Systime A/S","Skt. Pauls Gade 25","","Århus C","8000","Danmark","70121100","mri@systime.dk","","","","","","","","2","1100","Dankort","NBC","0.00","asdfasdf","1119111","","","","","1","75.00",
"2011-12-20 13:49:29","20058838","gfn gfn","Systime A/S","Skt. Pauls Gade 25","","Århus C","8000","Danmark","70121100","gfn@systime.dk","gfn gfn","Systime A/S","Skt. Pauls Gade 25","","Århus C","8000","Danmark","2","1100","Dankort","NBC","40.00","","1119111","","","","","1","450.00",
"2011-12-20 13:51:34","20058839","Mikkel Ricky","Systime A/S","Skt. Pauls Gade 25","","Århus C","8000","Danmark","70121100","mri@systime.dk","","","","","","","","2","1100","Dankort","NBC","0.00","","1119111","","","","","1","75.00",
"2011-12-20 13:52:42","20058840","Mikkel Dall","Alssundgymnasiet Sønderborg - AGS","Grundtvigs Allé 86","","Sønderborg","6400","Danmark","7442 0501","mikkeldall@gmail.com","Mikkel Dall","Alssundgymnasiet Sønderborg - AGS","Grundtvigs Allé 86","","Sønderborg","6400","Danmark","2","1100","Dankort","NBC","40.00","","","5798000557116","","","","1","285.00",
"2011-12-20 13:53:27","20058841","Mikkel Dall","Alssundgymnasiet Sønderborg - AGS","Grundtvigs Allé 86","","Sønderborg","6400","Danmark","7442 0501","mikkeldall@gmail.com","Mikkel Dall","Alssundgymnasiet Sønderborg - AGS","Grundtvigs Allé 86","","Sønderborg","6400","Danmark","2","1100","Dankort","NBC","40.00","","","5798000557116","","","","1","312.50",
"2011-12-20 13:54:03","20058842","Rudi Meyer","Systime - test","Testvej","","Århus C","8000","Danmark","30263775","rme@systime.dk","Rudi Meyer","Systime - test","Testvej","","Århus C","8000","Danmark","2","1100","Dankort","NBC","40.00","Hejsa!","","","","","","1","280.00",
"2011-12-20 13:55:23","20058843","Mikkel Dall","Alssundgymnasiet Sønderborg - AGS","Grundtvigs Allé 86","","Sønderborg","6400","Danmark","7442 0501","mikkeldall@gmail.com","Mikkel Dall","Alssundgymnasiet Sønderborg - AGS","Grundtvigs Allé 86","","Sønderborg","6400","Danmark","2","1100","Dankort","NBC","40.00","","","5798000557116","","","","1","287.50",
"2011-12-20 13:55:45","20058844","Mikkel Ricky","Systime A/S","Skt. Pauls Gade 25","","Århus C","8000","Danmark","70121100","mri@systime.dk","Mikkel Ricky","Systime A/S","Skt. Pauls Gade 25","","Århus C","8000","Danmark","2","1100","Dankort","NBC","40.00","","1119111","","","","","1","285.00",
"2011-12-20 13:56:36","20058845","Mikkel Dall","Alssundgymnasiet Sønderborg - AGS","Grundtvigs Allé 86","","Sønderborg","6400","Danmark","7442 0501","mikkeldall@gmail.com","Mikkel Dall","Alssundgymnasiet Sønderborg - AGS","Grundtvigs Allé 86","","Sønderborg","6400","Danmark","2","1100","Dankort","NBC","40.00","","","5798000557116","","","","1","285.00",
"2011-12-20 13:58:10","20058846","Mikkel Ricky","Systime A/S","Skt. Pauls Gade 25","","Århus C","8000","Danmark","70121100","mri@systime.dk","","","","","","","","2","1100","Dankort","NBC","0.00","","1119111","","","","","1","75.00",
"2011-12-20 13:58:25","20058847","Mikkel Dall","Alssundgymnasiet Sønderborg - AGS","Grundtvigs Allé 86","","Sønderborg","6400","Danmark","7442 0501","mikkeldall@gmail.com","Mikkel Dall","Alssundgymnasiet Sønderborg - AGS","Grundtvigs Allé 86","","Sønderborg","6400","Danmark","2","1100","Dankort","NBC","40.00","","","5798000557116","","","","1","285.00",
"2011-12-20 13:58:44","20058848","gfn gfn","Systime A/S","Skt. Pauls Gade 25","","Århus C","8000","Danmark","70121100","gfn@systime.dk","gfn gfn","Systime A/S","Skt. Pauls Gade 25","","Århus C","8000","Danmark","2","1100","Dankort","NBC","40.00","","1119111","","","","","1","112.50",
"2011-12-20 13:59:32","20058849","Mikkel Ricky","Systime A/S","Skt. Pauls Gade 25","","Århus C","8000","Danmark","70121100","mri@systime.dk","","","","","","","","2","1100","Dankort","NBC","0.00","","1119111","","","","","1","75.00",
"2011-12-20 14:15:49","20058850","kurt jeppesen","Nørresundby Gymnasium og HF","Studievej 14","","Nørresundby","9400","Danmark","98 17 28 33","kje@nghf.dk","kurt jeppesen","Nørresundby Gymnasium og HF","Studievej 14","","Nørresundby","9400","Danmark","2","10080","Netto14","NBC","0.00","Faktureres i 2011. Ok først modtage leverancen efter Nytår. Pga. ferie kan vi først håndtere elektronisk faktura fra og med 4.1.2012. vh. Kurt Jeppesen","","5798000557826","","","","2","6000.00",
"2011-12-20 14:27:52","20058851","Nick Petersson","","Moldevej 19, 3th","","Vejle","7100","Danmark","22859142","nickgrampetersson@gmail.com","Liljan Pedersen","","Bjerrelide 5, Bjerrelide","","Hornsyld","8783","Danmark","2","1100","Dankort","NBC","0.00","","","","","","","2","345.00",
"2011-12-20 14:31:57","20058852","Winnie Schneider","Randers HF & VUC","Nålemagervej 110, Postbox 2102","","Randers NV","8920","Danmark","86 42 56 44","ws@randershfvuc.dk","Winnie Schneider","Randers HF & VUC","Nålemagervej 110, Postbox 2102","","Randers NV","8920","Danmark","2","11077","Netto14","NBC","0.00","","","5798000557864","","","","1","185.00",
"2011-12-20 14:42:23","20058853","Ingrid Beijk","Polyteknisk. Boghandel","Anker Engelundsvej 1, Bygn. D101","","Lyngby","2800","Danmark","77424317","ingrid@polyteknisk.dk","Ingrid Beijk","Polyteknisk. Boghandel","Anker Engelundsvej 1, Bygn. D101","","Lyngby","2800","Danmark","2","1100","Dankort","NBC","40.00","","","","","","","1","6300.00",
"2011-12-20 14:47:17","20058854","Marie Breumsø","","Ishøjvej 5","","Ishøj","2635","Danmark","40836030","mbreumsoe@hotmail.com","Marie Breumsø","","Ishøjvej 5","","Ishøj","2635","Danmark","2","1100","Dankort","NBC","40.00","","","","","","","5","573.13",
"2011-12-20 14:52:30","20058855","bettina korntoft","Virum Gymnasium","Fuglsangvej 66","","Virum","2830","Danmark","45 83 21 41","bk@virum-gym.dk","","","","","","","","2","10127","Netto14","NBC","0.00","","","5798000558434","","","","1","25.00",
"2011-12-20 16:28:22","20058856","Birgit Lund Henriksen","","Væbnerhatten 193","","Odense","2004680368","Danmark","65916050","birgit.henriksen4@skolekom.dk","Birgit Lund Henriksen","","Væbnerhatten 193","","Odense","2004680368","Danmark","2","1100","Dankort","NBC","0.00","","","","","","","1","143.75",
"2011-12-20 16:29:02","20058857","Birgit Lund Henriksen","","Væbnerhatten 193","","Odense","2004680368","Danmark","65916050","birgit.henriksen4@skolekom.dk","Birgit Lund Henriksen","","Væbnerhatten 193","","Odense","2004680368","Danmark","2","1100","Dankort","NBC","0.00","","","","","","","1","143.75",
"2011-12-20 16:30:00","20058858","Birgit Lund Henriksen","","Væbnerhatten 193","","Odense","2004680368","Danmark","65916050","birgit.henriksen4@skolekom.dk","Birgit Lund Henriksen","","Væbnerhatten 193","","Odense","2004680368","Danmark","2","1100","Dankort","NBC","0.00","","","","","","","1","143.75",
"2011-12-20 16:31:15","20058859","Birgit Lund Henriksen","","Væbnerhatten 193","","Odense","5220","Danmark","65916050","birgit.henriksen4@skolekom.dk","Birgit Lund Henriksen","","Væbnerhatten 193","","Odense","5220","Danmark","2","1100","Dankort","NBC","0.00","","","","","","","1","143.75",
"2011-12-20 16:56:00","20058860","Helle Forum","Shark & Co. ApS","Levysgade 14","","Horsens","8700","Danmark","76827011","helle@sharkreklame.dk","Helle Forum","","Kejsdalen 215","","Juelsminde","7130","Danmark","2","1100","Dankort","NBC","40.00","","","","","","","3","700.00",
"2011-12-20 17:27:41","20058861","Else Reffstrup","odense Katedralskoles bibliotek","Jernbanegade 34","","Odense C","5000","Danmark","6311 6846","else.reffstrup@skolekom.dk","Else Reffstrup","odense Katedralskoles bibliotek","Jernbanegade 34","","Odense C","5000","Danmark","2","1100","Dankort","NBC","0.00","","","5798000557833","","","","1","61.25",
"2011-12-20 17:32:31","20058862","Else Reffstrup","odense Katedralskoles bibliotek","Jernbanegade 34","","Odense C","5000","Danmark","6311 6846","else.reffstrup@skolekom.dk","Else Reffstrup","","Oehlenschlægersvej 60","","Odense M","5230","Danmark","2","1100","Dankort","NBC","0.00","","","5798000557833","","","","1","61.25",
"2011-12-20 17:34:09","20058863","Else Reffstrup","","Oehlenschlægersvej 60","","Odense M","5230","Danmark","66 17 77 21","else.reffstrup@skolekom.dk","Else Reffstrup","","Oehlenschlægersvej 60","","Odense M","5230","Danmark","2","1100","Dankort","NBC","0.00","","","","","","","1","61.25",
"2011-12-20 17:35:15","20058864","Else Reffstrup","odense Katedralskoles bibliotek","Jernbanegade 34","","Odense C","5000","Danmark","6311 6846","else.reffstrup@skolekom.dk","Else Reffstrup","odense Katedralskoles bibliotek","Jernbanegade 34","","Odense C","5000","Danmark","2","1100","Dankort","NBC","0.00","","","5798000557833","","","","1","61.25",
"2011-12-20 17:36:56","20058865","Else Reffstrup","odense Katedralskoles bibliotek","Jernbanegade 34","","Odense C","5000","Danmark","6311 6846","else.reffstrup@skolekom.dk","Else Reffstrup","odense Katedralskoles bibliotek","Jernbanegade 34","","Odense C","5000","Danmark","2","1100","Dankort","NBC","0.00","","","5798000557833","","","","1","61.25",
"2011-12-20 18:18:17","20058866","Inge Berthelsen","Studenterkurset og kostskolen i Sønderjylland","Vestergade 8","","Toftlund","6520","Danmark","74832062","inge.berthelsen@stuk.dk","Inge Berthelsen","Studenterkurset og kostskolen i Sønderjylland","Vestergade 8","","Toftlund","6520","Danmark","2","15207","Netto14","NBC","0.00","","","","","","","2","645.00",
"2011-12-20 18:41:49","20058867","pia katrine richardt","","hellekisten 35","","svenstrup","9230","Danmark","30221866","piakatrine3@hotmail.com","","","","","","","","2","1100","Dankort","NBC","0.00","","","","","","","1","85.94",
"2011-12-20 19:24:59","20058868","Matthias van Leeuwen","","Batum Hedevej 10","","Tjele","8830","Danmark","23609913","mpvl@mail.dk","","","","","","","","2","1100","Dankort","NBC","0.00","","","","","","","1","81.25",
"2011-12-20 19:27:38","20058869","Hanne Brøndum","","Vibevej 3","","Risskov","8240","Danmark","86101287","hb@rs-gym.dk","Hanne Brøndum","","Vibevej 3","","Risskov","8240","Danmark","2","1100","Dankort","NBC","40.00","","","","","","","1","175.00",
"2011-12-20 19:27:46","20058870","Jens Korsbæk Jensen","Københavns VUC","Sankt Petri Passage 1","","København K","1165","Danmark","82326600","jk@kvuc.dk","Jens Korsbæk Jensen","Københavns VUC","Sankt Petri Passage 1","","København K","1165","Danmark","2","113529","Netto14","NBC","0.00","","","5798000557635","","","","1","143.75",
"2011-12-20 19:28:30","20058871","Hanne Brøndum","","Vibevej 3","","Risskov","8240","Danmark","86101287","hb@rs-gym.dk","Hanne Brøndum","","Vibevej 3","","Risskov","8240","Danmark","2","1100","Dankort","NBC","40.00","","","","","","","1","175.00",
"2011-12-20 19:29:23","20058872","Hanne Brøndum","","Vibevej 3","","Risskov","8240","Danmark","86101287","hb@rs-gym.dk","Hanne Brøndum","","Vibevej 3","","Risskov","8240","Danmark","2","1100","Dankort","NBC","40.00","","","","","","","1","175.00",
"2011-12-20 19:31:17","20058873","Hanne Brøndum","","Vibevej 3","","Risskov","8240","Danmark","86101287","hb@rs-gym.dk","Hanne Brøndum","","Vibevej 3","","Risskov","8240","Danmark","2","1100","Dankort","NBC","40.00","","","","","","","1","175.00",
"2011-12-20 19:34:26","20058874","Hanne Brøndum","","Vibevej 3","","Risskov","8240","Danmark","86101287","hb@rs-gym.dk","Hanne Brøndum","","Vibevej 3","","Risskov","8240","Danmark","2","1100","Dankort","NBC","40.00","","","","","","","1","175.00",
"2011-12-20 19:35:37","20058875","Jens Korsbæk Jensen","Københavns VUC","Sankt Petri Passage 1","","København K","1165","Danmark","82326600","jk@kvuc.dk","Jens Korsbæk Jensen","Københavns VUC","Sankt Petri Passage 1","","København K","1165","Danmark","2","113529","Netto14","NBC","0.00","","","5798000557635","","","","2","487.50",
"2011-12-20 19:55:30","20058876","jeppe falk","","landlystvej 57","","Hvidovre","2650","Danmark","27123748","jeppe.falk86@gmail.com","","","","","","","","2","1100","Dankort","NBC","0.00","","","","","","","1","67.50",
"2011-12-20 19:56:34","20058877","jeppe falk","","landlystvej 57","","Hvidovre","2650","Danmark","27123748","jeppe.falk86@gmail.com","","","","","","","","2","1100","Dankort","NBC","0.00","","","","","","","1","67.50",
"2011-12-20 20:40:19","20058878","Lotte Lajer","","Ladelundsvej 38","","Silkeborg","8600","Danmark","61707001","ll@ikast-gym.dk","Lotte Lajer","","Ladelundsvej 38","","Silkeborg","8600","Danmark","2","1100","Dankort","NBC","40.00","","","","","","","1","106.25",
"2011-12-20 21:01:10","20058879","Lene S. Jørgensen","","Rørvej 7","","Viby J","8260","Danmark","27 57 89 11","lene.jorgensen@foaarhus.dk","","","","","","","","2","1100","Dankort","NBC","0.00","","","","","","","1","59.38",
"2011-12-20 21:16:26","20058880","rebecca purcell","","rævens kvt.7","","ballerup","2750","Danmark","21126014","rebe4165@stud.cphwest.dk","","","","","","","","2","1100","Dankort","NBC","0.00","","","","","","","1","37.50",
"2011-12-20 21:20:08","20058881","rebecca siri coorbo","","rævens kvt. 7","","ballerup","2750","Danmark","21146012","rebe4165@stud.cphwest.dk","","","","","","","","2","1400","Netto14","NBC","0.00","","","","","","","1","37.50",
"2011-12-20 21:21:05","20058882","Anders Bergholdt","Frederiksborg Gymnasium og HF","Carlsbergvej 15","","Hillerød","3400","Danmark","48 20 10 40","anders.bergholdt@skolekom.dk","Anders Bergholdt","Frederiksborg Gymnasium og HF","Carlsbergvej 15","","Hillerød","3400","Danmark","2","10023","Netto14","NBC","0.00","","","5798000557314","","Anders Bergholdt","Spansk","1","4875.00",
"2011-12-20 21:58:53","20058883","Flemming Iversen","CPH West Ballerup HHX","Niebuhr Gade 5, 2.th","","Taastrup","2630","Danmark","30233484","fli@cphwest.dk","Flemming Iversen","CPH West Ballerup HHX","Niebuhr Gade 5, 2.th","","Taastrup","2630","Danmark","2","1100","Dankort","NBC","40.00","Ansat som lærer på HHX - giver det rabat? Modregn gerne hvis ja :-)","","","","","","3","696.25",
"2011-12-20 21:59:46","20058884","Flemming Iversen","CPH West Ballerup HHX","Niebuhr Gade 5, 2.th","","Taastrup","2630","Danmark","30233484","fli@cphwest.dk","Flemming Iversen","CPH West Ballerup HHX","Niebuhr Gade 5, 2.th","","Taastrup","2630","Danmark","2","1100","Dankort","NBC","40.00","","","","","","","3","696.25",
"2011-12-20 22:06:06","20058885","Flemming Iversen","CPH West Ballerup HHX","Niebuhr Gade 5, 2.th","","Taastrup","2630","Danmark","30233484","fli@cphwest.dk","Flemming Iversen","CPH West Ballerup HHX","Niebuhr Gade 5, 2.th","","Taastrup","2630","Danmark","2","1100","Dankort","NBC","40.00","","","","","","","3","696.25",
"2011-12-20 22:14:39","20058886","Sara Kjærgaard Rasmussen","Frederikssund Gymnasium","Odinsvej 6","","Frederikssund","3600","Danmark","47 31 30 11","fgsk@efif.dk","Sara Kjærgaard Rasmussen","Frederikssund Gymnasium","Odinsvej 6","","Frederikssund","3600","Danmark","2","10025","Netto14","NBC","0.00","","","5798000557338","","Sara Kjærgaard Rasmussen","Dansk","6","28820.00",
"2011-12-21 00:38:36","20058887","Frederik Slott Pedersen","","Gyrithe Lemches Vej 7","","Kgs. Lyngby","2800","Danmark","45888411","frederikslott@gmail.com","","","","","","","","2","1100","Dankort","NBC","0.00","","","","","","","1","56.25",
"2011-12-21 00:45:46","20058888","Michala Marstrand","","Langstrengvej 35","","Haderslev","6100","Danmark","26162931","mim@vucsyd.dk","Michala Marstrand","","Langstrengvej 35","","Haderslev","6100","Danmark","2","1100","Dankort","NBC","0.00","","","","","","","1","143.75",
"2011-12-21 00:49:01","20058889","Michala Marstrand","","Langstrengvej 35","","Haderslev","6100","Danmark","26162931","mim@vucsyd.dk","Michala Marstrand","","Langstrengvej 35","","Haderslev","6100","Danmark","2","1100","Dankort","NBC","0.00","Jeg bestiller muligvis bogen to gange ? Ihvertfald skal jeg bare have et enkelt eksemplar, tak.","","","","","","1","143.75",
"2011-12-21 04:56:12","20058890","René Lund Chetronoch","","Kalkbrænderivej 10","","Kværndrup","5772","Danmark","65318312","rlc@svend-es.dk","René Lund Chetronoch","","Kalkbrænderivej 10","","Kværndrup","5772","Danmark","2","1100","Dankort","NBC","40.00","","","","","","","6","366.25",
