"CreateDate","OrderNumber","LineNumber","ItemNumber","Quantity","Price","DiscountPercent",
"2011-12-29 08:57:03","20059047","1","6163511201","180.0000","40.0000","40.0000",
"2011-12-29 08:57:03","20059047","2","6163114501","100.0000","60.0000","40.0000",
