"CreateDate","OrderNumber","LineNumber","ItemNumber","Quantity","Price","DiscountPercent",
"2012-01-02 07:22:08","20059105","1","6160548401","1.0000","60.0000","0.0000",
"2012-01-02 07:22:08","20059105","2","6160696001","1.0000","110.0000","0.0000",
"2012-01-02 07:22:08","20059105","3","7351919702","1.0000","110.0000","0.0000",
"2012-01-02 07:22:08","20059105","4","7783451890","1.0000","35.0000","0.0000",
"2012-01-02 07:22:08","20059105","5","6162251801","1.0000","168.0000","0.0000",
"2012-01-02 07:22:08","20059105","6","7783787890","1.0000","50.0000","0.0000",
"2012-01-02 07:22:08","20059105","7","7351920090","1.0000","35.0000","0.0000",
"2012-01-02 07:22:08","20059105","8","6162418501","1.0000","84.0000","0.0000",
