"CreateDate","OrderNumber","LineNumber","ItemNumber","Quantity","Price","DiscountPercent",
"2012-01-02 09:39:27","20059119","1","6160938290","5.0000","55.0000","0.0000",
"2012-01-02 09:39:27","20059119","2","7351091290","25.0000","29.0000","0.0000",
