"CreateDate","OrderNumber","LineNumber","ItemNumber","Quantity","Price","DiscountPercent",
"2012-01-02 16:37:47","20059157","1","6160312090","1.0000","70.0000","0.0000",
"2012-01-02 16:37:47","20059157","2","6160799190","1.0000","59.0000","0.0000",
