"CreateDate","OrderNumber","LineNumber","ItemNumber","Quantity","Price","DiscountPercent",
"2012-01-02 19:55:04","20059168","1","6162644801","1.0000","174.0000","0.0000",
"2012-01-02 19:55:04","20059168","2","6161052604","1.0000","260.0000","0.0000",
