"CreateDate","OrderNumber","LineNumber","ItemNumber","Quantity","Price","DiscountPercent",
"2012-01-03 11:57:27","20059199","1","9083383101","1.0000","120.0000","0.0000",
"2012-01-03 11:57:27","20059199","2","9083385501","1.0000","40.0000","0.0000",
"2012-01-03 11:57:27","20059199","3","9083384801","1.0000","168.0000","0.0000",
