"CreateDate","OrderNumber","LineNumber","ItemNumber","Quantity","Price","DiscountPercent",
"2012-01-03 14:29:20","20059224","1","6162610301","50.0000","288.0000","0.0000",
"2012-01-03 14:29:20","20059224","2","6162613401","50.0000","148.0000","0.0000",
