"CreateDate","OrderNumber","LineNumber","ItemNumber","Quantity","Price","DiscountPercent",
"2012-01-03 20:44:03","20059250","1","6162373701","1.0000","10.0000","0.0000",
"2012-01-03 20:44:03","20059250","2","6162351501","1.0000","10.0000","0.0000",
"2012-01-03 20:44:03","20059250","3","6162387401","1.0000","10.0000","0.0000",
