"CreateDate","OrderNumber","LineNumber","ItemNumber","Quantity","Price","DiscountPercent",
"2012-01-04 09:17:55","20059272","1","9083345901","1.0000","276.0000","0.0000",
"2012-01-04 09:17:55","20059272","2","9083392301","1.0000","0.0000","0.0000",
