"CreateDate","OrderNumber","LineNumber","ItemNumber","Quantity","Price","DiscountPercent",
"2012-01-04 21:59:09","20059352","1","6163061201","16.0000","72.0000","0.0000",
"2012-01-04 21:59:09","20059352","2","6163075901","16.0000","80.0000","0.0000",
