"CreateDate","OrderNumber","LineNumber","ItemNumber","Quantity","Price","DiscountPercent",
"2012-01-05 13:42:33","20059434","1","6161329005","1.0000","300.0000","0.0000",
"2012-01-05 13:42:33","20059434","2","6161759803","1.0000","90.0000","0.0000",
