"CreateDate","OrderNumber","LineNumber","ItemNumber","Quantity","Price","DiscountPercent",
"2012-01-09 09:38:22","20059656","1","6162722301","25.0000","350.0000","0.0000",
"2012-01-09 09:38:22","20059656","2","6163587701","25.0000","140.0000","0.0000",
