"CreateDate","OrderNumber","LineNumber","ItemNumber","Quantity","Price","DiscountPercent",
"2012-01-09 09:16:31","20059650","1","7783644801","1.0000","100.0000","0.0000",
"2012-01-09 09:16:31","20059650","2","6162292101","1.0000","60.0000","0.0000",
"2012-01-09 09:16:31","20059650","3","7783506902","1.0000","100.0000","0.0000",
