"CreateDate","OrderNumber","LineNumber","ItemNumber","Quantity","Price","DiscountPercent",
"2012-01-09 12:12:27","20059677","1","6164234901","2.0000","200.0000","0.0000",
"2012-01-09 12:12:27","20059677","2","6162369001","1.0000","180.0000","0.0000",
"2012-01-09 12:12:27","20059677","3","6161482304","1.0000","120.0000","0.0000",
