"CreateDate","OrderNumber","LineNumber","ItemNumber","Quantity","Price","DiscountPercent",
"2012-01-09 12:57:17","20059684","1","6163590701","60.0000","294.0000","0.0000",
"2012-01-09 12:57:17","20059684","2","6163894601","60.0000","80.0000","0.0000",
