"CreateDate","OrderNumber","LineNumber","ItemNumber","Quantity","Price","DiscountPercent",
"2012-01-09 19:52:03","20059715","1","6162287701","1.0000","52.5000","0.0000",
"2012-01-09 19:52:03","20059715","2","6162670701","1.0000","50.0000","0.0000",
