"CreateDate","OrderNumber","LineNumber","ItemNumber","Quantity","Price","DiscountPercent",
"2012-01-10 15:46:37","20059806","1","6162290790","1.0000","70.0000","0.0000",
"2012-01-10 15:46:37","20059806","2","6161049601","1.0000","194.0000","0.0000",
