"CreateDate","OrderNumber","LineNumber","ItemNumber","Quantity","Price","DiscountPercent",
"2012-01-11 13:19:37","20059880","1","9083345901","1.0000","276.0000","0.0000",
"2012-01-11 13:19:37","20059880","2","6161469605","2.0000","190.0000","0.0000",
"2012-01-11 13:19:37","20059880","3","9083392301","2.0000","0.0000","0.0000",
