"CreateDate","OrderNumber","LineNumber","ItemNumber","Quantity","Price","DiscountPercent",
"2012-01-12 16:27:58","20059970","1","6161123906","70.0000","270.0000","0.0000",
"2012-01-12 16:27:58","20059970","2","6162553302","35.0000","120.0000","0.0000",
"2012-01-12 16:27:58","20059970","3","6162296902","35.0000","194.0000","0.0000",
