"CreateDate","OrderNumber","LineNumber","ItemNumber","Quantity","Price","DiscountPercent",
"2012-01-13 11:03:51","20060025","1","6161408401","1.0000","70.0000","0.0000",
"2012-01-13 11:03:51","20060025","2","6161474201","1.0000","40.0000","0.0000",
