"CreateDate","OrderNumber","LineNumber","ItemNumber","Quantity","Price","DiscountPercent",
"2012-01-13 15:58:52","20060058","1","7783983890","1.0000","58.0000","0.0000",
"2012-01-13 15:58:52","20060058","2","6161030503","1.0000","310.0000","0.0000",
"2012-01-13 15:58:52","20060058","3","6162419201","1.0000","90.0000","0.0000",
