"CreateDate","OrderNumber","LineNumber","ItemNumber","Quantity","Price","DiscountPercent",
"2012-01-16 06:22:06","20060119","1","7783983890","1.0000","58.0000","0.0000",
"2012-01-16 06:22:06","20060119","2","1203629390","1.0000","64.0000","0.0000",
