"CreateDate","OrderNumber","LineNumber","ItemNumber","Quantity","Price","DiscountPercent",
"2012-01-17 09:02:06","20060233","1","6160994390","1.0000","55.0000","0.0000",
"2012-01-17 09:02:06","20060233","2","6161812890","1.0000","49.0000","0.0000",
"2012-01-17 09:02:06","20060233","3","6161198090","1.0000","38.0000","0.0000",
"2012-01-17 09:02:06","20060233","4","6160888290","1.0000","60.0000","0.0000",
"2012-01-17 09:02:06","20060233","5","6161205790","1.0000","60.0000","0.0000",
