"CreateDate","OrderNumber","LineNumber","ItemNumber","Quantity","Price","DiscountPercent",
"2012-01-17 11:19:39","20060256","1","6161271504","20.0000","295.0000","0.0000",
"2012-01-17 11:19:39","20060256","2","6161306103","23.0000","295.0000","0.0000",
