"CreateDate","OrderNumber","LineNumber","ItemNumber","Quantity","Price","DiscountPercent",
"2012-01-17 14:09:15","20060279","1","6162340901","1.0000","43.7500","0.0000",
"2012-01-17 14:09:15","20060279","2","6161439101","1.0000","175.0000","0.0000",
