"CreateDate","OrderNumber","LineNumber","ItemNumber","Quantity","Price","DiscountPercent",
"2012-01-18 10:48:02","20060343","1","6162907401","1.0000","70.0000","0.0000",
"2012-01-18 10:48:02","20060343","2","6162908101","1.0000","42.5000","0.0000",
"2012-01-18 10:48:02","20060343","3","6161065814","1.0000","170.0000","0.0000",
"2012-01-18 10:48:02","20060343","4","6161061502","1.0000","30.0000","0.0000",
"2012-01-18 10:48:02","20060343","5","6161007015","1.0000","280.0000","0.0000",
