"CreateDate","OrderNumber","LineNumber","ItemNumber","Quantity","Price","DiscountPercent",
"2012-01-18 20:03:11","20060396","1","6160744403","1.0000","200.0000","0.0000",
"2012-01-18 20:03:11","20060396","2","7783983890","1.0000","58.0000","0.0000",
"2012-01-18 20:03:11","20060396","3","6162664601","1.0000","180.0000","0.0000",
"2012-01-18 20:03:11","20060396","4","6160534406","1.0000","260.0000","0.0000",
