"CreateDate","OrderNumber","LineNumber","ItemNumber","Quantity","Price","DiscountPercent",
"2012-01-19 07:34:06","20060405","1","6161549803","1.0000","100.0000","0.0000",
"2012-01-19 07:34:06","20060405","2","6162476502","2.0000","250.0000","0.0000",
