"CreateDate","OrderNumber","LineNumber","ItemNumber","Quantity","Price","DiscountPercent",
"2012-01-22 19:06:54","20060692","1","6162121803","1.0000","240.0000","0.0000",
"2012-01-22 19:06:54","20060692","2","6161313404","1.0000","230.0000","0.0000",
"2012-01-22 19:06:54","20060692","3","6161130106","1.0000","150.0000","0.0000",
"2012-01-22 19:06:54","20060692","4","6164339101","1.0000","150.0000","0.0000",
