"CreateDate","OrderNumber","LineNumber","ItemNumber","Quantity","Price","DiscountPercent",
"2012-01-22 21:52:46","20060701","1","6160394503","35.0000","220.0000","0.0000",
"2012-01-22 21:52:46","20060701","2","6161017101","35.0000","168.0000","0.0000",
"2012-01-22 21:52:46","20060701","3","6162291402","110.0000","88.0000","0.0000",
