"CreateDate","OrderNumber","LineNumber","ItemNumber","Quantity","Price","DiscountPercent",
"2012-01-24 12:48:50","20060878","1","6163353801","1.0000","120.0000","0.0000",
"2012-01-24 12:48:50","20060878","2","6162572401","1.0000","22.5000","0.0000",
