"CreateDate","OrderNumber","LineNumber","ItemNumber","Quantity","Price","DiscountPercent",
"2012-01-24 13:32:29","20060887","1","6164865501","1.0000","230.0000","0.0000",
"2012-01-24 13:32:29","20060887","2","6164361201","1.0000","250.0000","0.0000",
