"CreateDate","OrderNumber","LineNumber","ItemNumber","Quantity","Price","DiscountPercent",
"2012-01-25 10:52:26","20060959","1","6162243302","1.0000","150.0000","0.0000",
"2012-01-25 10:52:26","20060959","2","6161013504","1.0000","320.0000","0.0000",
