"CreateDate","OrderNumber","LineNumber","ItemNumber","Quantity","Price","DiscountPercent",
"2012-01-25 10:56:57","20060961","1","6161374603","35.0000","180.0000","0.0000",
"2012-01-25 10:56:57","20060961","2","6162210503","3.0000","188.0000","0.0000",
