"CreateDate","OrderNumber","LineNumber","ItemNumber","Quantity","Price","DiscountPercent",
"2012-01-25 13:27:22","20060976","1","6161329005","1.0000","300.0000","0.0000",
"2012-01-25 13:27:22","20060976","2","6161759803","1.0000","90.0000","0.0000",
