"CreateDate","OrderNumber","LineNumber","ItemNumber","Quantity","Price","DiscountPercent",
"2012-01-25 20:21:32","20060998","1","6162027901","1.0000","350.0000","0.0000",
"2012-01-25 20:21:32","20060998","2","7783350390","1.0000","35.0000","0.0000",
