"CreateDate","OrderNumber","LineNumber","ItemNumber","Quantity","Price","DiscountPercent",
"2012-01-26 14:30:10","20061062","1","6162279201","1.0000","200.0000","0.0000",
"2012-01-26 14:30:10","20061062","2","6162211202","1.0000","150.0000","0.0000",
"2012-01-26 14:30:10","20061062","3","6160918801","1.0000","90.0000","0.0000",
"2012-01-26 14:30:10","20061062","4","6160264704","1.0000","280.0000","0.0000",
"2012-01-26 14:30:10","20061062","5","6163758101","1.0000","250.0000","0.0000",
"2012-01-26 14:30:10","20061062","6","6162418501","1.0000","84.0000","0.0000",
"2012-01-26 14:30:10","20061062","7","6161492001","1.0000","80.0000","0.0000",
"2012-01-26 14:30:10","20061062","8","6160696001","1.0000","110.0000","0.0000",
"2012-01-26 14:30:10","20061062","9","7783749502","1.0000","110.0000","0.0000",
"2012-01-26 14:30:10","20061062","10","7783789404","1.0000","280.0000","0.0000",
"2012-01-26 14:30:10","20061062","11","6160150004","1.0000","250.0000","0.0000",
"2012-01-26 14:30:10","20061062","12","6160936603","1.0000","320.0000","0.0000",
"2012-01-26 14:30:10","20061062","13","7783924201","1.0000","200.0000","0.0000",
"2012-01-26 14:30:10","20061062","14","6161439101","1.0000","175.0000","0.0000",
"2012-01-26 14:30:10","20061062","15","6162813801","1.0000","190.0000","0.0000",
"2012-01-26 14:30:10","20061062","16","6162648601","1.0000","148.0000","0.0000",
"2012-01-26 14:30:10","20061062","17","6163566201","1.0000","174.0000","0.0000",
"2012-01-26 14:30:10","20061062","18","6162386701","1.0000","190.0000","0.0000",
"2012-01-26 14:30:10","20061062","19","6161535001","1.0000","148.0000","0.0000",
"2012-01-26 14:30:10","20061062","20","6160963201","3.0000","200.0000","0.0000",
"2012-01-26 14:30:10","20061062","21","6162144301","1.0000","148.0000","0.0000",
"2012-01-26 14:30:10","20061062","22","6161449101","1.0000","180.0000","0.0000",
"2012-01-26 14:30:10","20061062","23","6161469605","1.0000","190.0000","0.0000",
"2012-01-26 14:30:10","20061062","24","6161048803","1.0000","180.0000","0.0000",
"2012-01-26 14:30:10","20061062","25","6161027503","1.0000","190.0000","0.0000",
"2012-01-26 14:30:10","20061062","26","6161951802","1.0000","200.0000","0.0000",
"2012-01-26 14:30:10","20061062","27","6160371601","1.0000","230.0000","0.0000",
"2012-01-26 14:30:10","20061062","28","6160754103","1.0000","220.0000","0.0000",
