"CreateDate","OrderNumber","LineNumber","ItemNumber","Quantity","Price","DiscountPercent",
"2012-01-26 19:43:34","20061082","1","6161030503","1.0000","310.0000","0.0000",
"2012-01-26 19:43:34","20061082","2","6162419201","1.0000","90.0000","0.0000",
