"CreateDate","OrderNumber","LineNumber","ItemNumber","Quantity","Price","DiscountPercent",
"2012-01-27 08:28:12","20061104","1","6162419201","1.0000","90.0000","0.0000",
"2012-01-27 08:28:12","20061104","2","6161030503","1.0000","310.0000","0.0000",
