"CreateDate","OrderNumber","LineNumber","ItemNumber","Quantity","Price","DiscountPercent",
"2012-01-27 08:23:46","20061103","1","6162500701","25.0000","112.0000","0.0000",
"2012-01-27 08:23:46","20061103","2","6162278501","25.0000","208.0000","0.0000",
"2012-01-27 08:23:46","20061103","3","6163385901","1.0000","55.0000","0.0000",
