"CreateDate","OrderNumber","LineNumber","ItemNumber","Quantity","Price","DiscountPercent",
"2012-01-28 10:19:34","20061201","1","6163124401","1.0000","248.0000","0.0000",
"2012-01-28 10:19:34","20061201","2","6162791901","1.0000","180.0000","0.0000",
