"CreateDate","OrderNumber","LineNumber","ItemNumber","Quantity","Price","DiscountPercent",
"2012-01-28 14:02:39","20061212","1","6162125250","1.0000","74.0000","0.0000",
"2012-01-28 14:02:39","20061212","2","6163748250","1.0000","74.0000","0.0000",
