"CreateDate","OrderNumber","LineNumber","ItemNumber","Quantity","Price","DiscountPercent",
"2012-01-30 09:21:04","20061280","1","6162700101","2.0000","120.0000","0.0000",
"2012-01-30 09:21:04","20061280","2","6164021501","2.0000","120.0000","0.0000",
