"CreateDate","OrderNumber","LineNumber","ItemNumber","Quantity","Price","DiscountPercent",
"2012-01-30 15:24:05","20061328","1","6162907401","1.0000","70.0000","0.0000",
"2012-01-30 15:24:05","20061328","2","6162908101","1.0000","42.5000","0.0000",
