"CreateDate","OrderNumber","LineNumber","ItemNumber","Quantity","Price","DiscountPercent",
"2012-01-31 09:18:45","20061387","1","6163748250","1.0000","74.0000","0.0000",
"2012-01-31 09:18:45","20061387","2","6162651601","1.0000","10.0000","0.0000",
"2012-01-31 09:18:45","20061387","3","6162871801","1.0000","50.0000","0.0000",
"2012-01-31 09:18:45","20061387","4","6162840401","1.0000","70.0000","0.0000",
"2012-01-31 09:18:45","20061387","5","6160918801","1.0000","90.0000","0.0000",
"2012-01-31 09:18:45","20061387","6","6162211202","1.0000","150.0000","0.0000",
