"CreateDate","OrderNumber","LineNumber","ItemNumber","Quantity","Price","DiscountPercent",
"2012-01-31 20:25:14","20061462","1","6162505202","1.0000","62.5000","0.0000",
"2012-01-31 20:25:14","20061462","2","6162465902","1.0000","80.0000","0.0000",
"2012-01-31 20:25:14","20061462","3","6161637002","1.0000","57.5000","0.0000",
