"CreateDate","OrderNumber","LineNumber","ItemNumber","Quantity","Price","DiscountPercent",
"2012-02-01 07:00:40","20061470","1","6162296902","1.0000","194.0000","0.0000",
"2012-02-01 07:00:40","20061470","2","6162640001","1.0000","200.0000","0.0000",
