"CreateDate","OrderNumber","LineNumber","ItemNumber","Quantity","Price","DiscountPercent",
"2012-02-01 14:15:00","20061517","1","6162510601","1.0000","21.2500","0.0000",
"2012-02-01 14:15:00","20061517","2","6162552601","1.0000","47.5000","0.0000",
