"CreateDate","OrderNumber","LineNumber","ItemNumber","Quantity","Price","DiscountPercent",
"2012-02-02 10:29:32","20061591","1","6160373201","1.0000","150.0000","0.0000",
"2012-02-02 10:29:32","20061591","2","6160538702","1.0000","140.0000","0.0000",
