"CreateDate","OrderNumber","LineNumber","ItemNumber","Quantity","Price","DiscountPercent",
"2012-02-03 14:33:35","20061706","1","6162667702","1.0000","320.0000","0.0000",
"2012-02-03 14:33:35","20061706","2","6162857201","1.0000","148.0000","0.0000",
