"CreateDate","OrderNumber","LineNumber","ItemNumber","Quantity","Price","DiscountPercent",
"2012-02-06 10:38:28","20061798","1","6162545802","30.0000","288.0000","0.0000",
"2012-02-06 10:38:28","20061798","2","6162546502","30.0000","228.0000","0.0000",
