"CreateDate","OrderNumber","LineNumber","ItemNumber","Quantity","Price","DiscountPercent",
"2012-02-06 17:21:06","20061845","1","6161196402","1.0000","80.0000","0.0000",
"2012-02-06 17:21:06","20061845","2","6161195601","1.0000","80.0000","0.0000",
