"CreateDate","OrderNumber","LineNumber","ItemNumber","Quantity","Price","DiscountPercent",
"2012-02-06 19:32:58","20061851","1","1203629390","1.0000","64.0000","0.0000",
"2012-02-06 19:32:58","20061851","2","6161349301","1.0000","180.0000","0.0000",
"2012-02-06 19:32:58","20061851","3","7783983890","1.0000","58.0000","0.0000",
"2012-02-06 19:32:58","20061851","4","6162125250","1.0000","74.0000","0.0000",
"2012-02-06 19:32:58","20061851","5","6163786402","1.0000","110.0000","0.0000",
