"CreateDate","OrderNumber","LineNumber","ItemNumber","Quantity","Price","DiscountPercent",
"2012-02-07 11:07:34","20061908","1","6163404701","1.0000","36.0000","0.0000",
"2012-02-07 11:07:34","20061908","2","6163517401","1.0000","44.0000","0.0000",
