"CreateDate","OrderNumber","LineNumber","ItemNumber","Quantity","Price","DiscountPercent",
"2012-02-07 13:03:51","20061929","1","6161481501","1.0000","350.0000","0.0000",
"2012-02-07 13:03:51","20061929","2","6162436901","1.0000","200.0000","0.0000",
"2012-02-07 13:03:51","20061929","3","6162260001","1.0000","150.0000","0.0000",
