"CreateDate","OrderNumber","LineNumber","ItemNumber","Quantity","Price","DiscountPercent",
"2012-02-07 18:33:28","20061958","1","6164253001","1.0000","80.0000","0.0000",
"2012-02-07 18:33:28","20061958","2","6164258501","1.0000","37.0000","0.0000",
