"CreateDate","OrderNumber","LineNumber","ItemNumber","Quantity","Price","DiscountPercent",
"2012-02-07 20:53:08","20061972","1","6161170002","1.0000","350.0000","0.0000",
"2012-02-07 20:53:08","20061972","2","6162026203","1.0000","150.0000","0.0000",
