"CreateDate","OrderNumber","LineNumber","ItemNumber","Quantity","Price","DiscountPercent",
"2012-02-08 11:54:54","20062020","1","6161140902","2.0000","195.0000","0.0000",
"2012-02-08 11:54:54","20062020","2","6160364303","2.0000","190.0000","0.0000",
"2012-02-08 11:54:54","20062020","3","6164514201","1.0000","194.0000","0.0000",
