"CreateDate","OrderNumber","LineNumber","ItemNumber","Quantity","Price","DiscountPercent",
"2012-02-08 12:33:57","20062024","1","6163397201","10.0000","33.0000","0.0000",
"2012-02-08 12:33:57","20062024","2","6163399601","15.0000","74.0000","0.0000",
