"CreateDate","OrderNumber","LineNumber","ItemNumber","Quantity","Price","DiscountPercent",
"2012-02-08 21:00:13","20062063","1","6162705601","1.0000","37.5000","0.0000",
"2012-02-08 21:00:13","20062063","2","7783197703","1.0000","100.0000","0.0000",
"2012-02-08 21:00:13","20062063","3","6160928502","1.0000","140.0000","0.0000",
"2012-02-08 21:00:13","20062063","4","6160714201","1.0000","21.2500","0.0000",
"2012-02-08 21:00:13","20062063","5","6160919602","1.0000","195.0000","0.0000",
"2012-02-08 21:00:13","20062063","6","9111171401","1.0000","130.0000","0.0000",
"2012-02-08 21:00:13","20062063","7","6161378901","1.0000","25.0000","0.0000",
"2012-02-08 21:00:13","20062063","8","6161543901","1.0000","30.0000","0.0000",
"2012-02-08 21:00:13","20062063","9","6164021501","1.0000","120.0000","0.0000",
"2012-02-08 21:00:13","20062063","10","6160312090","1.0000","70.0000","0.0000",
