"CreateDate","OrderNumber","LineNumber","ItemNumber","Quantity","Price","DiscountPercent",
"2012-02-08 21:55:58","20062066","1","6162667702","1.0000","320.0000","0.0000",
"2012-02-08 21:55:58","20062066","2","6162857201","2.0000","148.0000","0.0000",
