"CreateDate","OrderNumber","LineNumber","ItemNumber","Quantity","Price","DiscountPercent",
"2012-02-09 12:42:53","20062115","1","6161329006","2.0000","300.0000","0.0000",
"2012-02-09 12:42:53","20062115","2","6161759803","2.0000","90.0000","0.0000",
