"CreateDate","OrderNumber","LineNumber","ItemNumber","Quantity","Price","DiscountPercent",
"2012-02-10 08:08:18","20062170","1","6162419201","1.0000","90.0000","0.0000",
"2012-02-10 08:08:18","20062170","2","6162528101","1.0000","200.0000","0.0000",
"2012-02-10 08:08:18","20062170","3","6161030503","1.0000","310.0000","0.0000",
"2012-02-10 08:08:18","20062170","4","6161259602","1.0000","120.0000","0.0000",
