"CreateDate","OrderNumber","LineNumber","ItemNumber","Quantity","Price","DiscountPercent",
"2012-02-09 21:31:31","20062164","1","6162667702","1.0000","320.0000","0.0000",
"2012-02-09 21:31:31","20062164","2","6162857201","1.0000","148.0000","0.0000",
