"CreateDate","OrderNumber","LineNumber","ItemNumber","Quantity","Price","DiscountPercent",
"2012-02-10 12:53:42","20062203","1","6164514250","1.0000","97.0000","0.0000",
"2012-02-10 12:53:42","20062203","2","6163748250","1.0000","74.0000","0.0000",
"2012-02-10 12:53:42","20062203","3","6160968701","1.0000","194.0000","0.0000",
"2012-02-10 12:53:42","20062203","4","6162644801","1.0000","174.0000","0.0000",
"2012-02-10 12:53:42","20062203","5","6162670701","1.0000","50.0000","0.0000",
"2012-02-10 12:53:42","20062203","6","6163095701","1.0000","188.0000","0.0000",
