"CreateDate","OrderNumber","LineNumber","ItemNumber","Quantity","Price","DiscountPercent",
"2012-02-10 13:35:21","20062210","1","6162293802","1.0000","82.5000","0.0000",
"2012-02-10 13:35:21","20062210","2","6163435101","1.0000","80.0000","0.0000",
