"CreateDate","OrderNumber","LineNumber","ItemNumber","Quantity","Price","DiscountPercent",
"2012-02-10 16:21:36","20062223","1","6161007015","1.0000","280.0000","0.0000",
"2012-02-10 16:21:36","20062223","2","6162476502","1.0000","250.0000","0.0000",
