"CreateDate","OrderNumber","LineNumber","ItemNumber","Quantity","Price","DiscountPercent",
"2012-02-13 10:48:10","20062351","1","6162720901","1.0000","250.0000","0.0000",
"2012-02-13 10:48:10","20062351","2","6162714801","1.0000","198.0000","0.0000",
