"CreateDate","OrderNumber","LineNumber","ItemNumber","Quantity","Price","DiscountPercent",
"2012-02-13 12:47:08","20062363","1","9083345901","1.0000","276.0000","0.0000",
"2012-02-13 12:47:08","20062363","2","9083392301","1.0000","0.0000","0.0000",
