"CreateDate","ESalesNumber","Name","Company","Address1","Address2","Address3","Zip","Country","Phone","Email","DeliveryName","DeliveryCompany","DeliveryAddress1","DeliveryAddress2","DeliveryAddress3","DeliveryZip","DeliveryCountry","Status","DebtorAccount","Payment","DelMode","Fee","Eordrenotat","VatNo","EanLokNr","IKO","OIOAttention","OIORequisNumber","Lines","GrandTotal",
"2012-02-10 14:21:25","20062211","jesper holm mikkelsen","","stadion alle 31A, 2.","","Århus C","8000","Danmark","26155311","jhm@vucaarhus.dk","jesper holm mikkelsen","","stadion alle 31A, 2.","","Århus C","8000","Danmark","2","1100","Dankort","NBC","0.00","","","","","","","1","121.25",
"2012-02-10 14:24:13","20062212","Flemming von Würden Petersen","LOF Storstrømmen","Holebyvej 10","","Ø. Ulslev","4894","Danmark","54865135","flemmingvonwurden@gmail.com","Flemming von Würden Petersen","LOF Storstrømmen","Holebyvej 10","","Ø. Ulslev","4894","Danmark","2","1100","Dankort","NBC","40.00","","","","","","","1","1175.00",
"2012-02-10 14:25:39","20062213","Lykke Holm","Greve Gymnasium og HF","Rådhusholmen 12","","Greve Strand","2670","Danmark","43972000","gglkh@greve-gym.dk","Lykke Holm","Greve Gymnasium og HF","Rådhusholmen 12","","Greve Strand","2670","Danmark","2","10031","Netto14","NBC","0.00","","","5798000557406","","","","1","121.25",
"2012-02-10 14:37:13","20062214","Lise Ter-Borch","Rødovre Gymnasium","Hendriksholms Boulevard 28","","Rødovre","2610","Danmark","45 11 53 00","lterborch@gmail.com","Lise Ter-Borch","Rødovre Gymnasium","Hendriksholms Boulevard 28","","Rødovre","2610","Danmark","2","10095","Netto14","NBC","0.00","Levering tidligst d. 20.2.2012 pga. af vinterferie","","5798000557963","","LT","FRANSK","5","1337.50",
"2012-02-10 14:49:37","20062215","niels rossing","","bondehavevej 101, st.","","bagsværd","2880","Danmark","26188502","niels.rossing@skolekom.dk","","","","","","","","2","1100","Dankort","NBC","0.00","","","","","","","1","250.00",
"2012-02-10 15:01:20","20062216","Niels Jakob Mørk Hansen","","Ediths Allé 4","","Odense SV","5250","Danmark","20295458","njh@vucfyn.dk","Niels Jakob Mørk Hansen","","Ediths Allé 4","","Odense SV","5250","Danmark","2","1100","Dankort","NBC","0.00","","","","","","","1","121.25",
"2012-02-10 15:03:42","20062217","Ellen Lange","Grenaa Handelsskole - Viden Djurs","N.P. Josiassensvej 44","","Grenå","8500","Danmark","87 58 04 00","esl@djes.dk","Ellen Lange","","Kildevej 12","","Randers","8940","Danmark","2","10206","Netto14","NBC","0.00","","","5798000554115","","","","1","121.25",
"2012-02-10 15:06:06","20062218","Mette Nielsen","","Høskovvej 24","","Viby j","8260","Danmark","61261903","mettefryd@gmail.com","Mette Nielsen","","Høskovvej 24","","Viby j","8260","Danmark","2","1100","Dankort","NBC","40.00","","","","","","","1","325.00",
"2012-02-10 15:12:11","20062219","karin gottenborg","Københavns VUC","Vognmagergade 8","","København K","1120","Danmark","8232 6682","karin@kvuc.dk","karin gottenborg","Københavns VUC","Vognmagergade 8","","København K","1120","Danmark","2","12016","Netto14","NBC","0.00","","","5798000557635","","","","1","121.25",
"2012-02-10 15:35:57","20062220","Kim Josefsen","Roskilde Handelsskole","Bakkesvinget 67","","Roskilde","4000","Danmark","8852 3200","kjj@rhs.dk","Kim Josefsen","Roskilde Handelsskole","Bakkesvinget 67","","Roskilde","4000","Danmark","2","10255","Netto14","NBC","0.00","","","5798000553606","228011 4513 14000 16","kjj","","1","121.25",
"2012-02-10 16:07:24","20062221","birgitte hynne","DTU Adgangskursus","Akademivej, Bygning 358","","Lyngby","2800","Danmark","45255605","bha@adk.dtu.dk","birgitte hynne","DTU Adgangskursus","Akademivej, Bygning 358","","Lyngby","2800","Danmark","2","15772","Netto14","NBC","0.00","","","5798000430600","","","","1","92.50",
"2012-02-10 16:12:12","20062222","Anita Linde","","Esbølvej 33","","Hemmet","6893","Danmark","22386858","anitalinde@hotmail.com","","","","","","","","2","1100","Dankort","NBC","0.00","","","","","","","1","62.50",
"2012-02-10 16:21:36","20062223","Bente Christensen","","Åbakkevej 28, 1. th.","","Vanløse","2720","Danmark","50527204","bec@joep.dk","Bente Christensen","","Åbakkevej 28, 1. th.","","Vanløse","2720","Danmark","2","1100","Dankort","NBC","40.00","","","","","","","2","712.50",
"2012-02-10 16:35:51","20062224","Inge-Lise Frost","","Saltøvej 118","","Næstved","4700","Danmark","25130979","bf@bfv.dk","","","","","","","","2","1100","Dankort","NBC","0.00","","","","","","","1","62.50",
"2012-02-10 17:20:56","20062225","Pernille Bøgehave","","Madsbjergparken 17","","Højbjerg","8270","Danmark","61707121","pernillepb22@hotmail.com","","","","","","","","2","1100","Dankort","NBC","0.00","","","","","","","1","26.56",
"2012-02-10 17:21:24","20062226","Sanne Snejbjerg","","Hyben Alle 38","","Kastrup","2770","Danmark","60623855","ssj@adm.khs.dk","Sanne Snejbjerg","","Hyben Alle 38","","Kastrup","2770","Danmark","2","1100","Dankort","NBC","0.00","","","","","","","2","213.75",
"2012-02-10 17:26:33","20062227","Claus Nexøe","Nærum Gymnasium","Nærum Hovedgade 30","","Nærum","2850","Danmark","45 11 45 11","cn@nagym.dk","Claus Nexøe","Nærum Gymnasium","Nærum Hovedgade 30","","Nærum","2850","Danmark","2","106574","Netto14","NBC","0.00","","","5798000557796","","","","1","15750.00",
"2012-02-10 18:12:09","20062228","Carsten Gløvermose Nielsen","Handelsgymnasium Rønde","Skrejrupvej 9B","","Rønde","8410","Danmark","30259801","cagn@videndjurs.dk","Carsten Gløvermose Nielsen","Handelsgymnasium Rønde","Skrejrupvej 9B","","Rønde","8410","Danmark","2","10206","Netto14","NBC","0.00","","","5798000554115","","Cagn","","1","121.25",
"2012-02-10 18:20:25","20062229","Torben Bojer Christensen","","Sigurdsgade 20B 3TV","","København N","2200","Danmark","42505075","t.b.c@tiscali.dk","","","","","","","","2","1100","Dankort","NBC","0.00","","","","","","","1","103.13",
"2012-02-10 18:33:52","20062230","Dorthe Rasmussen Kjær","Rysensteen Gymnasium","Tietgensgade 74","","København V","1704","Danmark","33243868, 332443","dk@rysensteen.dk","Dorthe Rasmussen Kjær","Rysensteen Gymnasium","Tietgensgade 74","","København V","1704","Danmark","2","10093","Netto14","NBC","0.00","","","5798000557949","","DK","","1","121.25",
"2012-02-10 18:57:45","20062231","Niels Christiansen","Vejlefjordskolen","Vejlefjordskolen 15","","Daugård","8721","Danmark","75 89 52 02","tvesok@gmx.de","","","","","","","","2","10119","Netto14","NBC","0.00","","","","","","","2","82.50",
"2012-02-10 20:25:56","20062232","René Cordua","","Heimdalsvej 28","","Heimdalsvej","4300","Danmark","20343559","rencordus@hotmail.com","René Cordua","","Heimdalsvej 28","","Heimdalsvej","4300","Danmark","2","1100","Dankort","NBC","0.00","","","","","","","2","213.75",
"2012-02-10 20:28:00","20062233","Mette Bækgaard","","Bjerreager 35","","Vejle Ø","7120","Danmark","75712128","metteped@hotmail.com","Mette Bækgaard","","Bjerreager 35","","Vejle Ø","7120","Danmark","2","1100","Dankort","NBC","0.00","","","","","","","1","121.25",
"2012-02-10 20:37:07","20062234","Karin Henrichsen","","Kettegård Alle 70, 4022","","Hvidovre","2650","Danmark","28342597","karin_henrichsen@hotmail.com","Rune Andersen","","Valkyriegade 24, 1 tv","","København N.","2200","Danmark","2","1100","Dankort","NBC","0.00","","","","","","","2","345.00",
"2012-02-10 21:01:07","20062235","Peer Flyvholm","","Nørremarksvej 16","","Viborg","8800","Danmark","28148452","pflyvholm@hotmail.com","Peer Flyvholm","","Nørremarksvej 16","","Viborg","8800","Danmark","2","1100","Dankort","NBC","40.00","","","","","","","3","271.25",
"2012-02-10 21:20:18","20062236","Ann Calov","","Karlskov Bakke 3","","Stenløse","3660","Danmark","20658945","calov@webspeed.dk","Ann Calov","","Karlskov Bakke 3","","Stenløse","3660","Danmark","2","1100","Dankort","NBC","40.00","","","","","","","2","537.50",
"2012-02-10 23:25:04","20062237","Mohammad Hayatleh","","Vermundsgade","","København Ø","2100","Danmark","42337753","mohammed_hayatleh@hotmail.com","","","","","","","","2","1100","Dankort","NBC","0.00","","","","","","","3","378.75",
"2012-02-11 00:20:46","20062238","Tobias Aamund Vinther","","Havdrupvej 139","","Vanløse","2720","Danmark","31615644","tobias@aamundvinther.com","","","","","","","","2","1100","Dankort","NBC","0.00","","","","","","","1","250.00",
"2012-02-11 00:36:32","20062239","Elisa Krüger","Søndersøskolen","Kirke Værløsevej 50","","Værløse","3500","Danmark","72108900","elisa.kruger@skolekom.dk","","","","","","","","2","14077","Netto14","NBC","0.00","att. Elisa","","5798008526596","","","","1","62.50",
"2012-02-11 02:24:06","20062240","Jens Jørn Thomsen","","Parkvej 4","Vilsund","Thisted","7700","Danmark","97931634","jensjrn@post5.tele.dk","Jens Jørn Thomsen","","Parkvej 4","Vilsund","Thisted","7700","Danmark","2","1100","Dankort","NBC","40.00","","","","","","","1","292.50",
"2012-02-11 08:37:45","20062241","Rikke Kristiansen","","Nyvej 17","","Ry","8680","Danmark","28931787","peterogrikke@adr.dk","Rikke Kristiansen","","Nyvej 17","","Ry","8680","Danmark","2","1100","Dankort","NBC","40.00","","","","","","","1","187.50",
"2012-02-11 09:09:06","20062242","Erik Moseholm","","Stenosgade 12","","Odense M","5230","Danmark","66135740","erikmoseholm@hunderupnet.dk","Erik Moseholm","","Stenosgade 12","","Odense M","5230","Danmark","2","1100","Dankort","NBC","0.00","","","","","","","1","121.25",
"2012-02-11 09:24:33","20062243","Hanne C. Frost","","Svanekevej 7","","Rønne","3700","Danmark","33138183","hc@bornholm-gym.dk","Hanne C. Frost","","Svanekevej 7","","Rønne","3700","Danmark","2","1100","Dankort","NBC","0.00","","","","","","","2","213.75",
"2012-02-11 09:38:38","20062244","Grethe Sandholm","Pædagogik, idræt og kompetence","Kildegården 6 st.tv.","","Århus C","8000","Danmark","28967667","gsa@viauc.dk","Grethe Sandholm","","Peter Sabroes Gade 14","","Århus","8000C","Danmark","2","1100","Dankort","NBC","40.00","","","","","","","1","215.75",
"2012-02-11 09:39:27","20062245","Jesper Christiansen","EUC Nordvestsjælland","J. Hagemann-Petersens alle 22","","Kalundborg","4400","Danmark","59576350","jch@eucnvs.dk","Jesper Christiansen","EUC Nordvestsjælland","J. Hagemann-Petersens alle 22","","Kalundborg","4400","Danmark","2","1400","Netto14","NBC","0.00","","","5798000553613","","Jesper Christiansen","","1","275.00",
"2012-02-11 09:42:23","20062246","Niels Jørgensen","","Illerupvej 71, st.th.","","Århus N","8200","Danmark","86217887","niels_bj@yahoo.dk","Niels Jørgensen","","Illerupvej 71, st.th.","","Århus N","8200","Danmark","2","1100","Dankort","NBC","0.00","","","","","","","1","121.25",
"2012-02-11 09:44:21","20062247","Peter Holst","","Anna Queens Stræde 4a","","Helsingør","3000","Danmark","28577715","ph@eg-gym.dk","Peter Holst","","Anna Queens Stræde 4a","","Helsingør","3000","Danmark","2","1100","Dankort","NBC","40.00","","","","","","","1","222.50",
"2012-02-11 09:59:44","20062248","niels rossing","","bondehavevej 101, st.","","bagsværd","2880","Danmark","26188502","niels.rossing@skolekom.dk","niels rossing","","bondehavevej 101, st.","","bagsværd","2880","Danmark","2","1100","Dankort","NBC","40.00","","","","","","","1","487.50",
"2012-02-11 10:07:33","20062249","Bente Thomsen","","Roret 227","","Snekkersten","3070","Danmark","47940707","bt@ankeret.dk","Bente Thomsen","","Roret 227","","Snekkersten","3070","Danmark","2","1100","Dankort","NBC","0.00","","","","","","","1","121.25",
"2012-02-11 10:26:52","20062250","Anne Lindegaard","Holstebro Gymnasium og HF","Døesvej 64","","Holstebro","7500","Danmark","97429720","AL@hogym.dk","Anne Lindegaard","Holstebro Gymnasium og HF","Døesvej 64","","Holstebro","7500","Danmark","2","1400","Netto14","NBC","0.00","","","","","","","2","213.75",
"2012-02-11 10:29:57","20062251","Britta Boisen","","Alkenvej 50","","Skanderborg","8660","Danmark","86577161","bb@skanderborg-gym.dk","Britta Boisen","","Alkenvej 50","","Skanderborg","8660","Danmark","2","1100","Dankort","NBC","0.00","","","","","","","2","213.75",
"2012-02-11 10:49:32","20062253","Jens Christian Jensen","","Banegårdsvej 31 M 2. sal","","Grindsted","7200","Danmark","30949470","jj@ggnet.dk","Jens Christian Jensen","","Banegårdsvej 31 M 2. sal","","Grindsted","7200","Danmark","2","1100","Dankort","NBC","40.00","","","","","","","3","405.00",
"2012-02-11 11:20:00","20062254","Trine Nielsen","","Langgade 30, Lund","","Horsens","8700","Danmark","60293092","trine.n.nielsen.lund@gmail.com","","","","","","","","2","1100","Dankort","NBC","0.00","","","","","","","1","85.94",
"2012-02-11 11:42:25","20062255","Birgit Poulsen","","Grundtvigs Allé 125","","Sønderborg","6400","Danmark","74422345","bp@ags.dk","Birgit Poulsen","","Grundtvigs Allé 125","","Sønderborg","6400","Danmark","2","1100","Dankort","NBC","0.00","","","","","","","2","213.75",
"2012-02-11 11:53:50","20062256","Hanne Sørensen","Søndersøskolen","Nordmarksvej 1","","Søndersø","5471","Danmark","24488801","hannecille@hotmail.com","","","","","","","","2","1400","Netto14","NBC","0.00","","","5790001118440","","Hanne Sørensen","Dansk","1","62.50",
"2012-02-11 12:24:33","20062257","Janne Risum","","Odensegade 42 4 tv","","Aarhus","8000","Danmark","86199610","drajr@hum.au.dk","","","","","","","","2","1100","Dankort","NBC","0.00","","","","","","","1","250.00",
"2012-02-11 13:54:16","20062258","Elo Bargholz","Frederikshavn Handelsskole","Kirkegade 9","","Frederikshavn","9900","Danmark","96 20 55 00","elo@bargholz.nu","","","","","","","","2","1100","Dankort","NBC","0.00","","","5798000554320","","","","2","132.50",
"2012-02-11 14:11:38","20062259","Rasmus Larsen","","Simonsvej 1","","Nakskov","4900","Danmark","21203866","fs04a46@hotmail.com","Rasmus Larsen","","Simonsvej 1","","Nakskov","4900","Danmark","2","1100","Dankort","NBC","40.00","","","","","","","1","362.50",
"2012-02-11 14:12:03","20062260","Aksel Zoffmann","Tietgenskolen","Lerchesgade","","odense C","5000","Danmark","29676648","akzo@tietgen.dk","","","","","","","","2","1400","Netto14","NBC","0.00","","","","","","","1","180.00",
"2012-02-11 14:16:51","20062261","bente bisgaard","","sneppevei 39","","herning","7400","Danmark","29441461","bentebi@tdcadsl.dk","bente bisgaard","","sneppevei 39","","herning","7400","Danmark","2","1100","Dankort","NBC","40.00","","","","","","","1","362.50",
"2012-02-11 14:41:22","20062262","Søren Løvenlund","","Herluf Trolles Gade 25,4.th.","","København K","1052","Danmark","40609000","mail@lovenlund.dk","","","","","","","","2","1100","Dankort","NBC","0.00","","","","","","","1","292.50",
"2012-02-11 14:55:29","20062263","Karina Nielsen","","Vindegade 36 st. tv.","","Odense C","5000","Danmark","26955905","karinanielsen_2@hotmail.com","Karina Nielsen","","Vindegade 36 st. tv.","","Odense C","5000","Danmark","2","1100","Dankort","NBC","40.00","","","","","","","1","550.00",
"2012-02-11 14:56:12","20062264","Anna Halgaard Kristensen","Faaborg Gymnasium","Hans Tausens Gade 9, st. th.","","Odense","5000","Danmark","65914844","annahalgaard@gmail.com","Anna Halgaard Kristensen","Faaborg Gymnasium","Hans Tausens Gade 9, st. th.","","Odense","5000","Danmark","2","1100","Dankort","NBC","0.00","","","","","","","1","121.25",
"2012-02-11 15:44:50","20062265","Anna-Lise Bjerre","Vejen Gymnasium og HF","Petersmindevej 3","","Vejen","6600","Danmark","75 36 32 77","annalisebjerre@hotmail.com","Anna-Lise Bjerre","Vejen Gymnasium og HF","Petersmindevej 3","","Vejen","6600","Danmark","2","10118","Netto14","NBC","0.00","","","5798000558359","","","","1","92.50",
"2012-02-11 16:14:49","20062266","Ivan Rasmussen","","Ebberupvej 92","","Ebberup","5631","Danmark","60161954","i.r@dadlnet.dk","","","","","","","","2","1100","Dankort","NBC","0.00","","","","","","","1","28.13",
"2012-02-11 16:26:34","20062267","Henrik Mærkedahl","","Finsensgade 65, 4th","","Århus N","8200","Danmark","53665396","henrikmaerkedahl@gmail.com","","","","","","","","2","1100","Dankort","NBC","0.00","","","","","","","1","100.00",
"2012-02-11 16:29:48","20062268","Ammy Caprani","","Vistorpvej 3","","Haderup","7540","Danmark","97143155","acjrr@mail.tele.dk","Ammy Caprani","","Vistorpvej 3","","Haderup","7540","Danmark","2","1100","Dankort","NBC","40.00","","","","","","","1","425.00",
"2012-02-11 16:31:51","20062269","Henrik Mærkedahl","","Finsensgade 65, 4th","","Århus N","8200","Danmark","53665396","henrikmaerkedahl@gmail.com","","","","","","","","2","1100","Dankort","NBC","0.00","","","","","","","1","87.50",
"2012-02-11 18:22:38","20062270","Ivan Rasmussen","","Ebberupvej 92","","Ebberup","5631","Danmark","60161954","i.r@dadlnet.dk","","","","","","","","2","1100","Dankort","NBC","0.00","","","","","","","3","118.13",
"2012-02-11 18:40:51","20062271","Ivan Rasmussen","","Ebberupvej 92","","Ebberup","5631","Danmark","60161954","i.r@dadlnet.dk","","","","","","","","2","1100","Dankort","NBC","0.00","","","","","","","1","15.00",
"2012-02-11 19:57:36","20062272","Tanja Haugaard","","Hvidkildevej 54B, 1. tv.","","København NV","2400","Danmark","50286260","tanja.h76@mailcity.com","Tanja Haugaard","","Hvidkildevej 54B, 1. tv.","","København NV","2400","Danmark","2","1100","Dankort","NBC","40.00","","","","","","","3","405.00",
"2012-02-11 20:04:49","20062273","Gitte Jensen","","Tordenskjoldsgade 1, 3.tv.","","Aarhus N","8200","Danmark","40784772","gittetrunde@hotmail.com","Gitte Jensen","","Tordenskjoldsgade 1, 3.tv.","","Aarhus N","8200","Danmark","2","1100","Dankort","NBC","40.00","","","","","","","1","215.75",
"2012-02-11 20:49:17","20062274","Martin Wille","Espergærde Gymnasium og HF","Gymnasievej 2","","Espergærde","3060","Danmark","49 13 42 22","mw@eg-gym.dk","Martin Wille","Espergærde Gymnasium og HF","Gymnasievej 2","","Espergærde","3060","Danmark","2","10018","Netto14","NBC","0.00","","","5798000557253","","","","1","987.50",
"2012-02-11 20:51:50","20062275","Werner Baudy","","Værumvej 25","","Hadsten","8370","Danmark","60495806","navr@live.dk","","","","","","","","2","1100","Dankort","NBC","0.00","","","","","","","1","100.00",
"2012-02-11 22:00:26","20062276","Lene Lauridsen","","Lerbækvej 10","","Risskov","8240","Danmark","86178201","lerbaekvej10@webspeed.dk","Lene Lauridsen","Danisco A/S","Edwin Rahrsvej 38","","Brabrand","8220","Danmark","2","1100","Dankort","NBC","40.00","","","","","","","4","430.00",
"2012-02-12 10:38:21","20062277","Merete Møller Olesen","Borupgaard Gymnasium","Lautruphøj 9","","Ballerup","2750","Danmark","44 65 66 22","mo@boag.nu","Merete Møller Olesen","Borupgaard Gymnasium","Lautruphøj 9","","Ballerup","2750","Danmark","2","10008","Netto14","NBC","0.00","","","5798000557185","","","","1","3150.00",
"2012-02-12 10:59:04","20062279","Janne Vadgaard Bækgård","","Jyllandsgade 120 A, 2. sal","","Esbjerg","6700","Danmark","23865699","nanna.vp@hotmail.com","Janne Vadgaard Bækgård","","Golfvej 32","","Esbjerg","6715","Danmark","2","1100","Dankort","NBC","40.00","","","","","","","1","250.00",
"2012-02-12 11:13:00","20062280","julie Russell Rasmussen","","Maj Alle 115","","Herlev","2730","Danmark","29105774","julierussell777@gmail.com","julie Russell Rasmussen","","Maj Alle 115","","Herlev","2730","Danmark","2","1100","Dankort","NBC","40.00","","","","","","","1","487.50",
"2012-02-12 12:13:45","20062281","Malene Hedegaard","","Grenågade 11, 4. th","","København Ø","2100","Danmark","23620752","malenehede@hotmail.com","Malene Hedegaard","","Grenågade 11, 4. th","","København Ø","2100","Danmark","2","1100","Dankort","NBC","40.00","","","","","","","1","86.25",
"2012-02-12 12:19:57","20062282","Claus Jungersen","Rønde Gymnasium","Kr. Herskindsvej 6","","Rønde","8410","Danmark","86 37 19 77","cj@roende-gym.dk","Claus Jungersen","Rønde Gymnasium","Kr. Herskindsvej 6","","Rønde","8410","Danmark","2","10096","Netto14","NBC","0.00","","","5798000560840","","","","2","1042.50",
"2012-02-12 12:31:10","20062283","Tine Tønnes Sørensen","Høng Gymnasium, HF-Kursus og Efterskole","Hovedgaden 2","","Høng","4270","Danmark","58 85 26 36","tine.ts@lycos.com","Tine Tønnes Sørensen","Høng Gymnasium, HF-Kursus og Efterskole","Hovedgaden 2","","Høng","4270","Danmark","2","10050","Netto14","NBC","0.00","","","5798000556591","","","","1","92.50",
"2012-02-12 12:58:04","20062284","Alice Beck Christensen","","Mispelvej 54","","Aalborg","9000","Danmark","20617401","alc@vucnordjylland.dk","Alice Beck Christensen","","Mispelvej 54","","Aalborg","9000","Danmark","2","1100","Dankort","NBC","40.00","","","","","","","2","381.25",
"2012-02-12 13:02:09","20062285","Kenni Olsen","","Mølleparkvej 1","","Aalborg","9000","Danmark","99999999","kensingzm@gmail.com","","","","","","","","2","1100","Dankort","NBC","0.00","","","","","","","1","46.88",
"2012-02-12 13:54:12","20062286","Julie Poulsen","","Skejby Vænge 82 1.b","","Aarhus N","8200","Danmark","22291889","julie_poulsen90@hotmail.com","","","","","","","","2","1100","Dankort","NBC","0.00","","","","","","","1","37.50",
"2012-02-12 14:25:59","20062287","Jørgen Lolle","","Katholmvej 11","","Grenaa","8500","Danmark","26434658","jl@grenaa-gym.dk","","","","","","","","2","1100","Dankort","NBC","0.00","","","","","","","2","218.76",
"2012-02-12 14:37:23","20062288","Cecilie Juulsgaard","","Kidingvej 6, 1.sal","","Aabenraa","6200","Danmark","22149032","ceciliejuulsgaard@gmail.com","","","","","","","","2","1100","Dankort","NBC","0.00","","","","","","","1","90.00",
"2012-02-12 15:00:07","20062289","anita larsen","","norgesvej 5","","høng","4270","Danmark","28800799","larsenanita@hotmail.com","anita larsen","","norgesvej 5","","høng","4270","Danmark","2","1100","Dankort","NBC","40.00","","","","","","","2","500.00",
"2012-02-12 15:04:09","20062290","karsten holst","","petersborgvej 2, 4.th.","","Kbh Ø","2100","Danmark","26181054","karsten.holst@gmail.com","karsten holst","","petersborgvej 2, 4.th.","","Kbh Ø","2100","Danmark","2","1100","Dankort","NBC","40.00","","","","","","","2","537.50",
"2012-02-12 15:47:36","20062291","josefine gosvig","","vestre havnepromenade 1 C, 3 tv.","","Aalborg","9000","Danmark","28897542","josefinegosvig@hotmail.com","","","","","","","","2","1100","Dankort","NBC","0.00","","","","","","","1","43.13",
"2012-02-12 15:53:41","20062292","Beth Helle Lauridsen","Varde Gymnasium og HF","Frisvadvej 72","","Varde","6800","Danmark","75 22 16 11","beth@lauridsen.mail.dk","Beth Helle Lauridsen","Varde Gymnasium og HF","Frisvadvej 72","","Varde","6800","Danmark","2","10117","Netto14","NBC","0.00","","","5798000558342","","","","1","121.25",
"2012-02-12 15:58:29","20062293","Torben Wulff","Århus Statsgymnasium og HF","Fenrisvej 33","","Århus V","8210","Danmark","86 15 89 55","TW@aasg.dk","Torben Wulff","Århus Statsgymnasium og HF","Fenrisvej 33","","Århus V","8210","Danmark","2","10135","Netto14","NBC","0.00","","","5798000558793","","","","1","485.00",
"2012-02-12 16:14:00","20062294","Preben Saugstrup","","Memlingdreef 13","","Overijse","3090","Belgien","026872122","kristina.saugstrup@hotmail.com","","","","","","","","2","1100","Dankort","NBC","0.00","","","","","","","1","84.38",
"2012-02-12 16:15:37","20062295","Charlotte Sigvardt","","Danmarksgade 67,1","","Aalborg","9000","Danmark","27281884","charlottebust@gmail.com","","","","","","","","2","1100","Dankort","NBC","0.00","","","","","","","1","37.50",
"2012-02-12 16:29:58","20062296","Kevin Rossel","","Aksel nielsensvej 6","","stouby","7140","Danmark","24872211","pro@europark.dk","","","","","","","","2","1100","Dankort","NBC","0.00","","","","","","","1","112.50",
"2012-02-12 16:53:42","20062297","Jørgen Moth","","Østre Strandvej 9","","Gilleleje","3250","Danmark","48301091","jorgen.moth@uni-c.dk","","","","","","","","2","1100","Dankort","NBC","0.00","","","","","","","1","62.50",
"2012-02-12 17:00:15","20062298","Dorthe Hansen","","Thorupgård Allé 9, 1. tv","","Vanløse","2720","Danmark","30286540","vanloese@hotmail.com","Dorthe Hansen","Ad Hoc Translatørservice","Store Kongensgade 81C","","København K","1264","Danmark","2","1100","Dankort","NBC","40.00","","","","","","","1","200.00",
"2012-02-12 17:07:23","20062299","Anne-Sofie Berg","","Studiestræde 9 - 4.","","København K","1455","Danmark","60130075","annesofieberg@hotmail.com","Anne-Sofie Berg","","Studiestræde 9 - 4.","","København K","1455","Danmark","2","1100","Dankort","NBC","40.00","","","","","","","2","527.50",
"2012-02-12 17:42:39","20062301","ann jensen","","vangen 73","","nørresundby","9400","Danmark","98 17 09 91","abj@vucnordjylland.dk","","","","","","","","2","1100","Dankort","NBC","0.00","","","","","","","1","101.25",
"2012-02-12 18:13:29","20062302","Lone Søholm","","Sundagervej 42","","Faaborg","5600","Danmark","62618910","Lone.soeholm@skolekom.dk","Lone Søholm","","Sundagervej 42","","Faaborg","5600","Danmark","2","1400","Netto14","NBC","0.00","","","","","","","2","456.25",
"2012-02-12 18:55:31","20062303","Jessica Pihl","","Greve alle 62","","Hvidovre","2650","Danmark","20780272","jessicapihl@hotmail.com","","","","","","","","2","1100","Dankort","NBC","0.00","","","","","","","1","40.63",
"2012-02-12 19:11:30","20062304","Jesper Vad Esbech","","Juelsparken 22, 2. th","","Aalborg SØ","9210","Danmark","23483246","jespervad89@gmail.com","","","","","","","","2","1100","Dankort","NBC","0.00","","","","","","","1","43.13",
"2012-02-12 19:18:52","20062305","Dorthe Klitgaard Thomsen","","Poppelvej 11","","Aalborg","9000","Danmark","20675066","dorthekthomsen@hotmail.com","","","","","","","","2","1100","Dankort","NBC","0.00","","","","","","","1","43.13",
"2012-02-12 19:18:57","20062306","Michael Larsen","","Skjalm Hvidesgade 5 st.tv","","København V","1728","Danmark","23236719","mxl1967@gmail.com","","","","","","","","2","1100","Dankort","NBC","0.00","","","","","","","2","146.25",
"2012-02-12 20:26:08","20062307","Cecilie Sørensen","","Jernbanegade 18","1. th.","Aalborg","9000","Danmark","21706778","mizz_cille8@hotmail.com","","","","","","","","2","1100","Dankort","NBC","0.00","","","","","","","1","43.13",
"2012-02-12 20:31:35","20062308","Line Bork Nielsen","","Lindegården 53","","Nørresundby","9400","Danmark","30594861","borkii91@hotmail.com","","","","","","","","2","1100","Dankort","NBC","0.00","","","","","","","1","43.13",
"2012-02-12 20:37:24","20062309","anne ulstrup","","viaduktvej 1b 1th","","nørresundby","9400","Danmark","24222534","Anneulstrup@gmail.com","","","","","","","","2","1100","Dankort","NBC","0.00","","","","","","","1","43.13",
"2012-02-12 20:40:28","20062310","Carina Seyfert","","Rughaven 31, 3. tv","","Aalborg","9000","Danmark","21233287","carinsas@gmail.com","","","","","","","","2","1100","Dankort","NBC","0.00","","","","","","","1","180.00",
"2012-02-12 20:59:06","20062311","jacob Thamdrup Jensen","","vejlands allé 10","","Kbh S","2300","Danmark","30286082","jacob.thamdrup@gmail.com","jacob Thamdrup Jensen","","vejlands allé 10","","Kbh S","2300","Danmark","2","1100","Dankort","NBC","40.00","","","","","","","1","362.50",
"2012-02-12 22:10:14","20062312","Jacob Bjerglund Graff","","Frisersvej 22A, 2th","","Charlottenlund","2920","Danmark","24241408","jacobgraff@hotmail.com","Jacob Bjerglund Graff","","Frisersvej 22A, 2th","","Charlottenlund","2920","Danmark","2","1100","Dankort","NBC","40.00","","","","","","","2","675.00",
"2012-02-12 22:25:33","20062313","Lene Boye-Hansen","","Sjællandsgade 21, 2tv","","Ringsted","4100","Danmark","21224425","leneboye@c.dk","Lene Boye-Hansen","","Sjællandsgade 21, 2tv","","Ringsted","4100","Danmark","2","1100","Dankort","NBC","40.00","","","","","","","1","185.00",
"2012-02-12 22:43:07","20062314","Mette Guldager Eggert","","Brandsbjergvej 28","","Glostrup","2600","Danmark","28770756","metteeggert@hotmail.com","","","","","","","","2","1100","Dankort","NBC","0.00","","","","","","","1","125.00",
"2012-02-12 23:08:14","20062315","Per Runing","Frederiksberg Gymnasium","Falkoner Plads 2","","Frederiksberg C","2000","Danmark","38 21 04 00","perruning@gmail.com","Per Runing","Frederiksberg Gymnasium","Falkoner Plads 2","","Frederiksberg C","2000","Danmark","2","10022","Netto14","NBC","0.00","","","5798000557291","","","","1","121.25",
"2012-02-13 06:25:21","20062316","Birthe Bang","Frederikshavn Handelsskole","Kirkegade 9","","Frederikshavn","9900","Danmark","96205500","bb@fhavnhs.dk","","","","","","","","2","1400","Netto14","NBC","0.00","","","","","","","3","363.76",
"2012-02-13 07:09:13","20062317","Ulrik Schouw Larsen","","Nyrnberggade 20, 4. tv","","København S","2300","Danmark","40796326","amagerolle@hotmail.com","","","","","","","","2","1100","Dankort","NBC","0.00","","","","","","","2","175.00",
"2012-02-13 08:18:52","20062318","jørgen jørgensen","","Nyrøjsvej 12","","Nordborg","6430","Danmark","27903706","jorgen.jorgensen@statsskolen.dk","jørgen jørgensen","","Nyrøjsvej 12","","Nordborg","6430","Danmark","2","1100","Dankort","NBC","40.00","","","","","","","1","235.00",
"2012-02-13 08:22:56","20062319","Mitchie Byager","","Svendborgvej 93,1","","Næstved","4700","Danmark","31790125","m.byager@live.dk","","","","","","","","2","1100","Dankort","NBC","0.00","","","","","","","1","62.50",
"2012-02-13 08:39:35","20062320","Jens Damsgaard","","Potentilvej 21","Kraghave","Taastrup","2630","Danmark","43991341","birthejens@mail.dk","","","","","","","","2","1100","Dankort","NBC","0.00","","","","","","","1","187.50",
"2012-02-13 08:41:01","20062321","Camilla Johansen","","Th. hoffmannsvej 8, st. th.","","Skørping","9520","Danmark","20622726","camillag.johansen@gmail.com","","","","","","","","2","1100","Dankort","NBC","0.00","","","","","","","1","37.50",
"2012-02-13 08:47:10","20062322","Hans Meinert","Handelsskolen København Nord","Trollesmindeallé 24","","Hillerød","3400","Danmark","8852 6541","hame@knord.dk","Hans Meinert","Handelsskolen København Nord","Trollesmindeallé 24","","Hillerød","3400","Danmark","2","10211","Netto14","NBC","0.00","","","5798000553514","","","","1","121.25",
"2012-02-13 08:57:06","20062323","Jens Pietras","","Møllebakken 3","","Holbæk","4300","Danmark","59-435954","jens@clioonline.dk","Jens Pietras","","Møllebakken 3","","Holbæk","4300","Danmark","2","1100","Dankort","NBC","40.00","","","","","","","1","235.00",
"2012-02-13 09:03:31","20062324","Gitte Ulstrup","","Møgelparken 104","","Viborg","8800","Danmark","61707540","gu@vghf.dk","Gitte Ulstrup","","Møgelparken 104","","Viborg","8800","Danmark","2","1100","Dankort","NBC","40.00","","","","","","","3","312.50",
"2012-02-13 09:19:11","20062325","Flemming Bolding","Odense Katedralskole og HF","Jernbanegade 34","","Odense C","5000","Danmark","6612 2240","flemming.bolding@skolekom.dk","","","","","","","","2","10082","Netto14","NBC","0.00","","","5798000557833","","","","1","625.00",
"2012-02-13 09:21:04","20062326","Rebecca Fischer","","Vellingshøjvej 11","","Hjørring","9800","Danmark","25534431","rf@fjerritslev-gym.dk","","","","","","","","2","1400","Netto14","NBC","0.00","","","","","RF","","1","195.00",
"2012-02-13 09:46:48","20062327","Karen Pedersen","","Nr Tranders Vej 4","","Aalborg","9000","Danmark","29847487","kp@aalkat-gym.dk","Karen Pedersen","","Nr Tranders Vej 4","","Aalborg","9000","Danmark","2","1400","Netto14","NBC","0.00","","","","","","","1","112.50",
"2012-02-13 09:55:47","20062329","Gitte Sørensen","","Læsøgade 8, 3 th","","aalborg","9000","Danmark","23922431","gitte_viktoria@hotmail.com","","","","","","","","2","1100","Dankort","NBC","0.00","","","","","","","1","37.50",
"2012-02-13 09:58:39","20062330","Nadja Lasborg","Aalborg Universitet","montanagade 42","","Århus C","8000","Danmark","20161791","nadlasborg@hotmail.com","","","","","","","","2","1100","Dankort","NBC","0.00","","","","","","","1","37.50",
"2012-02-13 10:00:00","20062331","Mikkel Rosbjerg","","vejlevej 45","","NR Snede","8766","Danmark","75770912","mr@globalexport.dk","","","","","","","","2","1100","Dankort","NBC","0.00","","","","","","","1","317.50",
"2012-02-13 10:02:05","20062332","Daniel Olsson","","Lindholmsvej 50","","Nørresundby","9400","Danmark","50933899","daniel_malicay@hotmail.com","","","","","","","","2","1100","Dankort","NBC","0.00","","","","","","","1","37.50",
"2012-02-13 10:02:50","20062333","Frank Rasmussen","Mallinggaard SFO","Grønnedalsvej 10","","Skanderborg","8660","Danmark","87942511","frank.rasmussen@skanderborg.dk","Frank Rasmussen","Mallinggaard SFO","Grønnedalsvej 10","","Skanderborg","8660","Danmark","2","1400","Netto14","NBC","0.00","","","5798005720683","","","","1","165.75",
"2012-02-13 10:04:07","20062334","Mikkel Rosbjerg","","vejlevej 45","","NR Snede","8766","Danmark","75770912","mr@globalexport.dk","","","","","","","","2","1100","Dankort","NBC","0.00","","","","","","","1","317.50",
"2012-02-13 10:07:10","20062335","Jonas Braun","","Røddinggade 8","","København","1735","Danmark","30445199","post@herrbrauni.de","Jonas Braun","","Røddinggade 8","","København","1735","Danmark","2","1100","Dankort","NBC","40.00","","","","","","","2","675.00",
"2012-02-13 10:09:33","20062336","Camilla Holm","","Gravensgade 10, 3. tv.","","Aalborg","9000","Danmark","28609787","scsh87@hotmail.com","","","","","","","","2","1100","Dankort","NBC","0.00","","","","","","","1","37.50",
"2012-02-13 10:11:21","20062337","Lotte Andreasen","","Toldbodgade 31 1 TH","","Aalborg","9000","Danmark","60502224","lotteandreasen@hotmail.com","","","","","","","","2","1100","Dankort","NBC","0.00","","","","","","","1","37.50",
"2012-02-13 10:12:03","20062338","Julie Nygaard","","Strandvejen 13A, 2. tv.","","Aalborg","9000","Danmark","26429726","nygaardjulie88@gmail.com","","","","","","","","2","1100","Dankort","NBC","0.00","","","","","","","1","37.50",
"2012-02-13 10:12:53","20062339","Rebekka Bach Dam","","Vestergade 81 st","","Nørresundby","9400","Danmark","42203884","rebekkabd@gmail.com","","","","","","","","2","1100","Dankort","NBC","0.00","","","","","","","1","37.50",
"2012-02-13 10:12:53","20062340","kirstine louise theil nielsen","","hasserisgade 8 værelse 43","","aalborg","9000","Danmark","28511501","kirstinelouise91@gmail.com","","","","","","","","2","1100","Dankort","NBC","0.00","","","","","","","1","37.50",
"2012-02-13 10:16:57","20062341","Julie Nygaard","","Strandvejen 13A, 2. tv.","","Aalborg","9000","Danmark","26429726","nygaardjulie88@gmail.com","","","","","","","","2","1100","Dankort","NBC","0.00","","","","","","","1","37.50",
"2012-02-13 10:19:15","20062342","sussie jessen","","nielsebbesensgade 25a, 2 th","","aalborg","9000","Danmark","27246345","susjessen88@hotmail.com","","","","","","","","2","1100","Dankort","NBC","0.00","","","","","","","1","37.50",
"2012-02-13 10:22:32","20062343","Julie Nygaard","","Strandvejen 13A, 2. tv.","","Aalborg","9000","Danmark","26429726","nygaardjulie88@gmail.com","","","","","","","","2","1100","Dankort","NBC","0.00","","","","","","","1","37.50",
"2012-02-13 10:24:12","20062344","Rasmus Sørensen","","Augustenborggade 17, 3. mf.","","Aarhus c","8000","Danmark","40514570","aars@aarhusakademi.dk","Rasmus Sørensen","","Augustenborggade 17, 3. mf.","","Aarhus c","8000","Danmark","2","1100","Dankort","NBC","40.00","","","","","","","13","2703.75",
"2012-02-13 10:27:55","20062345","Kjeld Hansen","","Biskop Svanes Vej 12","","Birkerød","3460","Danmark","45818367 / 50721040","kjeld.hansen@skolekom.dk","Kjeld Hansen","","Biskop Svanes Vej 12","","Birkerød","3460","Danmark","2","1100","Dankort","NBC","40.00","","","","","","","1","250.00",
"2012-02-13 10:29:23","20062346","Jens Peder Pedersen","Aalborg Katedralskole","Sct. Jørgens Gade 5","","Aalborg","9100","Danmark","9631 3770","jpp@aalkat-gym.dk","Jens Peder Pedersen","Aalborg Katedralskole","Sct. Jørgens Gade 5","","Aalborg","9100","Danmark","2","10132","Netto14","NBC","0.00","","","5798000558755","","","","1","1600.00",
"2012-02-13 10:34:01","20062347","Anna Fenger-Grøn","Københavns Tekniske Gymnasium - Sukkertoppen","Carl Jacobsens Vej 25","","Valby","2500","Danmark","20608919","afgr@kts.dk","Anna Fenger-Grøn","Københavns Tekniske Gymnasium - Sukkertoppen","Carl Jacobsens Vej 25","","Valby","2500","Danmark","2","110336","Netto14","NBC","0.00","","","5798000553446","","Desiré Christoffersen/Anna Fenger-Grøn","","1","375.00",
"2012-02-13 10:36:13","20062348","Simon Friis Hansen","","Brandevej 2a, 10","","Aalborg Ø","9220","Danmark","27620473","simonfriis@gmail.com","","","","","","","","2","1100","Dankort","NBC","0.00","","","","","","","1","37.50",
"2012-02-13 10:40:31","20062349","Henrik Günther","","Vejløvej 85","","Næstved","4700","Danmark","60720119","hegu@me.com","Henrik Günther","","Vejløvej 85","","Næstved","4700","Danmark","2","1100","Dankort","NBC","40.00","","","","","","","1","487.50",
"2012-02-13 10:41:11","20062350","Sebastian Henriksen","Faaborg Gymnasium","Karlsbjergvej 9","","Broby","5672","Danmark","27153027","seba1830@hotmail.com","","","","","","","","2","1100","Dankort","NBC","0.00","","","","","","","1","68.75",
"2012-02-13 10:48:10","20062351","Jesper Larsen","","Kongelundsvej 490","","Kastrup","2770","Danmark","31388355","jesper.sheikh@gmail.com","Jesper Larsen","","Kongelundsvej 490","","Kastrup","2770","Danmark","2","1100","Dankort","NBC","40.00","","","","","","","2","610.00",
