"CreateDate","OrderNumber","LineNumber","ItemNumber","Quantity","Price","DiscountPercent",
"2012-02-14 12:09:28","20062424","1","9083345901","1.0000","276.0000","0.0000",
"2012-02-14 12:09:28","20062424","2","9083392301","1.0000","0.0000","0.0000",
