"CreateDate","OrderNumber","LineNumber","ItemNumber","Quantity","Price","DiscountPercent",
"2012-02-16 08:13:48","20062512","1","6161473402","1.0000","250.0000","0.0000",
"2012-02-16 08:13:48","20062512","2","6161170002","1.0000","350.0000","0.0000",
