"CreateDate","OrderNumber","LineNumber","ItemNumber","Quantity","Price","DiscountPercent",
"2012-02-16 13:06:22","20062533","1","6161329006","1.0000","300.0000","0.0000",
"2012-02-16 13:06:22","20062533","2","6161759803","1.0000","90.0000","0.0000",
