"CreateDate","OrderNumber","LineNumber","ItemNumber","Quantity","Price","DiscountPercent",
"2012-02-16 13:57:13","20062539","1","6162557101","1.0000","250.0000","0.0000",
"2012-02-16 13:57:13","20062539","2","6161395902","1.0000","210.0000","0.0000",
"2012-02-16 13:57:13","20062539","3","6162121803","1.0000","240.0000","0.0000",
"2012-02-16 13:57:13","20062539","4","6161313404","1.0000","230.0000","0.0000",
