"CreateDate","OrderNumber","LineNumber","ItemNumber","Quantity","Price","DiscountPercent",
"2012-02-17 08:31:58","20062561","1","6164865501","1.0000","230.0000","0.0000",
"2012-02-17 08:31:58","20062561","2","6162279201","1.0000","200.0000","0.0000",
