"CreateDate","OrderNumber","LineNumber","ItemNumber","Quantity","Price","DiscountPercent",
"2012-02-20 14:26:35","20062664","1","6163172501","1.0000","32.0000","0.0000",
"2012-02-20 14:26:35","20062664","2","6163173201","1.0000","40.0000","0.0000",
"2012-02-20 14:26:35","20062664","3","6163174901","1.0000","72.0000","0.0000",
"2012-02-20 14:26:35","20062664","4","6162810701","1.0000","96.0000","0.0000",
"2012-02-20 14:26:35","20062664","5","6163175601","1.0000","64.0000","0.0000",
"2012-02-20 14:26:35","20062664","6","6163176301","1.0000","72.0000","0.0000",
"2012-02-20 14:26:35","20062664","7","6163177001","1.0000","104.0000","0.0000",
"2012-02-20 14:26:35","20062664","8","6162811401","1.0000","128.0000","0.0000",
