"CreateDate","OrderNumber","LineNumber","ItemNumber","Quantity","Price","DiscountPercent",
"2012-02-20 15:25:25","20062668","1","6162419201","1.0000","90.0000","0.0000",
"2012-02-20 15:25:25","20062668","2","6161030503","1.0000","310.0000","0.0000",
"2012-02-20 15:25:25","20062668","3","6161259602","1.0000","120.0000","0.0000",
