"CreateDate","OrderNumber","LineNumber","ItemNumber","Quantity","Price","DiscountPercent",
"2012-02-21 08:22:19","20062704","1","6163542601","1.0000","52.0000","0.0000",
"2012-02-21 08:22:19","20062704","2","6163544001","1.0000","65.0000","0.0000",
"2012-02-21 08:22:19","20062704","3","6163545701","1.0000","117.0000","0.0000",
"2012-02-21 08:22:19","20062704","4","6163222701","1.0000","156.0000","0.0000",
"2012-02-21 08:22:19","20062704","5","6163546401","1.0000","104.0000","0.0000",
"2012-02-21 08:22:19","20062704","6","6163547101","1.0000","117.0000","0.0000",
"2012-02-21 08:22:19","20062704","7","6163548801","1.0000","169.0000","0.0000",
"2012-02-21 08:22:19","20062704","8","6163549501","1.0000","208.0000","0.0000",
