"CreateDate","OrderNumber","LineNumber","ItemNumber","Quantity","Price","DiscountPercent",
"2012-02-22 12:09:59","20062866","1","6162419201","1.0000","90.0000","0.0000",
"2012-02-22 12:09:59","20062866","2","6161759803","25.0000","90.0000","0.0000",
