"CreateDate","OrderNumber","LineNumber","ItemNumber","Quantity","Price","DiscountPercent",
"2012-02-22 19:42:18","20062913","1","6161552801","1.0000","50.0000","0.0000",
"2012-02-22 19:42:18","20062913","2","9083345901","1.0000","276.0000","0.0000",
"2012-02-22 19:42:18","20062913","3","9083392301","1.0000","0.0000","0.0000",
