"CreateDate","OrderNumber","LineNumber","ItemNumber","Quantity","Price","DiscountPercent",
"2012-02-23 10:03:41","20062949","1","6163806901","30.0000","48.0000","0.0000",
"2012-02-23 10:03:41","20062949","2","6163124401","5.0000","248.0000","0.0000",
