"CreateDate","OrderNumber","LineNumber","ItemNumber","Quantity","Price","DiscountPercent",
"2012-02-24 07:59:55","20063009","1","6163173201","4.0000","40.0000","0.0000",
"2012-02-24 07:59:55","20063009","2","6163294401","4.0000","60.0000","0.0000",
"2012-02-24 07:59:55","20063009","3","6163391001","4.0000","80.0000","0.0000",
"2012-02-24 07:59:55","20063009","4","6163385901","4.0000","55.0000","0.0000",
