"CreateDate","OrderNumber","LineNumber","ItemNumber","Quantity","Price","DiscountPercent",
"2012-02-24 12:46:24","20063051","1","6163786402","2.0000","110.0000","0.0000",
"2012-02-24 12:46:24","20063051","2","6161396703","1.0000","200.0000","0.0000",
"2012-02-24 12:46:24","20063051","3","6162664601","1.0000","180.0000","0.0000",
"2012-02-24 12:46:24","20063051","4","6162249502","1.0000","180.0000","0.0000",
