"CreateDate","OrderNumber","LineNumber","ItemNumber","Quantity","Price","DiscountPercent",
"2012-02-25 14:13:27","20063103","1","9083345901","1.0000","276.0000","0.0000",
"2012-02-25 14:13:27","20063103","2","9083392301","1.0000","0.0000","0.0000",
