"CreateDate","OrderNumber","LineNumber","ItemNumber","Quantity","Price","DiscountPercent",
"2012-02-26 10:37:13","20063125","1","6163566201","1.0000","174.0000","0.0000",
"2012-02-26 10:37:13","20063125","2","6164514201","1.0000","194.0000","0.0000",
"2012-02-26 10:37:13","20063125","3","6161270704","1.0000","150.0000","0.0000",
