"CreateDate","OrderNumber","LineNumber","ItemNumber","Quantity","Price","DiscountPercent",
"2012-02-26 10:20:36","20063122","1","6163748250","1.0000","74.0000","0.0000",
"2012-02-26 10:20:36","20063122","2","6164514250","1.0000","97.0000","0.0000",
"2012-02-26 10:20:36","20063122","3","6162374401","1.0000","160.0000","0.0000",
"2012-02-26 10:20:36","20063122","4","6163566201","1.0000","174.0000","0.0000",
"2012-02-26 10:20:36","20063122","5","6164237001","1.0000","172.0000","0.0000",
