"CreateDate","OrderNumber","LineNumber","ItemNumber","Quantity","Price","DiscountPercent",
"2012-02-27 10:51:05","20063221","1","6162278501","1.0000","208.0000","0.0000",
"2012-02-27 10:51:05","20063221","2","6162500701","1.0000","112.0000","0.0000",
