"CreateDate","OrderNumber","LineNumber","ItemNumber","Quantity","Price","DiscountPercent",
"2012-02-28 11:47:33","20063337","1","6161130105","5.0000","150.0000","0.0000",
"2012-02-28 11:47:33","20063337","2","6162720901","1.0000","250.0000","0.0000",
