"CreateDate","OrderNumber","LineNumber","ItemNumber","Quantity","Price","DiscountPercent",
"2012-02-28 12:49:15","20063348","1","6164258501","1.0000","37.0000","0.0000",
"2012-02-28 12:49:15","20063348","2","6163893901","1.0000","30.0000","0.0000",
