"CreateDate","OrderNumber","LineNumber","ItemNumber","Quantity","Price","DiscountPercent",
"2012-02-28 20:20:06","20063385","1","9083345901","1.0000","276.0000","0.0000",
"2012-02-28 20:20:06","20063385","2","9083392301","1.0000","0.0000","0.0000",
