"CreateDate","OrderNumber","LineNumber","ItemNumber","Quantity","Price","DiscountPercent",
"2012-02-28 20:58:04","20063390","1","6163120601","1.0000","200.0000","0.0000",
"2012-02-28 20:58:04","20063390","2","6163124401","1.0000","248.0000","0.0000",
"2012-02-28 20:58:04","20063390","3","6162364501","1.0000","10.0000","0.0000",
