"CreateDate","ESalesNumber","Name","Company","Address1","Address2","Address3","Zip","Country","Phone","Email","DeliveryName","DeliveryCompany","DeliveryAddress1","DeliveryAddress2","DeliveryAddress3","DeliveryZip","DeliveryCountry","Status","DebtorAccount","Payment","DelMode","Fee","Eordrenotat","VatNo","EanLokNr","IKO","OIOAttention","OIORequisNumber","Lines","GrandTotal",
"2012-02-28 15:37:03","20063368","Birgit Busk","","Degnestræde 10","","Greve","2670","Danmark","23475251","bb@mosedeskolen.dk","","","","","","","","2","1100","Dankort","NBC","0.00","","","","","","","1","187.50",
"2012-02-28 15:37:50","20063369","annette andersen","Nordvestsjællands HF og VUC","Slotshaven 5","","Holbæk","4300","Danmark","5948 0348","anbida@vip.cybercity.dk","","","","","","","","2","10964","Netto14","NBC","0.00","","","5798000558687","","annette andersen","e-learning","1","105.00",
"2012-02-28 15:39:42","20063370","tina busk andersen","","krogestykket 36","","herlev","2730","Danmark","27512966","tinabusk@yahoo.dk","tina busk andersen","","krogestykket 36","","herlev","2730","Danmark","2","1100","Dankort","NBC","0.00","","","","","","","1","56.25",
"2012-02-28 15:49:03","20063371","Anne-Vibeke van Komen","","Bistrupvej 119 st tv","","Birkerød","3460","Danmark","20655212","vvk@hillerod.dk","Anne-Vibeke van Komen","","Bistrupvej 119 st tv","","Birkerød","3460","Danmark","2","1100","Dankort","NBC","40.00","","","","","","","1","365.00",
"2012-02-28 15:55:32","20063372","Ole Stigel","","Rosenvej 23","","Risskov","8240","Danmark","60149414","olestigel@gmail.com","Ole Stigel","","Rosenvej 23","","Risskov","8240","Danmark","2","1100","Dankort","NBC","40.00","","","","","","","1","110.00",
"2012-02-28 16:04:31","20063373","gitte lauritzen","","vejlesøparken 23,1. th","","holte","2840","Danmark","45423646","tandlaege@gmail.com","gitte lauritzen","","vejlesøparken 23,1. th","","holte","2840","Danmark","2","1100","Dankort","NBC","40.00","","","","","","","1","287.50",
"2012-02-28 16:05:28","20063374","jette steensen","","mossøbrå 5","","skanderborg","8660","Danmark","86579219","je@vuckolding.dk","jette steensen","","mossøbrå 5","","skanderborg","8660","Danmark","2","1100","Dankort","NBC","0.00","","","","","","","1","56.25",
"2012-02-28 16:08:35","20063375","Martin Andersen","","Ved Kirken 9","","Odense NV","5210","Danmark","60483797","martinandersen@privat.dk","Martin Andersen","","Ved Kirken 9","","Odense NV","5210","Danmark","2","1100","Dankort","NBC","0.00","","","","","","","1","56.25",
"2012-02-28 16:58:01","20063376","Lene Dalgaard","","Horsensvej 20","","Hovedgård","8732","Danmark","30240823","lenedalgaard@stofanet.dk","Lene Dalgaard","","Horsensvej 20","","Hovedgård","8732","Danmark","2","1100","Dankort","NBC","0.00","","","","","","","1","56.25",
"2012-02-28 17:41:40","20063377","Christina Juhl","","Engen 42","","Kolding","6000","Danmark","28128739","jj.juhl@mail.tele.dk","Christina Juhl","","Engen 42","","Kolding","6000","Danmark","2","1100","Dankort","NBC","40.00","","","","","","","2","537.50",
"2012-02-28 18:18:27","20063378","Merete Højgaard","","Mølagervej 14","Foldby","Hinnerup","8382","Danmark","20720985","aamw@aarhusakademi.dk","Merete Højgaard","","Mølagervej 14","Foldby","Hinnerup","8382","Danmark","2","1100","Dankort","NBC","0.00","","","","","","","1","56.25",
"2012-02-28 18:19:41","20063379","trine opstrup","romanskhus","stokrosevej 27","","beder","8330","Danmark","76692800","romanskhus@romanskhus.dk","trine opstrup","romanskhus","stokrosevej 27","","beder","8330","Danmark","2","1100","Dankort","NBC","40.00","","","","","","","1","750.00",
"2012-02-28 18:47:49","20063380","Jørgen Andersen","","Kingosvej 44","","Kolding","6000","Danmark","53560334","familien@ryberg-andersen.dk","Jørgen Andersen","","Kingosvej 44","","Kolding","6000","Danmark","2","1100","Dankort","NBC","40.00","","","","","","","2","537.50",
"2012-02-28 19:10:07","20063381","Rikkeline Facius","","Helgenæsgade 15,4","","Aarhus","8000","Danmark","40445343","mail@rikkelinefacius.dk","","","","","","","","2","1100","Dankort","NBC","0.00","","","","","","","2","140.63",
"2012-02-28 19:26:40","20063382","Anette Hauge Nielsen","Munkensdam Gymnasium","Tøndervej 100","","Kolding","6000","Danmark","76603060","anette.nielsen@munkensdam.dk","Anette Hauge Nielsen","Munkensdam Gymnasium","Tøndervej 100","","Kolding","6000","Danmark","2","10070","Netto14","NBC","0.00","","","5798000556188","","","","1","3145.00",
"2012-02-28 19:33:20","20063383","Katrine Paludan-Müller","Egedal gymnasium og hf","Haraldsgade 78, 2.tv.","","København Ø","2100","Danmark","23807006","ginepigen@ofir.dk","Katrine Paludan-Müller","Egedal gymnasium og hf","Haraldsgade 78, 2.tv.","","København Ø","2100","Danmark","2","1400","Netto14","NBC","0.00","","","","","","","1","56.25",
"2012-02-28 20:17:17","20063384","Jacob Gadegaard","","Prins Haralds Allé 83","","Odense SV","5250","Danmark","61657534","jaga@tietgen.dk","","","","","","","","2","1100","Dankort","NBC","0.00","","","","","","","1","46.25",
"2012-02-28 20:20:06","20063385","lars wlazlo","","Istedgade 100, 4.tv","","København V","1650","Danmark","21270433","larswlazlo@gmail.com","lars wlazlo","","Istedgade 100, 4.tv","","København V","1650","Danmark","2","1100","Dankort","NBC","0.00","","","","","","","2","345.00",
"2012-02-28 20:25:42","20063386","Kirsten From","Sct. Knuds Gymnasium","Læssøegade 154","","Odense M","5230","Danmark","28976659","k.from@webspeed.dk","Kirsten From","Sct. Knuds Gymnasium","Læssøegade 154","","Odense M","5230","Danmark","2","1100","Dankort","NBC","0.00","","","","","","","1","56.25",
"2012-02-28 20:34:49","20063387","Ulrik Hofman Bøegh","Fredericia Gymnasium","Nørrebrogade 88","","Fredericia","7000","Danmark","75 92 06 88","boe@fredericia-gym.dk","Ulrik Hofman Bøegh","Fredericia Gymnasium","Nørrebrogade 88","","Fredericia","7000","Danmark","2","10021","Netto14","NBC","0.00","","","5798000556140","","BØ dansk","","2","1987.50",
"2012-02-28 20:53:39","20063388","Sólvá Hjaltalin Olsen","","sleipnisgøta 16","","Tórshavn","100","Danmark","279496","spurkyo@hotmail.com","","","","","","","","2","1100","Dankort","NBC","0.00","","","","","","","1","90.00",
"2012-02-28 20:55:20","20063389","Elisabeth Reumert","Roskilde Gymnasium","Domkirkepladsen 1","","Roskilde","4000","Danmark","46353444","rgel@roskilde-gym.dk","Elisabeth Reumert","Roskilde Gymnasium","Domkirkepladsen 1","","Roskilde","4000","Danmark","2","10091","Netto14","NBC","0.00","","","5798000557109","","","","2","7881.25",
"2012-02-28 20:58:04","20063390","julia dalgaard","","kongefolden 89","","skanderborg","8660","Danmark","60603620","jd@silkeborg-gym.dk","julia dalgaard","","kongefolden 89","","skanderborg","8660","Danmark","2","1100","Dankort","NBC","40.00","","","","","","","3","622.50",
"2012-02-28 21:41:23","20063391","Thalia Steffensen","","Meklenborggade 2, 2 tv","","københavn S","2300","Danmark","29269807","thaliasteff@gmail.com","Thalia Steffensen","","Meklenborggade 2, 2 tv","","københavn S","2300","Danmark","2","1100","Dankort","NBC","40.00","","","","","","","1","375.00",
"2012-02-28 21:41:45","20063392","Mikkel W Gronert","","Digevangvej 5","","Silkeborg","8600","Danmark","42630276","mwgronert@gmail.com","Mikkel W Gronert","","Digevangvej 5","","Silkeborg","8600","Danmark","2","1100","Dankort","NBC","40.00","","","","","","","1","225.00",
"2012-02-28 22:27:08","20063393","Nanna Waarst","","Baretten 14","","Ringsted","4100","Danmark","61301535","nwaarst@hotmail.com","","","","","","","","2","1100","Dankort","NBC","0.00","","","","","","","1","112.50",
"2012-02-28 22:54:46","20063394","Thomas Andersen","","Pjentemøllestræde 26, 1.th.","","Svendborg","5700","Danmark","51183281","etnokamban@hotmail.com","","","","","","","","2","1100","Dankort","NBC","0.00","","","","","","","1","81.25",
"2012-02-28 23:13:50","20063395","Januaria Barchager","","Dalgas Have 18, 1 F","","Frederiksberg","2000","Danmark","26535398","jannie.pan@gmail.com","Januaria Barchager","","Dalgas Have 18, 1 F","","Frederiksberg","2000","Danmark","2","1100","Dankort","NBC","40.00","","","","","","","1","362.50",
"2012-02-29 06:28:59","20063396","Jeppe Kodal Sørensen","","Samsøgade 76, 4.","","Aarhus C","8000","Danmark","40796487","jeppekodal@gmail.com","","","","","","","","2","1100","Dankort","NBC","0.00","","","","","","","1","56.25",
"2012-02-29 07:02:40","20063397","frederikke Otto","VUC Roskilde","Læderstræde 4","","Roskilde","4000","Danmark","46 30 86 00","gfo@vucra.dk","","","","","","","","2","11138","Netto14","NBC","0.00","","","5798000558588","","","","1","93.75",
"2012-02-29 08:06:22","20063398","Jesper Behrend","Skanderup Efterskole","Kastanieallé 51","","Lunderskov","6640","Danmark","75594126","jb@skanderupefterskole.dk","Jesper Behrend","Skanderup Efterskole","Kastanieallé 51","","Lunderskov","6640","Danmark","2","1400","Netto14","NBC","0.00","","","","","","","2","465.00",
"2012-02-29 08:11:30","20063399","Iben Hartved","Rødkilde Gymnasium","Rødkildevej 42","","Vejle","7100","Danmark","75 82 04 88","ih@roedkilde-gym.dk","Iben Hartved","Rødkilde Gymnasium","Rødkildevej 42","","Vejle","7100","Danmark","2","10094","Netto14","NBC","0.00","","","5798000556102","","","","1","1425.00",
"2012-02-29 08:14:58","20063400","Niels Jessen","VUC FYN Glamsbjerg Middelfart","Nørregade 42","","Glamsbjerg","5620","Danmark","63 72 20 80","nje@vucfyn.dk","Niels Jessen","VUC FYN Glamsbjerg Middelfart","Nørregade 42","","Glamsbjerg","5620","Danmark","2","15375","Netto14","NBC","0.00","","","5798000558496","","","","1","185.00",
