"CreateDate","OrderNumber","LineNumber","ItemNumber","Quantity","Price","DiscountPercent",
"2012-02-29 14:04:27","20063440","1","6162583050","1.0000","45.0000","0.0000",
"2012-02-29 14:04:27","20063440","2","6163748250","1.0000","74.0000","0.0000",
"2012-02-29 14:04:27","20063440","3","6162234101","1.0000","190.0000","0.0000",
