"CreateDate","OrderNumber","LineNumber","ItemNumber","Quantity","Price","DiscountPercent",
"2012-02-29 13:59:38","20063439","1","6162026203","1.0000","150.0000","0.0000",
"2012-02-29 13:59:38","20063439","2","6161170002","1.0000","350.0000","0.0000",
