"CreateDate","OrderNumber","LineNumber","ItemNumber","Quantity","Price","DiscountPercent",
"2012-03-01 09:30:25","20063478","1","6163748250","1.0000","74.0000","0.0000",
"2012-03-01 09:30:25","20063478","2","6162583050","1.0000","45.0000","0.0000",
