"CreateDate","OrderNumber","LineNumber","ItemNumber","Quantity","Price","DiscountPercent",
"2012-03-01 09:37:53","20063481","1","6162812101","1.0000","148.0000","0.0000",
"2012-03-01 09:37:53","20063481","2","6161349301","1.0000","180.0000","0.0000",
"2012-03-01 09:37:53","20063481","3","6161374603","1.0000","180.0000","0.0000",
