"CreateDate","OrderNumber","LineNumber","ItemNumber","Quantity","Price","DiscountPercent",
"2012-03-01 14:53:09","20063518","1","6162867101","1.0000","179.0000","0.0000",
"2012-03-01 14:53:09","20063518","2","6162696701","1.0000","215.0000","0.0000",
