"CreateDate","OrderNumber","LineNumber","ItemNumber","Quantity","Price","DiscountPercent",
"2012-03-02 07:54:59","20063540","1","6163467201","1.0000","60.0000","0.0000",
"2012-03-02 07:54:59","20063540","2","6162614101","1.0000","138.0000","0.0000",
"2012-03-02 07:54:59","20063540","3","6162615801","1.0000","34.5000","0.0000",
