"CreateDate","OrderNumber","LineNumber","ItemNumber","Quantity","Price","DiscountPercent",
"2012-03-02 14:57:47","20063574","1","6162583050","1.0000","45.0000","0.0000",
"2012-03-02 14:57:47","20063574","2","6162741401","1.0000","165.0000","0.0000",
