"CreateDate","OrderNumber","LineNumber","ItemNumber","Quantity","Price","DiscountPercent",
"2012-03-06 13:44:25","20063779","1","6161362203","1.0000","150.0000","0.0000",
"2012-03-06 13:44:25","20063779","2","6161889601","1.0000","150.0000","0.0000",
"2012-03-06 13:44:25","20063779","3","6161382001","1.0000","90.0000","0.0000",
