"CreateDate","OrderNumber","LineNumber","ItemNumber","Quantity","Price","DiscountPercent",
"2012-03-06 16:45:56","20063792","1","6161329006","1.0000","300.0000","0.0000",
"2012-03-06 16:45:56","20063792","2","6161759803","1.0000","90.0000","0.0000",
