"CreateDate","OrderNumber","LineNumber","ItemNumber","Quantity","Price","DiscountPercent",
"2012-03-07 07:32:11","20063805","1","6161401702","1.0000","73.7500","0.0000",
"2012-03-07 07:32:11","20063805","2","6161293602","1.0000","73.7500","0.0000",
