"CreateDate","OrderNumber","LineNumber","ItemNumber","Quantity","Price","DiscountPercent",
"2012-03-07 12:32:53","20063846","1","6162812101","2.0000","148.0000","0.0000",
"2012-03-07 12:32:53","20063846","2","6162251801","2.0000","168.0000","0.0000",
"2012-03-07 12:32:53","20063846","3","6164514201","2.0000","194.0000","0.0000",
"2012-03-07 12:32:53","20063846","4","6162125201","2.0000","148.0000","0.0000",
"2012-03-07 12:32:53","20063846","5","6163748201","1.0000","148.0000","0.0000",
"2012-03-07 12:32:53","20063846","6","6162715502","1.0000","180.0000","0.0000",
"2012-03-07 12:32:53","20063846","7","6163067402","1.0000","190.0000","0.0000",
"2012-03-07 12:32:53","20063846","8","6162596001","1.0000","172.0000","0.0000",
"2012-03-07 12:32:53","20063846","9","6162822001","1.0000","188.0000","0.0000",
"2012-03-07 12:32:53","20063846","10","6164513501","1.0000","180.0000","0.0000",
"2012-03-07 12:32:53","20063846","11","6162818301","1.0000","118.0000","0.0000",
