"CreateDate","OrderNumber","LineNumber","ItemNumber","Quantity","Price","DiscountPercent",
"2012-03-08 11:51:56","20063914","1","6162667702","6.0000","320.0000","0.0000",
"2012-03-08 11:51:56","20063914","2","6162857201","6.0000","148.0000","0.0000",
