"CreateDate","OrderNumber","LineNumber","ItemNumber","Quantity","Price","DiscountPercent",
"2012-03-09 12:22:35","20063980","1","6163222701","1.0000","156.0000","0.0000",
"2012-03-09 12:22:35","20063980","2","6162281501","1.0000","70.0000","0.0000",
"2012-03-09 12:22:35","20063980","3","6162809101","1.0000","40.0000","0.0000",
"2012-03-09 12:22:35","20063980","4","6162402401","1.0000","100.0000","0.0000",
