"CreateDate","OrderNumber","LineNumber","ItemNumber","Quantity","Price","DiscountPercent",
"2012-03-10 14:22:27","20063999","1","6162812101","1.0000","148.0000","0.0000",
"2012-03-10 14:22:27","20063999","2","6163781901","1.0000","124.0000","0.0000",
"2012-03-10 14:22:27","20063999","3","6160968701","1.0000","194.0000","0.0000",
"2012-03-10 14:22:27","20063999","4","6162596001","1.0000","172.0000","0.0000",
