"CreateDate","OrderNumber","LineNumber","ItemNumber","Quantity","Price","DiscountPercent",
"2012-03-12 12:20:51","20064074","1","9083345901","1.0000","276.0000","0.0000",
"2012-03-12 12:20:51","20064074","2","9083392301","1.0000","0.0000","0.0000",
