"CreateDate","OrderNumber","LineNumber","ItemNumber","Quantity","Price","DiscountPercent",
"2012-03-13 00:27:22","20064117","1","6164866201","1.0000","57.5000","0.0000",
"2012-03-13 00:27:22","20064117","2","6162029701","1.0000","72.5000","0.0000",
