"CreateDate","OrderNumber","LineNumber","ItemNumber","Quantity","Price","DiscountPercent",
"2012-03-13 10:25:14","20064143","1","6163806901","8.0000","48.0000","0.0000",
"2012-03-13 10:25:14","20064143","2","6163124401","7.0000","248.0000","0.0000",
