"CreateDate","OrderNumber","LineNumber","ItemNumber","Quantity","Price","DiscountPercent",
"2012-03-13 17:31:31","20064181","1","6161030503","2.0000","310.0000","0.0000",
"2012-03-13 17:31:31","20064181","2","6162419201","3.0000","90.0000","0.0000",
