"CreateDate","OrderNumber","LineNumber","ItemNumber","Quantity","Price","DiscountPercent",
"2012-03-15 15:00:35","20064300","1","6161161103","1.0000","250.0000","0.0000",
"2012-03-15 15:00:35","20064300","2","6161163807","1.0000","132.0000","0.0000",
