"CreateDate","OrderNumber","LineNumber","ItemNumber","Quantity","Price","DiscountPercent",
"2012-03-19 06:52:18","20064399","1","6162812101","2.0000","148.0000","0.0000",
"2012-03-19 06:52:18","20064399","2","6164870901","1.0000","37.0000","0.0000",
