"CreateDate","OrderNumber","LineNumber","ItemNumber","Quantity","Price","DiscountPercent",
"2012-03-19 13:03:22","20064430","1","6163076601","1.0000","100.0000","0.0000",
"2012-03-19 13:03:22","20064430","2","6161313404","1.0000","230.0000","0.0000",
