"CreateDate","OrderNumber","LineNumber","ItemNumber","Quantity","Price","DiscountPercent",
"2012-03-19 13:49:31","20064433","1","6161374603","10.0000","180.0000","0.0000",
"2012-03-19 13:49:31","20064433","2","6160963201","2.0000","200.0000","0.0000",
