"CreateDate","OrderNumber","LineNumber","ItemNumber","Quantity","Price","DiscountPercent",
"2012-03-20 12:00:37","20064481","1","6162583050","1.0000","45.0000","0.0000",
"2012-03-20 12:00:37","20064481","2","6164513550","10.0000","90.0000","0.0000",
"2012-03-20 12:00:37","20064481","3","6160993502","1.0000","190.0000","0.0000",
