"CreateDate","OrderNumber","LineNumber","ItemNumber","Quantity","Price","DiscountPercent",
"2012-03-20 13:17:29","20064490","1","6160555701","1.0000","190.0000","0.0000",
"2012-03-20 13:17:29","20064490","2","6162011802","1.0000","190.0000","0.0000",
