"CreateDate","OrderNumber","LineNumber","ItemNumber","Quantity","Price","DiscountPercent",
"2012-03-21 11:55:25","20064534","1","6163545701","20.0000","117.0000","40.0000",
"2012-03-21 11:55:25","20064534","2","6163544001","30.0000","65.0000","40.0000",
