"CreateDate","OrderNumber","LineNumber","ItemNumber","Quantity","Price","DiscountPercent",
"2012-03-21 11:54:43","20064533","1","6162299002","1.0000","188.0000","0.0000",
"2012-03-21 11:54:43","20064533","2","6163120601","1.0000","200.0000","0.0000",
"2012-03-21 11:54:43","20064533","3","6162820601","1.0000","98.0000","0.0000",
"2012-03-21 11:54:43","20064533","4","6163781901","1.0000","124.0000","0.0000",
"2012-03-21 11:54:43","20064533","5","6162812101","1.0000","148.0000","0.0000",
"2012-03-21 11:54:43","20064533","6","6162821301","1.0000","138.0000","0.0000",
