"CreateDate","OrderNumber","LineNumber","ItemNumber","Quantity","Price","DiscountPercent",
"2012-03-21 15:15:23","20064545","1","6162813801","1.0000","190.0000","0.0000",
"2012-03-21 15:15:23","20064545","2","6163781901","1.0000","124.0000","0.0000",
