"CreateDate","OrderNumber","LineNumber","ItemNumber","Quantity","Price","DiscountPercent",
"2012-03-21 18:56:41","20064549","1","6162332401","1.0000","67.5000","0.0000",
"2012-03-21 18:56:41","20064549","2","6162244002","1.0000","37.5000","0.0000",
