"CreateDate","OrderNumber","LineNumber","ItemNumber","Quantity","Price","DiscountPercent",
"2012-03-22 08:06:45","20064570","1","6162012502","40.0000","180.0000","0.0000",
"2012-03-22 08:06:45","20064570","2","6162242602","35.0000","190.0000","0.0000",
"2012-03-22 08:06:45","20064570","3","6161953101","40.0000","180.0000","0.0000",
