"CreateDate","OrderNumber","LineNumber","ItemNumber","Quantity","Price","DiscountPercent",
"2012-03-22 15:57:38","20064607","1","6161466102","1.0000","52.5000","0.0000",
"2012-03-22 15:57:38","20064607","2","6162130703","1.0000","60.0000","0.0000",
"2012-03-22 15:57:38","20064607","3","6161404101","1.0000","57.5000","0.0000",
