"CreateDate","OrderNumber","LineNumber","ItemNumber","Quantity","Price","DiscountPercent",
"2012-03-23 07:12:34","20064622","1","7783897105","30.0000","290.0000","0.0000",
"2012-03-23 07:12:34","20064622","2","6160209402","5.0000","210.0000","0.0000",
