"CreateDate","OrderNumber","LineNumber","ItemNumber","Quantity","Price","DiscountPercent",
"2012-03-26 09:49:04","20064742","1","6163454201","1.0000","110.0000","0.0000",
"2012-03-26 09:49:04","20064742","2","6163062901","1.0000","234.0000","0.0000",
