"CreateDate","OrderNumber","LineNumber","ItemNumber","Quantity","Price","DiscountPercent",
"2012-03-26 12:39:58","20064763","1","6161329006","1.0000","300.0000","0.0000",
"2012-03-26 12:39:58","20064763","2","6161759803","1.0000","90.0000","0.0000",
