"CreateDate","OrderNumber","LineNumber","ItemNumber","Quantity","Price","DiscountPercent",
"2012-03-26 16:44:00","20064776","1","6161231601","1.0000","75.0000","0.0000",
"2012-03-26 16:44:00","20064776","2","6162623301","1.0000","50.0000","0.0000",
"2012-03-26 16:44:00","20064776","3","6161759803","1.0000","90.0000","0.0000",
