"CreateDate","OrderNumber","LineNumber","ItemNumber","Quantity","Price","DiscountPercent",
"2012-03-28 09:03:17","20064859","1","6164513550","1.0000","90.0000","0.0000",
"2012-03-28 09:03:17","20064859","2","6164245550","1.0000","110.0000","0.0000",
