"CreateDate","OrderNumber","LineNumber","ItemNumber","Quantity","Price","DiscountPercent",
"2012-03-29 06:14:24","20064896","1","6164245550","1.0000","110.0000","0.0000",
"2012-03-29 06:14:24","20064896","2","6164849550","1.0000","87.0000","0.0000",
