"CreateDate","OrderNumber","LineNumber","ItemNumber","Quantity","Price","DiscountPercent",
"2012-03-29 07:25:01","20064907","1","6164849550","1.0000","87.0000","0.0000",
"2012-03-29 07:25:01","20064907","2","6164245550","1.0000","110.0000","0.0000",
