"CreateDate","OrderNumber","LineNumber","ItemNumber","Quantity","Price","DiscountPercent",
"2012-03-29 11:52:59","20064962","1","6161007015","1.0000","280.0000","0.0000",
"2012-03-29 11:52:59","20064962","2","6161065814","1.0000","170.0000","0.0000",
