"CreateDate","OrderNumber","LineNumber","ItemNumber","Quantity","Price","DiscountPercent",
"2012-04-03 06:54:19","20065087","1","7351324508","1.0000","120.0000","0.0000",
"2012-04-03 06:54:19","20065087","2","6161329006","1.0000","320.0000","0.0000",
