"CreateDate","OrderNumber","LineNumber","ItemNumber","Quantity","Price","DiscountPercent",
"2012-04-05 13:01:27","20065132","1","6162667702","1.0000","320.0000","0.0000",
"2012-04-05 13:01:27","20065132","2","6162857201","1.0000","160.0000","0.0000",
