"CreateDate","OrderNumber","LineNumber","ItemNumber","Quantity","Price","DiscountPercent",
"2012-04-08 19:10:36","20065181","1","6162735301","1.0000","217.0000","0.0000",
"2012-04-08 19:10:36","20065181","2","6164865501","1.0000","230.0000","0.0000",
