"CreateDate","OrderNumber","LineNumber","ItemNumber","Quantity","Price","DiscountPercent",
"2012-04-10 10:47:04","20065244","1","6160925001","1.0000","196.0000","0.0000",
"2012-04-10 10:47:04","20065244","2","6161953101","1.0000","196.0000","0.0000",
"2012-04-10 10:47:04","20065244","3","6160921803","1.0000","210.0000","0.0000",
"2012-04-10 10:47:04","20065244","4","6161692001","1.0000","118.0000","0.0000",
