"CreateDate","OrderNumber","LineNumber","ItemNumber","Quantity","Price","DiscountPercent",
"2012-04-10 12:21:36","20065260","1","6162419201","1.0000","110.0000","0.0000",
"2012-04-10 12:21:36","20065260","2","6161030503","1.0000","330.0000","0.0000",
