"CreateDate","OrderNumber","LineNumber","ItemNumber","Quantity","Price","DiscountPercent",
"2012-04-11 08:24:03","20065293","1","6161132102","43.0000","378.0000","0.0000",
"2012-04-11 08:24:03","20065293","2","6161532301","33.0000","30.0000","0.0000",
