"CreateDate","OrderNumber","LineNumber","ItemNumber","Quantity","Price","DiscountPercent",
"2012-04-11 07:29:28","20065290","1","6160534406","45.0000","190.0000","0.0000",
"2012-04-11 07:29:28","20065290","2","6162820601","15.0000","98.0000","0.0000",
