"CreateDate","OrderNumber","LineNumber","ItemNumber","Quantity","Price","DiscountPercent",
"2012-04-11 17:56:17","20065335","1","6164245550","1.0000","110.0000","0.0000",
"2012-04-11 17:56:17","20065335","2","6164849550","1.0000","87.0000","0.0000",
