"CreateDate","OrderNumber","LineNumber","ItemNumber","Quantity","Price","DiscountPercent",
"2012-04-11 19:54:12","20065343","1","6163060501","1.0000","90.0000","0.0000",
"2012-04-11 19:54:12","20065343","2","6163034601","1.0000","60.0000","0.0000",
"2012-04-11 19:54:12","20065343","3","6163432001","1.0000","40.0000","0.0000",
