"CreateDate","OrderNumber","LineNumber","ItemNumber","Quantity","Price","DiscountPercent",
"2012-04-12 13:57:21","20065399","1","7351324508","4.0000","120.0000","0.0000",
"2012-04-12 13:57:21","20065399","2","6161329006","4.0000","320.0000","0.0000",
