"CreateDate","OrderNumber","LineNumber","ItemNumber","Quantity","Price","DiscountPercent",
"2012-04-12 18:07:09","20065407","1","6162667702","1.0000","320.0000","0.0000",
"2012-04-12 18:07:09","20065407","2","6162857201","1.0000","160.0000","0.0000",
"2012-04-12 18:07:09","20065407","3","6161382001","1.0000","110.0000","0.0000",
