"CreateDate","OrderNumber","LineNumber","ItemNumber","Quantity","Price","DiscountPercent",
"2012-04-16 06:20:27","20065496","1","6162703201","4.0000","136.0000","0.0000",
"2012-04-16 06:20:27","20065496","2","6162704901","4.0000","84.0000","0.0000",
