"CreateDate","OrderNumber","LineNumber","ItemNumber","Quantity","Price","DiscountPercent",
"2012-04-16 08:45:28","20065509","1","6160932301","2.0000","260.0000","0.0000",
"2012-04-16 08:45:28","20065509","2","6161062303","2.0000","290.0000","0.0000",
