"CreateDate","OrderNumber","LineNumber","ItemNumber","Quantity","Price","DiscountPercent",
"2012-04-16 08:42:28","20065507","1","9083345901","1.0000","276.0000","0.0000",
"2012-04-16 08:42:28","20065507","2","9083392301","1.0000","0.0000","0.0000",
