"CreateDate","OrderNumber","LineNumber","ItemNumber","Quantity","Price","DiscountPercent",
"2012-04-16 09:01:26","20065513","1","9083345901","1.0000","276.0000","0.0000",
"2012-04-16 09:01:26","20065513","2","9083392301","1.0000","0.0000","0.0000",
