"CreateDate","OrderNumber","LineNumber","ItemNumber","Quantity","Price","DiscountPercent",
"2012-04-16 13:14:28","20065533","1","6163748201","1.0000","148.0000","0.0000",
"2012-04-16 13:14:28","20065533","2","6162812101","1.0000","148.0000","0.0000",
