"CreateDate","OrderNumber","LineNumber","ItemNumber","Quantity","Price","DiscountPercent",
"2012-04-18 08:31:19","20065633","1","6163120601","5.0000","228.0000","0.0000",
"2012-04-18 08:31:19","20065633","2","6163895301","2.0000","110.0000","0.0000",
