"CreateDate","OrderNumber","LineNumber","ItemNumber","Quantity","Price","DiscountPercent",
"2012-04-18 12:52:37","20065662","1","6160879302","1.0000","210.0000","0.0000",
"2012-04-18 12:52:37","20065662","2","6160880702","1.0000","220.0000","0.0000",
"2012-04-18 12:52:37","20065662","3","6160881501","1.0000","220.0000","0.0000",
