"CreateDate","OrderNumber","LineNumber","ItemNumber","Quantity","Price","DiscountPercent",
"2012-04-18 18:53:48","20065682","1","6164245550","1.0000","110.0000","0.0000",
"2012-04-18 18:53:48","20065682","2","6164249350","1.0000","145.0000","0.0000",
