"CreateDate","OrderNumber","LineNumber","ItemNumber","Quantity","Price","DiscountPercent",
"2012-04-19 08:50:48","20065693","1","6164849550","1.0000","87.0000","0.0000",
"2012-04-19 08:50:48","20065693","2","6160731202","1.0000","230.0000","0.0000",
"2012-04-19 08:50:48","20065693","3","6161142502","1.0000","220.0000","0.0000",
