"CreateDate","OrderNumber","LineNumber","ItemNumber","Quantity","Price","DiscountPercent",
"2012-04-19 07:13:03","20065689","1","6164849550","1.0000","87.0000","0.0000",
"2012-04-19 07:13:03","20065689","2","6164245501","2.0000","220.0000","0.0000",
