"CreateDate","OrderNumber","LineNumber","ItemNumber","Quantity","Price","DiscountPercent",
"2012-04-19 13:31:05","20065715","1","6164249350","10.0000","145.0000","0.0000",
"2012-04-19 13:31:05","20065715","2","6163895301","5.0000","110.0000","0.0000",
