"CreateDate","OrderNumber","LineNumber","ItemNumber","Quantity","Price","DiscountPercent",
"2012-04-20 12:07:42","20065757","1","6160264704","2.0000","288.0000","0.0000",
"2012-04-20 12:07:42","20065757","2","6160162403","2.0000","296.0000","0.0000",
