"CreateDate","OrderNumber","LineNumber","ItemNumber","Quantity","Price","DiscountPercent",
"2012-04-23 08:57:24","20065813","1","6163590701","14.0000","294.0000","0.0000",
"2012-04-23 08:57:24","20065813","2","6163894601","14.0000","80.0000","0.0000",
