"CreateDate","OrderNumber","LineNumber","ItemNumber","Quantity","Price","DiscountPercent",
"2012-04-25 15:56:10","20065938","1","6163436801","1.0000","116.0000","0.0000",
"2012-04-25 15:56:10","20065938","2","6161495703","1.0000","220.0000","0.0000",
"2012-04-25 15:56:10","20065938","3","6164259201","1.0000","34.5000","0.0000",
