"CreateDate","OrderNumber","LineNumber","ItemNumber","Quantity","Price","DiscountPercent",
"2012-04-26 13:29:34","20065983","1","9271102101","1.0000","110.0000","0.0000",
"2012-04-26 13:29:34","20065983","2","9083341101","1.0000","115.0000","0.0000",
