"CreateDate","OrderNumber","LineNumber","ItemNumber","Quantity","Price","DiscountPercent",
"2012-04-30 10:50:41","20066115","1","6162240202","16.0000","270.0000","0.0000",
"2012-04-30 10:50:41","20066115","2","6162355304","100.0000","75.0000","0.0000",
