"CreateDate","OrderNumber","LineNumber","ItemNumber","Quantity","Price","DiscountPercent",
"2012-05-01 13:11:39","20066175","1","6161528501","1.0000","10.0000","0.0000",
"2012-05-01 13:11:39","20066175","2","6164230101","1.0000","24.5000","0.0000",
"2012-05-01 13:11:39","20066175","3","6162685101","1.0000","33.0000","0.0000",
