"CreateDate","OrderNumber","LineNumber","ItemNumber","Quantity","Price","DiscountPercent",
"2012-05-02 17:03:41","20066213","1","6162645501","4.0000","248.0000","0.0000",
"2012-05-02 17:03:41","20066213","2","6162925801","4.0000","148.0000","0.0000",
