"CreateDate","OrderNumber","LineNumber","ItemNumber","Quantity","Price","DiscountPercent",
"2012-05-02 11:16:08","20066207","1","6164249301","2.0000","290.0000","0.0000",
"2012-05-02 11:16:08","20066207","2","6164862401","5.0000","130.0000","0.0000",
