"CreateDate","OrderNumber","LineNumber","ItemNumber","Quantity","Price","DiscountPercent",
"2012-05-03 08:49:03","20066236","1","9271102101","2.0000","110.0000","0.0000",
"2012-05-03 08:49:03","20066236","2","9083341101","1.0000","115.0000","0.0000",
"2012-05-03 08:49:03","20066236","3","9083350302","1.0000","110.0000","0.0000",
