"CreateDate","OrderNumber","LineNumber","ItemNumber","Quantity","Price","DiscountPercent",
"2012-05-03 13:07:15","20066249","1","6161329006","1.0000","320.0000","0.0000",
"2012-05-03 13:07:15","20066249","2","6161759803","1.0000","110.0000","0.0000",
