"CreateDate","OrderNumber","LineNumber","ItemNumber","Quantity","Price","DiscountPercent",
"2012-05-08 09:12:06","20066365","1","9271107602","1.0000","140.0000","0.0000",
"2012-05-08 09:12:06","20066365","2","9083369501","1.0000","156.0000","0.0000",
