"CreateDate","OrderNumber","LineNumber","ItemNumber","Quantity","Price","DiscountPercent",
"2012-05-10 05:00:09","20066451","1","6162645550","1.0000","124.0000","0.0000",
"2012-05-10 05:00:09","20066451","2","6162601101","1.0000","180.0000","0.0000",
