"CreateDate","OrderNumber","LineNumber","ItemNumber","Quantity","Price","DiscountPercent",
"2012-05-11 14:57:33","20066533","1","6162260001","1.0000","170.0000","0.0000",
"2012-05-11 14:57:33","20066533","2","6161481501","1.0000","350.0000","0.0000",
