"CreateDate","OrderNumber","LineNumber","ItemNumber","Quantity","Price","DiscountPercent",
"2012-05-12 16:04:23","20066548","1","6162645550","1.0000","124.0000","0.0000",
"2012-05-12 16:04:23","20066548","2","6162645501","3.0000","248.0000","0.0000",
