"CreateDate","OrderNumber","LineNumber","ItemNumber","Quantity","Price","DiscountPercent",
"2012-05-13 09:51:30","20066558","1","6161259602","1.0000","140.0000","0.0000",
"2012-05-13 09:51:30","20066558","2","6162419201","1.0000","110.0000","0.0000",
"2012-05-13 09:51:30","20066558","3","6162528101","1.0000","200.0000","0.0000",
"2012-05-13 09:51:30","20066558","4","6161030503","1.0000","330.0000","0.0000",
