"CreateDate","OrderNumber","LineNumber","ItemNumber","Quantity","Price","DiscountPercent",
"2012-05-14 12:50:16","20066608","1","6163590701","1.0000","294.0000","0.0000",
"2012-05-14 12:50:16","20066608","2","6163894601","1.0000","80.0000","0.0000",
"2012-05-14 12:50:16","20066608","3","6162648601","2.0000","148.0000","0.0000",
"2012-05-14 12:50:16","20066608","4","6163120601","2.0000","228.0000","0.0000",
