"CreateDate","OrderNumber","LineNumber","ItemNumber","Quantity","Price","DiscountPercent",
"2012-05-14 19:02:42","20066617","1","6161007015","20.0000","280.0000","0.0000",
"2012-05-14 19:02:42","20066617","2","6161065814","20.0000","190.0000","0.0000",
