"CreateDate","OrderNumber","LineNumber","ItemNumber","Quantity","Price","DiscountPercent",
"2012-05-15 06:15:08","20066619","1","6162722301","1.0000","350.0000","0.0000",
"2012-05-15 06:15:08","20066619","2","6163587701","1.0000","140.0000","0.0000",
