"CreateDate","OrderNumber","LineNumber","ItemNumber","Quantity","Price","DiscountPercent",
"2012-05-16 20:38:13","20066755","1","6162645550","1.0000","124.0000","0.0000",
"2012-05-16 20:38:13","20066755","2","6162651601","1.0000","20.0000","0.0000",
"2012-05-16 20:38:13","20066755","3","6162813801","1.0000","190.0000","0.0000",
"2012-05-16 20:38:13","20066755","4","6163566201","1.0000","174.0000","0.0000",
"2012-05-16 20:38:13","20066755","5","6160641301","1.0000","260.0000","0.0000",
"2012-05-16 20:38:13","20066755","6","6161172701","1.0000","188.0000","0.0000",
"2012-05-16 20:38:13","20066755","7","6164338401","1.0000","110.0000","0.0000",
