"CreateDate","OrderNumber","LineNumber","ItemNumber","Quantity","Price","DiscountPercent",
"2012-05-19 16:46:47","20066817","1","6164470101","1.0000","116.0000","0.0000",
"2012-05-19 16:46:47","20066817","2","6162657802","1.0000","47.0000","0.0000",
