"CreateDate","OrderNumber","LineNumber","ItemNumber","Quantity","Price","DiscountPercent",
"2012-05-20 16:09:56","20066834","1","6162566301","1.0000","43.0000","0.0000",
"2012-05-20 16:09:56","20066834","2","6161037201","1.0000","40.0000","0.0000",
