"CreateDate","OrderNumber","LineNumber","ItemNumber","Quantity","Price","DiscountPercent",
"2012-05-21 06:57:28","20066854","1","6164338401","1.0000","110.0000","0.0000",
"2012-05-21 06:57:28","20066854","2","6162645550","1.0000","124.0000","0.0000",
