"CreateDate","OrderNumber","LineNumber","ItemNumber","Quantity","Price","DiscountPercent",
"2012-05-21 12:00:56","20066879","1","6162965401","27.0000","62.0000","40.0000",
"2012-05-21 12:00:56","20066879","2","6162966101","26.0000","112.0000","40.0000",
