"CreateDate","OrderNumber","LineNumber","ItemNumber","Quantity","Price","DiscountPercent",
"2012-05-24 08:40:57","20067083","1","6163237101","1.0000","68.0000","0.0000",
"2012-05-24 08:40:57","20067083","2","6163452801","1.0000","68.0000","0.0000",
"2012-05-24 08:40:57","20067083","3","6164524101","1.0000","68.0000","0.0000",
