"CreateDate","OrderNumber","LineNumber","ItemNumber","Quantity","Price","DiscountPercent",
"2012-05-25 10:23:28","20067171","1","6161066602","1.0000","270.0000","0.0000",
"2012-05-25 10:23:28","20067171","2","6164245501","1.0000","220.0000","0.0000",
