"CreateDate","OrderNumber","LineNumber","ItemNumber","Quantity","Price","DiscountPercent",
"2012-05-25 12:01:11","20067185","1","6162820601","60.0000","98.0000","0.0000",
"2012-05-25 12:01:11","20067185","2","6162299002","30.0000","188.0000","0.0000",
