"CreateDate","OrderNumber","LineNumber","ItemNumber","Quantity","Price","DiscountPercent",
"2012-05-30 11:10:08","20067395","1","6162371301","242.0000","370.0000","0.0000",
"2012-05-30 11:10:08","20067395","2","6162722301","65.0000","350.0000","0.0000",
"2012-05-30 11:10:08","20067395","3","6163587701","65.0000","140.0000","0.0000",
"2012-05-30 11:10:08","20067395","4","6163885401","65.0000","100.0000","0.0000",
