"CreateDate","OrderNumber","LineNumber","ItemNumber","Quantity","Price","DiscountPercent",
"2012-05-31 07:56:01","20067448","1","6164249301","162.0000","290.0000","0.0000",
"2012-05-31 07:56:01","20067448","2","6164862401","165.0000","130.0000","0.0000",
