"CreateDate","OrderNumber","LineNumber","ItemNumber","Quantity","Price","DiscountPercent",
"2012-05-31 18:50:28","20067491","1","6162934001","1.0000","200.0000","0.0000",
"2012-05-31 18:50:28","20067491","2","6163749901","1.0000","98.0000","0.0000",
