"CreateDate","OrderNumber","LineNumber","ItemNumber","Quantity","Price","DiscountPercent",
"2012-06-01 19:01:35","20067551","1","6163769701","1.0000","60.0000","0.0000",
"2012-06-01 19:01:35","20067551","2","6162293802","1.0000","82.5000","0.0000",
