"CreateDate","OrderNumber","LineNumber","ItemNumber","Quantity","Price","DiscountPercent",
"2012-06-03 17:37:19","20067609","1","6163220301","1.0000","163.0000","0.0000",
"2012-06-03 17:37:19","20067609","2","6163782601","1.0000","48.0000","0.0000",
"2012-06-03 17:37:19","20067609","3","6164359901","1.0000","55.0000","0.0000",
"2012-06-03 17:37:19","20067609","4","6162816901","1.0000","100.0000","0.0000",
