"CreateDate","OrderNumber","LineNumber","ItemNumber","Quantity","Price","DiscountPercent",
"2012-06-04 13:38:07","20067672","1","6165010801","1.0000","15.0000","0.0000",
"2012-06-04 13:38:07","20067672","2","6165008501","1.0000","18.0000","0.0000",
"2012-06-04 13:38:07","20067672","3","6165007801","1.0000","28.0000","0.0000",
"2012-06-04 13:38:07","20067672","4","6164992801","1.0000","35.0000","0.0000",
"2012-06-04 13:38:07","20067672","5","6165009201","1.0000","76.0000","0.0000",
