"CreateDate","OrderNumber","LineNumber","ItemNumber","Quantity","Price","DiscountPercent",
"2012-06-05 10:07:26","20067720","1","6162130703","1.0000","65.0000","0.0000",
"2012-06-05 10:07:26","20067720","2","6161404101","1.0000","62.0000","0.0000",
