"CreateDate","OrderNumber","LineNumber","ItemNumber","Quantity","Price","DiscountPercent",
"2012-06-06 08:39:37","20067773","1","6162700101","75.0000","120.0000","0.0000",
"2012-06-06 08:39:37","20067773","2","6164021501","25.0000","120.0000","0.0000",
