"CreateDate","OrderNumber","LineNumber","ItemNumber","Quantity","Price","DiscountPercent",
"2012-06-07 07:53:11","20067832","1","6162547201","5.0000","288.0000","0.0000",
"2012-06-07 07:53:11","20067832","2","6162712402","20.0000","120.0000","0.0000",
"2012-06-07 07:53:11","20067832","3","6162620202","85.0000","360.0000","0.0000",
"2012-06-07 07:53:11","20067832","4","6162931901","150.0000","370.0000","0.0000",
