"CreateDate","OrderNumber","LineNumber","ItemNumber","Quantity","Price","DiscountPercent",
"2012-06-07 12:27:57","20067853","1","6161117404","50.0000","100.0000","0.0000",
"2012-06-07 12:27:57","20067853","2","6163223401","50.0000","110.0000","0.0000",
"2012-06-07 12:27:57","20067853","3","6162592201","15.0000","100.0000","0.0000",
"2012-06-07 12:27:57","20067853","4","6162637001","2.0000","270.0000","0.0000",
