"CreateDate","OrderNumber","LineNumber","ItemNumber","Quantity","Price","DiscountPercent",
"2012-06-07 13:53:42","20067860","1","6162804601","3.0000","108.0000","0.0000",
"2012-06-07 13:53:42","20067860","2","6162370601","1.0000","80.0000","0.0000",
