"CreateDate","OrderNumber","LineNumber","ItemNumber","Quantity","Price","DiscountPercent",
"2012-06-08 09:45:09","20067895","1","6164929401","1.0000","35.0000","0.0000",
"2012-06-08 09:45:09","20067895","2","9083345901","1.0000","276.0000","0.0000",
"2012-06-08 09:45:09","20067895","3","9083392301","1.0000","0.0000","0.0000",
