"CreateDate","OrderNumber","LineNumber","ItemNumber","Quantity","Price","DiscountPercent",
"2012-06-11 19:05:58","20068030","1","6162645550","5.0000","124.0000","0.0000",
"2012-06-11 19:05:58","20068030","2","6162925850","1.0000","74.0000","0.0000",
