"CreateDate","OrderNumber","LineNumber","ItemNumber","Quantity","Price","DiscountPercent",
"2012-06-12 12:56:22","20068095","1","6164245501","5.0000","220.0000","0.0000",
"2012-06-12 12:56:22","20068095","2","6164862401","10.0000","130.0000","0.0000",
