"CreateDate","OrderNumber","LineNumber","ItemNumber","Quantity","Price","DiscountPercent",
"2012-06-12 19:22:18","20068114","1","6161545902","100.0000","160.0000","0.0000",
"2012-06-12 19:22:18","20068114","2","6162268601","100.0000","10.0000","0.0000",
"2012-06-12 19:22:18","20068114","3","6164078901","33.0000","65.0000","0.0000",
