"CreateDate","OrderNumber","LineNumber","ItemNumber","Quantity","Price","DiscountPercent",
"2012-06-15 07:57:35","20068271","1","6162286001","1.0000","63.0000","0.0000",
"2012-06-15 07:57:35","20068271","2","6161552801","1.0000","55.0000","0.0000",
"2012-06-15 07:57:35","20068271","3","6161214602","1.0000","63.0000","0.0000",
