"CreateDate","OrderNumber","LineNumber","ItemNumber","Quantity","Price","DiscountPercent",
"2012-06-15 09:57:18","20068287","1","6161123906","40.0000","270.0000","0.0000",
"2012-06-15 09:57:18","20068287","2","6162360703","20.0000","268.0000","0.0000",
