"CreateDate","OrderNumber","LineNumber","ItemNumber","Quantity","Price","DiscountPercent",
"2012-06-19 07:25:02","20068428","1","6162121803","10.0000","258.0000","0.0000",
"2012-06-19 07:25:02","20068428","2","6161130105","10.0000","160.0000","0.0000",
