"CreateDate","OrderNumber","LineNumber","ItemNumber","Quantity","Price","DiscountPercent",
"2012-06-19 13:09:35","20068469","1","6163173201","180.0000","40.0000","40.0000",
"2012-06-19 13:09:35","20068469","2","6163544001","30.0000","65.0000","40.0000",
"2012-06-19 13:09:35","20068469","3","6163545701","30.0000","117.0000","40.0000",
