"CreateDate","OrderNumber","LineNumber","ItemNumber","Quantity","Price","DiscountPercent",
"2012-06-21 10:26:59","20068558","1","6162296902","30.0000","210.0000","0.0000",
"2012-06-21 10:26:59","20068558","2","6160161603","3.0000","218.0000","0.0000",
"2012-06-21 10:26:59","20068558","3","7783980303","5.0000","188.0000","0.0000",
