"CreateDate","OrderNumber","LineNumber","ItemNumber","Quantity","Price","DiscountPercent",
"2012-06-21 15:53:20","20068578","1","6164865501","1.0000","230.0000","0.0000",
"2012-06-21 15:53:20","20068578","2","6161760602","1.0000","100.0000","0.0000",
"2012-06-21 15:53:20","20068578","3","6162211202","1.0000","170.0000","0.0000",
