"CreateDate","OrderNumber","LineNumber","ItemNumber","Quantity","Price","DiscountPercent",
"2012-06-21 18:23:26","20068581","1","6162583001","1.0000","90.0000","0.0000",
"2012-06-21 18:23:26","20068581","2","6160925001","1.0000","196.0000","0.0000",
