"CreateDate","OrderNumber","LineNumber","ItemNumber","Quantity","Price","DiscountPercent",
"2012-06-21 19:02:35","20068583","1","6161329006","1.0000","320.0000","0.0000",
"2012-06-21 19:02:35","20068583","2","6161759803","1.0000","110.0000","0.0000",
