"CreateDate","OrderNumber","LineNumber","ItemNumber","Quantity","Price","DiscountPercent",
"2012-06-21 19:41:13","20068584","1","6163392701","1.0000","144.0000","0.0000",
"2012-06-21 19:41:13","20068584","2","6163295101","1.0000","108.0000","0.0000",
