"CreateDate","OrderNumber","LineNumber","ItemNumber","Quantity","Price","DiscountPercent",
"2012-06-22 13:00:10","20068633","1","6162234101","2.0000","190.0000","0.0000",
"2012-06-22 13:00:10","20068633","2","6161795401","2.0000","196.0000","0.0000",
