"CreateDate","OrderNumber","LineNumber","ItemNumber","Quantity","Price","DiscountPercent",
"2012-06-24 14:38:39","20068675","1","6161030503","1.0000","330.0000","0.0000",
"2012-06-24 14:38:39","20068675","2","6162419201","1.0000","110.0000","0.0000",
