"CreateDate","OrderNumber","LineNumber","ItemNumber","Quantity","Price","DiscountPercent",
"2012-06-25 06:41:25","20068693","1","6163592101","2.0000","384.0000","0.0000",
"2012-06-25 06:41:25","20068693","2","6163894601","2.0000","80.0000","0.0000",
"2012-06-25 06:41:25","20068693","3","6163590701","2.0000","294.0000","0.0000",
