"CreateDate","OrderNumber","LineNumber","ItemNumber","Quantity","Price","DiscountPercent",
"2012-06-25 08:10:00","20068705","1","6162565602","1.0000","348.0000","0.0000",
"2012-06-25 08:10:00","20068705","2","6163043801","57.0000","109.5000","40.0000",
