"CreateDate","OrderNumber","LineNumber","ItemNumber","Quantity","Price","DiscountPercent",
"2012-06-27 19:51:26","20068880","1","6163451101","1.0000","55.0000","0.0000",
"2012-06-27 19:51:26","20068880","2","6161401702","1.0000","78.0000","0.0000",
