"CreateDate","OrderNumber","LineNumber","ItemNumber","Quantity","Price","DiscountPercent",
"2012-06-28 06:53:24","20068893","1","6164123601","28.0000","83.0000","40.0000",
"2012-06-28 06:53:24","20068893","2","6164124301","28.0000","150.0000","40.0000",
