"CreateDate","OrderNumber","LineNumber","ItemNumber","Quantity","Price","DiscountPercent",
"2012-06-28 11:27:43","20068939","1","6163050601","90.0000","60.0000","40.0000",
"2012-06-28 11:27:43","20068939","2","6162370601","245.0000","80.0000","40.0000",
