"CreateDate","OrderNumber","LineNumber","ItemNumber","Quantity","Price","DiscountPercent",
"2012-06-28 13:52:27","20068959","1","6163426901","1.0000","112.0000","0.0000",
"2012-06-28 13:52:27","20068959","2","6162242602","10.0000","210.0000","0.0000",
"2012-06-28 13:52:27","20068959","3","6162515102","10.0000","188.0000","0.0000",
