"CreateDate","OrderNumber","LineNumber","ItemNumber","Quantity","Price","DiscountPercent",
"2012-06-29 09:56:37","20069008","1","6163871701","220.0000","48.0000","40.0000",
"2012-06-29 09:56:37","20069008","2","6162794001","190.0000","216.0000","40.0000",
