"CreateDate","OrderNumber","LineNumber","ItemNumber","Quantity","Price","DiscountPercent",
"2012-06-29 17:08:04","20069033","1","6161545902","1.0000","190.0000","0.0000",
"2012-06-29 17:08:04","20069033","2","6162833601","1.0000","130.0000","0.0000",
