"CreateDate","OrderNumber","LineNumber","ItemNumber","Quantity","Price","DiscountPercent",
"2012-07-01 09:26:49","20069051","1","6163088901","50.0000","50.0000","40.0000",
"2012-07-01 09:26:49","20069051","2","6163089601","62.0000","90.0000","40.0000",
