"CreateDate","OrderNumber","LineNumber","ItemNumber","Quantity","Price","DiscountPercent",
"2012-07-02 09:14:47","20069112","1","6162386702","5.0000","190.0000","0.0000",
"2012-07-02 09:14:47","20069112","2","6160997803","17.0000","158.0000","0.0000",
"2012-07-02 09:14:47","20069112","3","6160300704","5.0000","220.0000","0.0000",
"2012-07-02 09:14:47","20069112","4","6160353802","6.0000","220.0000","0.0000",
"2012-07-02 09:14:47","20069112","5","7783340604","5.0000","190.0000","0.0000",
"2012-07-02 09:14:47","20069112","6","6162011802","5.0000","190.0000","0.0000",
