"CreateDate","OrderNumber","LineNumber","ItemNumber","Quantity","Price","DiscountPercent",
"2012-07-02 10:47:55","20069126","1","6163153401","135.0000","60.0000","40.0000",
"2012-07-02 10:47:55","20069126","2","6160305801","1.0000","220.0000","0.0000",
