"CreateDate","OrderNumber","LineNumber","ItemNumber","Quantity","Price","DiscountPercent",
"2012-07-03 02:35:27","20069168","1","6162026203","1.0000","170.0000","0.0000",
"2012-07-03 02:35:27","20069168","2","6162328701","1.0000","350.0000","0.0000",
"2012-07-03 02:35:27","20069168","3","6162027901","1.0000","350.0000","0.0000",
