"CreateDate","OrderNumber","LineNumber","ItemNumber","Quantity","Price","DiscountPercent",
"2012-07-03 10:08:23","20069204","1","6164245501","35.0000","220.0000","0.0000",
"2012-07-03 10:08:23","20069204","2","6163566201","30.0000","174.0000","0.0000",
"2012-07-03 10:08:23","20069204","3","6163067402","125.0000","200.0000","0.0000",
"2012-07-03 10:08:23","20069204","4","6164514201","120.0000","194.0000","0.0000",
"2012-07-03 10:08:23","20069204","5","6162122103","90.0000","200.0000","0.0000",
"2012-07-03 10:08:23","20069204","6","6162538001","30.0000","140.0000","0.0000",
"2012-07-03 10:08:23","20069204","7","6162714801","75.0000","210.0000","0.0000",
"2012-07-03 10:08:23","20069204","8","6161485802","70.0000","255.0000","0.0000",
"2012-07-03 10:08:23","20069204","9","6164339101","70.0000","160.0000","0.0000",
"2012-07-03 10:08:23","20069204","10","6162012502","35.0000","196.0000","0.0000",
