"CreateDate","OrderNumber","LineNumber","ItemNumber","Quantity","Price","DiscountPercent",
"2012-07-03 13:03:56","20069231","1","6161706401","30.0000","310.0000","0.0000",
"2012-07-03 13:03:56","20069231","2","6162240202","10.0000","270.0000","0.0000",
