"CreateDate","OrderNumber","LineNumber","ItemNumber","Quantity","Price","DiscountPercent",
"2012-07-04 08:32:12","20069260","1","6165359801","60.0000","60.0000","0.0000",
"2012-07-04 08:32:12","20069260","2","6164358101","60.0000","100.0000","0.0000",
