"CreateDate","OrderNumber","LineNumber","ItemNumber","Quantity","Price","DiscountPercent",
"2012-07-04 08:46:20","20069262","1","6163141101","61.0000","40.0000","40.0000",
"2012-07-04 08:46:20","20069262","2","6162699801","54.0000","140.0000","40.0000",
"2012-07-04 08:46:20","20069262","3","6163434401","50.0000","110.0000","40.0000",
"2012-07-04 08:46:20","20069262","4","6163035301","50.0000","75.0000","40.0000",
