"CreateDate","OrderNumber","LineNumber","ItemNumber","Quantity","Price","DiscountPercent",
"2012-07-05 09:15:18","20069314","1","6162545803","28.0000","288.0000","0.0000",
"2012-07-05 09:15:18","20069314","2","6162546502","28.0000","248.0000","0.0000",
"2012-07-05 09:15:18","20069314","3","6162711702","28.0000","130.0000","0.0000",
"2012-07-05 09:15:18","20069314","4","6163518101","25.0000","55.0000","0.0000",
"2012-07-05 09:15:18","20069314","5","6164487902","95.0000","90.0000","0.0000",
"2012-07-05 09:15:18","20069314","6","6161529301","15.0000","360.0000","0.0000",
"2012-07-05 09:15:18","20069314","7","6163590701","10.0000","294.0000","0.0000",
"2012-07-05 09:15:18","20069314","8","6162249502","25.0000","196.0000","0.0000",
"2012-07-05 09:15:18","20069314","9","6162709404","90.0000","96.0000","0.0000",
"2012-07-05 09:15:18","20069314","10","6161201402","30.0000","180.0000","0.0000",
"2012-07-05 09:15:18","20069314","11","6161382001","25.0000","110.0000","0.0000",
"2012-07-05 09:15:18","20069314","12","6161800902","30.0000","95.0000","0.0000",
"2012-07-05 09:15:18","20069314","13","6163043801","120.0000","109.5000","40.0000",
