"CreateDate","OrderNumber","LineNumber","ItemNumber","Quantity","Price","DiscountPercent",
"2012-07-05 09:42:09","20069319","1","6161163808","55.0000","132.0000","0.0000",
"2012-07-05 09:42:09","20069319","2","6163294401","50.0000","60.0000","40.0000",
