"CreateDate","OrderNumber","LineNumber","ItemNumber","Quantity","Price","DiscountPercent",
"2012-07-05 09:25:35","20069316","1","6162951701","190.0000","80.0000","40.0000",
"2012-07-05 09:25:35","20069316","2","6164094901","58.0000","91.0000","40.0000",
"2012-07-05 09:25:35","20069316","3","6164120501","125.0000","117.0000","40.0000",
