"CreateDate","OrderNumber","LineNumber","ItemNumber","Quantity","Price","DiscountPercent",
"2012-07-05 11:17:43","20069332","1","6163455901","1.0000","76.0000","0.0000",
"2012-07-05 11:17:43","20069332","2","6161293602","1.0000","78.0000","0.0000",
"2012-07-05 11:17:43","20069332","3","6161401702","1.0000","78.0000","0.0000",
