"CreateDate","OrderNumber","LineNumber","ItemNumber","Quantity","Price","DiscountPercent",
"2012-07-06 08:51:45","20069356","1","6162494902","44.0000","260.0000","0.0000",
"2012-07-06 08:51:45","20069356","2","6162626401","48.0000","130.0000","0.0000",
"2012-07-06 08:51:45","20069356","3","6162477201","49.0000","260.0000","0.0000",
"2012-07-06 08:51:45","20069356","4","6162627101","48.0000","130.0000","0.0000",
"2012-07-06 08:51:45","20069356","5","6162931901","55.0000","370.0000","0.0000",
"2012-07-06 08:51:45","20069356","6","6162620202","10.0000","360.0000","0.0000",
"2012-07-06 08:51:45","20069356","7","6162610301","48.0000","288.0000","0.0000",
"2012-07-06 08:51:45","20069356","8","6162613401","48.0000","148.0000","0.0000",
"2012-07-06 08:51:45","20069356","9","6162609702","20.0000","288.0000","0.0000",
"2012-07-06 08:51:45","20069356","10","6162565602","20.0000","348.0000","0.0000",
"2012-07-06 08:51:45","20069356","11","6162611001","28.0000","176.0000","0.0000",
