"CreateDate","OrderNumber","LineNumber","ItemNumber","Quantity","Price","DiscountPercent",
"2012-07-06 09:26:25","20069358","1","6164236301","35.0000","30.0000","0.0000",
"2012-07-06 09:26:25","20069358","2","6164235601","48.0000","30.0000","0.0000",
"2012-07-06 09:26:25","20069358","3","6163030801","14.0000","161.0000","0.0000",
"2012-07-06 09:26:25","20069358","4","6163179401","50.0000","45.0000","40.0000",
"2012-07-06 09:26:25","20069358","5","6163161901","26.0000","90.0000","0.0000",
"2012-07-06 09:26:25","20069358","6","6163009401","26.0000","74.5000","0.0000",
"2012-07-06 09:26:25","20069358","7","6163511201","50.0000","40.0000","40.0000",
"2012-07-06 09:26:25","20069358","8","6163498601","50.0000","45.0000","40.0000",
