"CreateDate","OrderNumber","LineNumber","ItemNumber","Quantity","Price","DiscountPercent",
"2012-07-09 08:10:19","20069408","1","6162623301","1.0000","50.0000","0.0000",
"2012-07-09 08:10:19","20069408","2","6161759803","1.0000","110.0000","0.0000",
"2012-07-09 08:10:19","20069408","3","6162419201","1.0000","110.0000","0.0000",
"2012-07-09 08:10:19","20069408","4","6162528101","1.0000","200.0000","0.0000",
