"CreateDate","OrderNumber","LineNumber","ItemNumber","Quantity","Price","DiscountPercent",
"2012-07-10 21:53:23","20069452","1","6162365205","1.0000","110.0000","0.0000",
"2012-07-10 21:53:23","20069452","2","6162562505","1.0000","70.0000","0.0000",
