"CreateDate","OrderNumber","LineNumber","ItemNumber","Quantity","Price","DiscountPercent",
"2012-07-15 17:23:57","20069502","1","6162260001","1.0000","170.0000","0.0000",
"2012-07-15 17:23:57","20069502","2","6161481501","1.0000","350.0000","0.0000",
