"CreateDate","OrderNumber","LineNumber","ItemNumber","Quantity","Price","DiscountPercent",
"2012-07-17 07:12:12","20069523","1","6162794001","122.0000","216.0000","40.0000",
"2012-07-17 07:12:12","20069523","2","6163162601","50.0000","162.0000","40.0000",
