"CreateDate","OrderNumber","LineNumber","ItemNumber","Quantity","Price","DiscountPercent",
"2012-07-19 10:56:55","20069555","1","6160925001","1.0000","196.0000","0.0000",
"2012-07-19 10:56:55","20069555","2","6162583001","1.0000","90.0000","0.0000",
