"CreateDate","OrderNumber","LineNumber","ItemNumber","Quantity","Price","DiscountPercent",
"2012-07-20 08:47:16","20069566","1","6162799501","1.0000","120.0000","0.0000",
"2012-07-20 08:47:16","20069566","2","6164930001","1.0000","37.0000","0.0000",
"2012-07-20 08:47:16","20069566","3","6164870901","1.0000","37.0000","0.0000",
"2012-07-20 08:47:16","20069566","4","6164898301","1.0000","24.0000","0.0000",
