"CreateDate","OrderNumber","LineNumber","ItemNumber","Quantity","Price","DiscountPercent",
"2012-07-21 16:08:52","20069578","1","6164261501","1.0000","380.0000","0.0000",
"2012-07-21 16:08:52","20069578","2","6164249301","1.0000","290.0000","0.0000",
