"CreateDate","OrderNumber","LineNumber","ItemNumber","Quantity","Price","DiscountPercent",
"2012-07-26 11:16:17","20069635","1","6162852701","1.0000","200.0000","0.0000",
"2012-07-26 11:16:17","20069635","2","6162932601","1.0000","200.0000","0.0000",
"2012-07-26 11:16:17","20069635","3","6162933301","1.0000","200.0000","0.0000",
"2012-07-26 11:16:17","20069635","4","6162240202","1.0000","270.0000","0.0000",
