"CreateDate","OrderNumber","LineNumber","ItemNumber","Quantity","Price","DiscountPercent",
"2012-07-26 08:19:35","20069631","1","6165100601","1.0000","0.0000","0.0000",
"2012-07-26 08:19:35","20069631","2","6165099301","1.0000","0.0000","0.0000",
"2012-07-26 08:19:35","20069631","3","6165097901","1.0000","0.0000","0.0000",
"2012-07-26 08:19:35","20069631","4","6165095501","1.0000","0.0000","0.0000",
"2012-07-26 08:19:35","20069631","5","6164939301","1.0000","0.0000","0.0000",
"2012-07-26 08:19:35","20069631","6","6165098601","1.0000","0.0000","0.0000",
