"CreateDate","OrderNumber","LineNumber","ItemNumber","Quantity","Price","DiscountPercent",
"2012-07-26 11:39:27","20069637","1","6163173201","120.0000","40.0000","40.0000",
"2012-07-26 11:39:27","20069637","2","6163544001","50.0000","65.0000","40.0000",
