"CreateDate","OrderNumber","LineNumber","ItemNumber","Quantity","Price","DiscountPercent",
"2012-07-30 06:56:27","20069673","1","6165117401","1.0000","30.0000","0.0000",
"2012-07-30 06:56:27","20069673","2","6165116701","1.0000","40.0000","0.0000",
"2012-07-30 06:56:27","20069673","3","6165113601","1.0000","50.0000","0.0000",
"2012-07-30 06:56:27","20069673","4","6165112901","1.0000","70.0000","0.0000",
"2012-07-30 06:56:27","20069673","5","6164863101","1.0000","90.0000","0.0000",
"2012-07-30 06:56:27","20069673","6","6165114301","1.0000","76.0000","0.0000",
