"CreateDate","OrderNumber","LineNumber","ItemNumber","Quantity","Price","DiscountPercent",
"2012-07-31 19:48:06","20069769","1","6163537201","1.0000","68.0000","0.0000",
"2012-07-31 19:48:06","20069769","2","6162255602","1.0000","160.0000","0.0000",
