"CreateDate","OrderNumber","LineNumber","ItemNumber","Quantity","Price","DiscountPercent",
"2012-08-01 15:14:28","20069805","1","6163049001","1.0000","33.5000","0.0000",
"2012-08-01 15:14:28","20069805","2","6163294401","1.0000","60.0000","0.0000",
