"CreateDate","OrderNumber","LineNumber","ItemNumber","Quantity","Price","DiscountPercent",
"2012-08-02 09:26:02","20069819","1","6162234101","1.0000","190.0000","0.0000",
"2012-08-02 09:26:02","20069819","2","6162291402","1.0000","100.0000","0.0000",
"2012-08-02 09:26:02","20069819","3","6162270901","1.0000","196.0000","0.0000",
"2012-08-02 09:26:02","20069819","4","6161692001","1.0000","118.0000","0.0000",
"2012-08-02 09:26:02","20069819","5","6161795401","1.0000","196.0000","0.0000",
