"CreateDate","OrderNumber","LineNumber","ItemNumber","Quantity","Price","DiscountPercent",
"2012-08-02 11:01:57","20069829","1","6165501101","1.0000","15.0000","0.0000",
"2012-08-02 11:01:57","20069829","2","6165376501","1.0000","30.0000","0.0000",
"2012-08-02 11:01:57","20069829","3","6165443401","1.0000","30.0000","0.0000",
"2012-08-02 11:01:57","20069829","4","6165377201","1.0000","15.0000","0.0000",
"2012-08-02 11:01:57","20069829","5","6165446501","1.0000","25.0000","0.0000",
"2012-08-02 11:01:57","20069829","6","6165382601","1.0000","22.0000","0.0000",
"2012-08-02 11:01:57","20069829","7","6165448901","1.0000","30.0000","0.0000",
"2012-08-02 11:01:57","20069829","8","6165449601","1.0000","30.0000","0.0000",
"2012-08-02 11:01:57","20069829","9","6165500401","1.0000","27.0000","0.0000",
"2012-08-02 11:01:57","20069829","10","6165451901","1.0000","60.0000","0.0000",
"2012-08-02 11:01:57","20069829","11","6165452601","1.0000","50.0000","0.0000",
"2012-08-02 11:01:57","20069829","12","6165450201","1.0000","70.0000","0.0000",
"2012-08-02 11:01:57","20069829","13","6165455701","1.0000","31.0000","0.0000",
"2012-08-02 11:01:57","20069829","14","6165453301","1.0000","27.0000","0.0000",
"2012-08-02 11:01:57","20069829","15","6165398701","1.0000","13.0000","0.0000",
