"CreateDate","OrderNumber","LineNumber","ItemNumber","Quantity","Price","DiscountPercent",
"2012-08-03 08:44:40","20069866","1","6162630102","30.0000","360.0000","0.0000",
"2012-08-03 08:44:40","20069866","2","6162371301","60.0000","370.0000","0.0000",
"2012-08-03 08:44:40","20069866","3","6162612702","40.0000","148.0000","0.0000",
