"CreateDate","OrderNumber","LineNumber","ItemNumber","Quantity","Price","DiscountPercent",
"2012-08-05 10:10:33","20069914","1","6161079804","1.0000","325.0000","0.0000",
"2012-08-05 10:10:33","20069914","2","6161155705","1.0000","164.0000","0.0000",
