"CreateDate","OrderNumber","LineNumber","ItemNumber","Quantity","Price","DiscountPercent",
"2012-08-06 11:13:28","20069972","1","6164862401","1.0000","130.0000","0.0000",
"2012-08-06 11:13:28","20069972","2","6164249301","1.0000","290.0000","0.0000",
