"CreateDate","OrderNumber","LineNumber","ItemNumber","Quantity","Price","DiscountPercent",
"2012-08-06 20:02:15","20070014","1","6164714601","3.0000","180.0000","0.0000",
"2012-08-06 20:02:15","20070014","2","6163682901","14.0000","45.0000","0.0000",
