"CreateDate","OrderNumber","LineNumber","ItemNumber","Quantity","Price","DiscountPercent",
"2012-08-07 09:27:01","20070037","1","6161163808","1.0000","132.0000","0.0000",
"2012-08-07 09:27:01","20070037","2","6161161103","1.0000","250.0000","0.0000",
