"CreateDate","OrderNumber","LineNumber","ItemNumber","Quantity","Price","DiscountPercent",
"2012-08-07 10:12:39","20070045","1","6162946301","32.0000","75.0000","0.0000",
"2012-08-07 10:12:39","20070045","2","6160930406","16.0000","330.0000","0.0000",
"2012-08-07 10:12:39","20070045","3","6162516801","6.0000","220.0000","0.0000",
