"CreateDate","OrderNumber","LineNumber","ItemNumber","Quantity","Price","DiscountPercent",
"2012-08-07 12:23:37","20070080","1","6161395903","14.0000","225.0000","0.0000",
"2012-08-07 12:23:37","20070080","2","6161764402","7.0000","120.0000","0.0000",
"2012-08-07 12:23:37","20070080","3","6164234901","6.0000","220.0000","0.0000",
