"CreateDate","OrderNumber","LineNumber","ItemNumber","Quantity","Price","DiscountPercent",
"2012-08-07 13:09:28","20070087","1","6162558801","1.0000","67.0000","0.0000",
"2012-08-07 13:09:28","20070087","2","6163194701","1.0000","53.0000","0.0000",
