"CreateDate","OrderNumber","LineNumber","ItemNumber","Quantity","Price","DiscountPercent",
"2012-08-07 19:54:53","20070112","1","6164887701","1.0000","30.2500","0.0000",
"2012-08-07 19:54:53","20070112","2","6165370301","1.0000","31.0000","0.0000",
