"CreateDate","OrderNumber","LineNumber","ItemNumber","Quantity","Price","DiscountPercent",
"2012-08-08 06:18:48","20070120","1","6162547202","10.0000","288.0000","0.0000",
"2012-08-08 06:18:48","20070120","2","6162712402","10.0000","120.0000","0.0000",
