"CreateDate","OrderNumber","LineNumber","ItemNumber","Quantity","Price","DiscountPercent",
"2012-08-08 09:09:56","20070146","1","6162545803","80.0000","288.0000","0.0000",
"2012-08-08 09:09:56","20070146","2","6162546502","70.0000","248.0000","0.0000",
