"CreateDate","OrderNumber","LineNumber","ItemNumber","Quantity","Price","DiscountPercent",
"2012-08-08 10:12:37","20070173","1","6162815202","15.0000","275.0000","0.0000",
"2012-08-08 10:12:37","20070173","2","6161469605","15.0000","190.0000","0.0000",
