"CreateDate","OrderNumber","LineNumber","ItemNumber","Quantity","Price","DiscountPercent",
"2012-08-08 12:31:30","20070208","1","6161698202","10.0000","195.0000","0.0000",
"2012-08-08 12:31:30","20070208","2","6162709404","31.0000","96.0000","0.0000",
