"CreateDate","OrderNumber","LineNumber","ItemNumber","Quantity","Price","DiscountPercent",
"2012-08-08 13:35:59","20070219","1","6162667702","1.0000","320.0000","0.0000",
"2012-08-08 13:35:59","20070219","2","6162857202","1.0000","160.0000","0.0000",
