"CreateDate","OrderNumber","LineNumber","ItemNumber","Quantity","Price","DiscountPercent",
"2012-08-09 05:53:39","20070246","1","6162610301","16.0000","288.0000","0.0000",
"2012-08-09 05:53:39","20070246","2","6162609702","16.0000","288.0000","0.0000",
