"CreateDate","OrderNumber","LineNumber","ItemNumber","Quantity","Price","DiscountPercent",
"2012-08-09 08:36:50","20070275","1","6165008501","6.0000","14.0000","0.0000",
"2012-08-09 08:36:50","20070275","2","6165679701","6.0000","14.0000","0.0000",
"2012-08-09 08:36:50","20070275","3","6165013901","6.0000","14.0000","0.0000",
