"CreateDate","OrderNumber","LineNumber","ItemNumber","Quantity","Price","DiscountPercent",
"2012-08-09 09:07:35","20070286","1","6162667702","1.0000","320.0000","0.0000",
"2012-08-09 09:07:35","20070286","2","6162857202","1.0000","160.0000","0.0000",
