"CreateDate","OrderNumber","LineNumber","ItemNumber","Quantity","Price","DiscountPercent",
"2012-08-09 11:26:12","20070325","1","6162907401","27.0000","70.0000","0.0000",
"2012-08-09 11:26:12","20070325","2","6162908101","27.0000","48.0000","0.0000",
