"CreateDate","OrderNumber","LineNumber","ItemNumber","Quantity","Price","DiscountPercent",
"2012-08-09 11:53:32","20070338","1","6163036001","5.0000","90.0000","0.0000",
"2012-08-09 11:53:32","20070338","2","6163434401","4.0000","80.0000","0.0000",
