"CreateDate","OrderNumber","LineNumber","ItemNumber","Quantity","Price","DiscountPercent",
"2012-08-09 12:46:17","20070352","1","6162965401","47.0000","75.0000","0.0000",
"2012-08-09 12:46:17","20070352","2","6162966101","55.0000","85.0000","0.0000",
"2012-08-09 12:46:17","20070352","3","6162777301","55.0000","30.0000","0.0000",
