"CreateDate","OrderNumber","LineNumber","ItemNumber","Quantity","Price","DiscountPercent",
"2012-08-09 13:09:06","20070362","1","6162026203","7.0000","170.0000","0.0000",
"2012-08-09 13:09:06","20070362","2","6161473403","7.0000","250.0000","0.0000",
