"CreateDate","OrderNumber","LineNumber","ItemNumber","Quantity","Price","DiscountPercent",
"2012-08-10 08:57:44","20070426","1","6162669101","1.0000","190.0000","0.0000",
"2012-08-10 08:57:44","20070426","2","6161795401","1.0000","196.0000","0.0000",
"2012-08-10 08:57:44","20070426","3","6161953101","1.0000","196.0000","0.0000",
"2012-08-10 08:57:44","20070426","4","7783881503","1.0000","200.0000","0.0000",
"2012-08-10 08:57:44","20070426","5","6162291402","1.0000","100.0000","0.0000",
"2012-08-10 08:57:44","20070426","6","6162123801","1.0000","165.0000","0.0000",
"2012-08-10 08:57:44","20070426","7","6164245501","1.0000","220.0000","0.0000",
