"CreateDate","OrderNumber","LineNumber","ItemNumber","Quantity","Price","DiscountPercent",
"2012-08-10 10:01:19","20070453","1","6161181606","1.0000","280.0000","0.0000",
"2012-08-10 10:01:19","20070453","2","6160553002","1.0000","260.0000","0.0000",
