"CreateDate","OrderNumber","LineNumber","ItemNumber","Quantity","Price","DiscountPercent",
"2012-08-10 10:47:04","20070465","1","6162609702","20.0000","288.0000","0.0000",
"2012-08-10 10:47:04","20070465","2","6162611001","15.0000","176.0000","0.0000",
