"CreateDate","OrderNumber","LineNumber","ItemNumber","Quantity","Price","DiscountPercent",
"2012-08-11 16:29:30","20070541","1","6164887701","1.0000","30.2500","0.0000",
"2012-08-11 16:29:30","20070541","2","6165370301","1.0000","31.0000","0.0000",
