"CreateDate","OrderNumber","LineNumber","ItemNumber","Quantity","Price","DiscountPercent",
"2012-08-11 20:53:40","20070547","1","6161132102","1.0000","378.0000","0.0000",
"2012-08-11 20:53:40","20070547","2","6163063601","1.0000","156.0000","0.0000",
