"CreateDate","OrderNumber","LineNumber","ItemNumber","Quantity","Price","DiscountPercent",
"2012-08-13 06:56:00","20070618","1","6162700101","1.0000","120.0000","0.0000",
"2012-08-13 06:56:00","20070618","2","6164021501","1.0000","120.0000","0.0000",
