"CreateDate","OrderNumber","LineNumber","ItemNumber","Quantity","Price","DiscountPercent",
"2012-08-13 08:58:41","20070651","1","6164865501","30.0000","230.0000","0.0000",
"2012-08-13 08:58:41","20070651","2","6161062303","10.0000","290.0000","0.0000",
