"CreateDate","OrderNumber","LineNumber","ItemNumber","Quantity","Price","DiscountPercent",
"2012-08-13 10:27:41","20070697","1","6161395903","60.0000","225.0000","0.0000",
"2012-08-13 10:27:41","20070697","2","6161764402","60.0000","120.0000","0.0000",
