"CreateDate","OrderNumber","LineNumber","ItemNumber","Quantity","Price","DiscountPercent",
"2012-08-13 13:10:09","20070778","1","6161259602","1.0000","140.0000","0.0000",
"2012-08-13 13:10:09","20070778","2","6162419201","1.0000","110.0000","0.0000",
