"CreateDate","OrderNumber","LineNumber","ItemNumber","Quantity","Price","DiscountPercent",
"2012-08-13 14:49:14","20070816","1","6162821301","37.0000","138.0000","0.0000",
"2012-08-13 14:49:14","20070816","2","6161137902","75.0000","288.0000","0.0000",
"2012-08-13 14:49:14","20070816","3","6160534406","37.0000","190.0000","0.0000",
"2012-08-13 14:49:14","20070816","4","6164867901","35.0000","24.5000","0.0000",
"2012-08-13 14:49:14","20070816","5","6164550001","70.0000","40.0000","0.0000",
