"CreateDate","OrderNumber","LineNumber","ItemNumber","Quantity","Price","DiscountPercent",
"2012-08-13 17:27:05","20070830","1","6162945601","19.0000","60.0000","0.0000",
"2012-08-13 17:27:05","20070830","2","6160930406","1.0000","330.0000","0.0000",
