"CreateDate","OrderNumber","LineNumber","ItemNumber","Quantity","Price","DiscountPercent",
"2012-08-14 06:47:00","20070880","1","6161311803","4.0000","300.0000","0.0000",
"2012-08-14 06:47:00","20070880","2","6161465303","4.0000","170.0000","0.0000",
"2012-08-14 06:47:00","20070880","3","6161706401","5.0000","310.0000","0.0000",
