"CreateDate","OrderNumber","LineNumber","ItemNumber","Quantity","Price","DiscountPercent",
"2012-08-14 08:18:10","20070915","1","6162667702","1.0000","320.0000","0.0000",
"2012-08-14 08:18:10","20070915","2","6162857202","1.0000","160.0000","0.0000",
