"CreateDate","OrderNumber","LineNumber","ItemNumber","Quantity","Price","DiscountPercent",
"2012-08-14 09:12:23","20070949","1","6162667702","1.0000","320.0000","0.0000",
"2012-08-14 09:12:23","20070949","2","6162857202","1.0000","160.0000","0.0000",
