"CreateDate","OrderNumber","LineNumber","ItemNumber","Quantity","Price","DiscountPercent",
"2012-08-14 10:21:56","20070969","1","6161678801","1.0000","100.0000","0.0000",
"2012-08-14 10:21:56","20070969","2","6162261701","1.0000","30.0000","0.0000",
"2012-08-14 10:21:56","20070969","3","6165482301","1.0000","33.0000","0.0000",
