"CreateDate","OrderNumber","LineNumber","ItemNumber","Quantity","Price","DiscountPercent",
"2012-08-14 09:59:03","20070967","1","6163828101","2.0000","50.0000","0.0000",
"2012-08-14 09:59:03","20070967","2","6164085701","2.0000","50.0000","0.0000",
"2012-08-14 09:59:03","20070967","3","6164063501","2.0000","50.0000","0.0000",
"2012-08-14 09:59:03","20070967","4","6165097901","2.0000","25.0000","0.0000",
"2012-08-14 09:59:03","20070967","5","6161130105","2.0000","160.0000","0.0000",
"2012-08-14 09:59:03","20070967","6","6161313404","2.0000","245.0000","0.0000",
"2012-08-14 09:59:03","20070967","7","6161395903","2.0000","225.0000","0.0000",
