"CreateDate","OrderNumber","LineNumber","ItemNumber","Quantity","Price","DiscountPercent",
"2012-08-14 10:55:53","20070982","1","6162699801","23.0000","100.0000","0.0000",
"2012-08-14 10:55:53","20070982","2","6162863301","23.0000","80.0000","0.0000",
