"CreateDate","OrderNumber","LineNumber","ItemNumber","Quantity","Price","DiscountPercent",
"2012-08-15 06:24:00","20071124","1","6162907401","1.0000","70.0000","0.0000",
"2012-08-15 06:24:00","20071124","2","6162908101","1.0000","48.0000","0.0000",
