"CreateDate","OrderNumber","LineNumber","ItemNumber","Quantity","Price","DiscountPercent",
"2012-08-15 06:43:04","20071132","1","6164358101","24.0000","100.0000","0.0000",
"2012-08-15 06:43:04","20071132","2","6165359801","24.0000","60.0000","0.0000",
"2012-08-15 06:43:04","20071132","3","6164938601","24.0000","50.0000","0.0000",
