"CreateDate","OrderNumber","LineNumber","ItemNumber","Quantity","Price","DiscountPercent",
"2012-08-15 10:00:22","20071216","1","6161495704","60.0000","220.0000","0.0000",
"2012-08-15 10:00:22","20071216","2","6162279201","31.0000","218.0000","0.0000",
