"CreateDate","OrderNumber","LineNumber","ItemNumber","Quantity","Price","DiscountPercent",
"2012-08-15 13:56:00","20071319","1","6163871701","5.0000","29.0000","0.0000",
"2012-08-15 13:56:00","20071319","2","6162370601","10.0000","80.0000","0.0000",
"2012-08-15 13:56:00","20071319","3","6162794001","10.0000","216.0000","0.0000",
"2012-08-15 13:56:00","20071319","4","6162698101","30.0000","263.0000","0.0000",
"2012-08-15 13:56:00","20071319","5","6162792601","20.0000","280.0000","0.0000",
"2012-08-15 13:56:00","20071319","6","7783401109","10.0000","190.0000","0.0000",
