"CreateDate","OrderNumber","LineNumber","ItemNumber","Quantity","Price","DiscountPercent",
"2012-08-15 14:41:26","20071332","1","6161408401","1.0000","75.0000","0.0000",
"2012-08-15 14:41:26","20071332","2","6161474201","1.0000","43.0000","0.0000",
