"CreateDate","OrderNumber","LineNumber","ItemNumber","Quantity","Price","DiscountPercent",
"2012-08-15 17:52:03","20071361","1","6160993502","38.0000","190.0000","0.0000",
"2012-08-15 17:52:03","20071361","2","6162669101","30.0000","190.0000","0.0000",
"2012-08-15 17:52:03","20071361","3","6162291402","30.0000","100.0000","0.0000",
