"CreateDate","OrderNumber","LineNumber","ItemNumber","Quantity","Price","DiscountPercent",
"2012-08-16 06:38:47","20071423","1","6160837805","6.0000","148.0000","0.0000",
"2012-08-16 06:38:47","20071423","2","7783897105","11.0000","320.0000","0.0000",
