"CreateDate","OrderNumber","LineNumber","ItemNumber","Quantity","Price","DiscountPercent",
"2012-08-16 07:22:18","20071440","1","6162925801","1.0000","148.0000","0.0000",
"2012-08-16 07:22:18","20071440","2","6160700201","18.0000","110.0000","0.0000",
"2012-08-16 07:22:18","20071440","3","6161492001","1.0000","80.0000","0.0000",
"2012-08-16 07:22:18","20071440","4","6162509001","1.0000","100.0000","0.0000",
"2012-08-16 07:22:18","20071440","5","6162819001","1.0000","96.0000","0.0000",
"2012-08-16 07:22:18","20071440","6","7783618905","1.0000","110.0000","0.0000",
