"CreateDate","OrderNumber","LineNumber","ItemNumber","Quantity","Price","DiscountPercent",
"2012-08-16 08:19:56","20071464","1","6161759803","1.0000","110.0000","0.0000",
"2012-08-16 08:19:56","20071464","2","6161329006","1.0000","320.0000","0.0000",
