"CreateDate","OrderNumber","LineNumber","ItemNumber","Quantity","Price","DiscountPercent",
"2012-08-16 08:51:35","20071484","1","6162699801","30.0000","100.0000","0.0000",
"2012-08-16 08:51:35","20071484","2","6162817601","30.0000","110.0000","0.0000",
"2012-08-16 08:51:35","20071484","3","6162863301","30.0000","80.0000","0.0000",
