"CreateDate","OrderNumber","LineNumber","ItemNumber","Quantity","Price","DiscountPercent",
"2012-08-16 09:13:00","20071491","1","6163391001","30.0000","80.0000","0.0000",
"2012-08-16 09:13:00","20071491","2","6163385901","5.0000","60.0000","0.0000",
"2012-08-16 09:13:00","20071491","3","6164320901","30.0000","60.0000","0.0000",
"2012-08-16 09:13:00","20071491","4","6164289901","5.0000","40.0000","0.0000",
"2012-08-16 09:13:00","20071491","5","6163294401","30.0000","80.0000","0.0000",
"2012-08-16 09:13:00","20071491","6","6164281301","5.0000","48.0000","0.0000",
