"CreateDate","OrderNumber","LineNumber","ItemNumber","Quantity","Price","DiscountPercent",
"2012-08-16 09:54:15","20071513","1","6161231601","1.0000","80.0000","0.0000",
"2012-08-16 09:54:15","20071513","2","6161759803","1.0000","110.0000","0.0000",
