"CreateDate","OrderNumber","LineNumber","ItemNumber","Quantity","Price","DiscountPercent",
"2012-08-16 13:23:18","20071612","1","6162720901","28.0000","265.0000","0.0000",
"2012-08-16 13:23:18","20071612","2","6162372001","1.0000","140.0000","0.0000",
"2012-08-16 13:23:18","20071612","3","6161130105","28.0000","160.0000","0.0000",
