"CreateDate","OrderNumber","LineNumber","ItemNumber","Quantity","Price","DiscountPercent",
"2012-08-16 12:58:36","20071603","1","6160930406","1.0000","330.0000","0.0000",
"2012-08-16 12:58:36","20071603","2","6162329402","2.0000","290.0000","0.0000",
