"CreateDate","OrderNumber","LineNumber","ItemNumber","Quantity","Price","DiscountPercent",
"2012-08-16 13:19:25","20071609","1","9271100701","1.0000","276.0000","0.0000",
"2012-08-16 13:19:25","20071609","2","9271134201","1.0000","0.0000","0.0000",
