"CreateDate","OrderNumber","LineNumber","ItemNumber","Quantity","Price","DiscountPercent",
"2012-08-16 14:12:57","20071633","1","6162041503","15.0000","150.0000","0.0000",
"2012-08-16 14:12:57","20071633","2","6164867901","15.0000","24.5000","0.0000",
