"CreateDate","OrderNumber","LineNumber","ItemNumber","Quantity","Price","DiscountPercent",
"2012-08-17 08:03:40","20071732","1","6163217301","250.0000","28.0000","40.0000",
"2012-08-17 08:03:40","20071732","2","6163219701","10.0000","50.0000","40.0000",
