"CreateDate","OrderNumber","LineNumber","ItemNumber","Quantity","Price","DiscountPercent",
"2012-08-17 09:08:12","20071764","1","6163217301","22.0000","28.0000","0.0000",
"2012-08-17 09:08:12","20071764","2","6164380301","22.0000","21.0000","0.0000",
