"CreateDate","OrderNumber","LineNumber","ItemNumber","Quantity","Price","DiscountPercent",
"2012-08-17 09:25:51","20071775","1","6161134402","8.0000","250.0000","0.0000",
"2012-08-17 09:25:51","20071775","2","6161489001","9.0000","60.0000","0.0000",
