"CreateDate","OrderNumber","LineNumber","ItemNumber","Quantity","Price","DiscountPercent",
"2012-08-17 11:54:08","20071833","1","6162329402","1.0000","290.0000","0.0000",
"2012-08-17 11:54:08","20071833","2","6162243302","1.0000","160.0000","0.0000",
