"CreateDate","OrderNumber","LineNumber","ItemNumber","Quantity","Price","DiscountPercent",
"2012-08-17 18:23:05","20071868","1","6165473101","1.0000","30.0000","0.0000",
"2012-08-17 18:23:05","20071868","2","6165100601","1.0000","15.0000","0.0000",
