"CreateDate","OrderNumber","LineNumber","ItemNumber","Quantity","Price","DiscountPercent",
"2012-08-20 05:35:03","20072015","1","6162667702","1.0000","320.0000","0.0000",
"2012-08-20 05:35:03","20072015","2","6162857202","1.0000","160.0000","0.0000",
