"CreateDate","OrderNumber","LineNumber","ItemNumber","Quantity","Price","DiscountPercent",
"2012-08-20 07:36:59","20072035","1","6162565602","30.0000","348.0000","0.0000",
"2012-08-20 07:36:59","20072035","2","6162611001","30.0000","176.0000","0.0000",
"2012-08-20 07:36:59","20072035","3","6161351703","25.0000","280.0000","0.0000",
"2012-08-20 07:36:59","20072035","4","6161511003","25.0000","100.0000","0.0000",
