"CreateDate","OrderNumber","LineNumber","ItemNumber","Quantity","Price","DiscountPercent",
"2012-08-20 07:55:51","20072044","1","6162945601","6.0000","60.0000","0.0000",
"2012-08-20 07:55:51","20072044","2","6163060501","30.0000","80.0000","0.0000",
