"CreateDate","OrderNumber","LineNumber","ItemNumber","Quantity","Price","DiscountPercent",
"2012-08-20 09:02:36","20072076","1","6162907401","21.0000","70.0000","0.0000",
"2012-08-20 09:02:36","20072076","2","6162908101","21.0000","48.0000","0.0000",
