"CreateDate","OrderNumber","LineNumber","ItemNumber","Quantity","Price","DiscountPercent",
"2012-08-20 09:01:50","20072075","1","6162715502","5.0000","200.0000","0.0000",
"2012-08-20 09:01:50","20072075","2","6162565602","6.0000","348.0000","0.0000",
"2012-08-20 09:01:50","20072075","3","6162611001","6.0000","176.0000","0.0000",
