"CreateDate","OrderNumber","LineNumber","ItemNumber","Quantity","Price","DiscountPercent",
"2012-08-20 12:51:35","20072174","1","9271100701","1.0000","276.0000","0.0000",
"2012-08-20 12:51:35","20072174","2","9271134201","1.0000","0.0000","0.0000",
