"CreateDate","OrderNumber","LineNumber","ItemNumber","Quantity","Price","DiscountPercent",
"2012-08-20 13:55:00","20072197","1","6161169704","2.0000","130.0000","0.0000",
"2012-08-20 13:55:00","20072197","2","6160837805","2.0000","148.0000","0.0000",
