"CreateDate","OrderNumber","LineNumber","ItemNumber","Quantity","Price","DiscountPercent",
"2012-08-21 06:45:04","20072250","1","6162612702","10.0000","148.0000","0.0000",
"2012-08-21 06:45:04","20072250","2","6162565602","10.0000","348.0000","0.0000",
"2012-08-21 06:45:04","20072250","3","6162609702","10.0000","288.0000","0.0000",
"2012-08-21 06:45:04","20072250","4","6162611001","10.0000","176.0000","0.0000",
