"CreateDate","OrderNumber","LineNumber","ItemNumber","Quantity","Price","DiscountPercent",
"2012-08-21 08:01:09","20072273","1","6162041503","200.0000","100.0000","0.0000",
"2012-08-21 08:01:09","20072273","2","6160664202","35.0000","160.0000","0.0000",
"2012-08-21 08:01:09","20072273","3","6162583001","100.0000","70.0000","0.0000",
"2012-08-21 08:01:09","20072273","4","6162270901","30.0000","196.0000","0.0000",
"2012-08-21 08:01:09","20072273","5","6162822001","35.0000","188.0000","0.0000",
"2012-08-21 08:01:09","20072273","6","6163537201","28.0000","50.0000","0.0000",
"2012-08-21 08:01:09","20072273","7","6161296002","10.0000","188.0000","0.0000",
"2012-08-21 08:01:09","20072273","8","6164026001","60.0000","82.0000","0.0000",
"2012-08-21 08:01:09","20072273","9","6162839801","30.0000","220.0000","0.0000",
