"CreateDate","OrderNumber","LineNumber","ItemNumber","Quantity","Price","DiscountPercent",
"2012-08-21 10:53:10","20072358","1","6162545803","6.0000","288.0000","0.0000",
"2012-08-21 10:53:10","20072358","2","6162546502","9.0000","248.0000","0.0000",
"2012-08-21 10:53:10","20072358","3","6162711702","9.0000","130.0000","0.0000",
