"CreateDate","OrderNumber","LineNumber","ItemNumber","Quantity","Price","DiscountPercent",
"2012-08-21 11:48:44","20072390","1","6164487902","1.0000","90.0000","0.0000",
"2012-08-21 11:48:44","20072390","2","6162569401","1.0000","93.0000","0.0000",
