"CreateDate","OrderNumber","LineNumber","ItemNumber","Quantity","Price","DiscountPercent",
"2012-08-21 12:22:34","20072407","1","6161425401","2.0000","40.0000","0.0000",
"2012-08-21 12:22:34","20072407","2","6162166801","16.0000","10.0000","0.0000",
