"CreateDate","OrderNumber","LineNumber","ItemNumber","Quantity","Price","DiscountPercent",
"2012-08-21 13:49:29","20072441","1","6161030503","1.0000","330.0000","0.0000",
"2012-08-21 13:49:29","20072441","2","6161329006","1.0000","320.0000","0.0000",
