"CreateDate","OrderNumber","LineNumber","ItemNumber","Quantity","Price","DiscountPercent",
"2012-08-21 18:12:17","20072502","1","6162840401","1.0000","74.0000","0.0000",
"2012-08-21 18:12:17","20072502","2","6161227801","1.0000","68.0000","0.0000",
