"CreateDate","OrderNumber","LineNumber","ItemNumber","Quantity","Price","DiscountPercent",
"2012-08-22 06:57:28","20072568","1","6163748201","474.0000","120.0000","0.0000",
"2012-08-22 06:57:28","20072568","2","6164930001","57.0000","37.0000","0.0000",
