"Systime Sales","Systime Sales"
"Indkøbsoplysninger (OIO)","Indkøbsoplysninger (OIO)"
"EAN-lokationsnr.","EAN-lokationsnr."
"Ordrereference","Ordrereference"
"Internt konteringsnr. (IKO)","Internt konteringsnr. (IKO)"
"Personreference","Personreference"
"Item can only be purchaced by schools","Bemærk at denne vare kun kan købes af skoler"
"Add tax when Tax/VAT Number specified","Pålæg moms når ""Momsnummer"" er angivet"
"Exclude order status","Vis ikke orderstatus"
"Order statuses to exclude from Order History","Ordestatusser der ikke skal vises under ""Mine ordrer"""
"School only license types","School only license types"
"License types that only schools are allowed to purchase","License types that only schools are allowed to purchase"
"School only publication statuses","School only publication statuses"
"Publication statuses that only schools are allowed to purchase","Publication statuses that only schools are allowed to purchase"
"School only items CMS block (cart)","School only items CMS block (cart)"
"School only items CMS block (checkout)","School only items CMS block (checkout)"
"Release date confirmed","udkommer"
"Release date estimated","udkommer"
"Estimated publication date","udkommer"
