"sku","authors"
"61623522","Thomas Malthe Christensen"
"61614440","Morten Haase, René Mortensen, Kirsten Wissing"
"61622693","Birgitte Bjerre, Rikke Forsberg"
"77838394","Carl-Johan Bryld, Laurits Gregersen, David Nors Hansen, Jørn Ørum Hansen, Johnny Sørensen, Lars Thorup, Bent Windfeld"
"61612197","Tormod Hansen"
"61616338","Jørn Ingemann Knudsen"
"61612038","Vibeke Gade"
"73510769","Lisbeth Johansen"
"61600644","Olaf Søndberg"
"61614149","Astrid Helin"
"61616920","Michael Fallesen"
"77837878","Hardy Andersen, Birte Dahlgreen, Birgitte Zinn Lund, Peter Odel"
"61611204","Knud Erik Bang"
"61612995","Eva Liébana, Birgit Tengberg"
"61608742","Catherine Brejnholt, Marianne Grant"
"61610526","Carl-Johan Bryld"
"61610496","Hans Torben Gilkær"
"61615293","Peter Bregendal, Simon Nitschky Schmidt, Lars Vestergaard"
"61613452","Anne-Vibeke Bjergstrøm, Nils Arne Sørensen"
"61617652","Jens Carstensen, Jesper Frandsen, Jens Studsgaard Sørensen"
"61614391","Michael Rantzau-Meyer"
"61617598","Susanne Gram Larsen"
"73518484","Ejvind Dengsø"
"12033642","Peter Boile Nielsen"
"61615579","Torben Benoni, Finn Elvekjær"
"61611321","Johannes Fibiger, Sine Dalsgaard Kristensen, Gerd Lütken"
"61614270","Morten Brydensholt"
"77837576","Ole Schultz Larsen"
"61608971","Ole Laustsen"
"61613193","Mogens Bjerring-Hansen, Anders Bollerup, Laurits Gregersen, Peter Boile Nielsen"
"61614130","Allan Ahle, Stefan Emkjær, Peter Madsen"
"61615676","Inge Marie Bærentzen, Helga Nielsen, Stefanie Claudia Rasmussen"
"61606170","Georg Henrik von Wright"
"61601500","Georg Bank-Mikkelsen, Anne Skaarup Rasmussen"
"61614033","Jens Carstensen, Jesper Frandsen, Jens Studsgaard Sørensen"
"61607894","Knud Erik Bang, Kai Hansen, Anker Jacobsen, Marianne Poulsen, Gitte Størup, Jørgen Waarst"
"61612383","Dorte Fristrup, Steen Nørgaard, Erik Storm Rasmussen"
"61621706","Jens Studsgaard Sørensen"
"61611980","Conny Behrendt, Annalise Riis-Sørensen"
"61606898","Michael Pierce"
"61617687","Eva Liébana, Birgit Tengberg"
"61608793","Henrik Poulsen"
"73518832","Chris Plougheld"
"61616303","Hans Birger Jensen"
"61620279","Lene Sønderby Bech, Christian Nielsen"
"61621894","Svend Erik Lundgren, Rikke Willesen"
"61622052","Niels Laasholdt, Steen Sloth Olsen, Marianne Poulsen, Gitte Størup"
"61611433","René Mortensen, Vibeke Rasmussen"
"61609935","Anne Mette Finderup, Agnete Fog"
"61614815","Lene Sønderby Bech, Christian Nielsen"
"12197386","Allan C. Malmberg"
"61610321","Jesper Frandsen"
"61623768","Helle Hauge Bülow, Morten Winter Bülow, Thomas Malthe Christensen, Martin Marcussen, Georg Sørensen, Lasse Ørum Wikman"
"61610690","Dorte Fristrup, Steen Nørgaard, Erik Storm Rasmussen"
"61621242","Lene Lundsgaard, Svend Madsen"
"61601918","Jens Carstensen"
"61614939","Anders Dahl, Erik Erstrup, Rie Gravesen, Martin Houlind, Anders Lysne, Mimi Olsen, Jan Oxholm, Henrik Rytter, Hans Oluf Schou"
"61622396","Peter Riber"
"77837045","Jesper Frandsen"
"61614181","Jens Studsgaard Sørensen"
"61611700","Lene Sønderby Bech, Christian Nielsen"
"61611395","Benedikte Herold Jensen"
"61615285","Thomas Kølbæk"
"61607444","Steffen Mailand, Susan Mose"
"61614165","Jens Studsgaard Sørensen"
"61615668","Bendt Alster, Lene Andersen, Peter Andersen, Poul Andersen, Jes Asmussen, Una Canger, Vagn Duekilde, Erik Grinstead, Ove Hvidberg Hansen, Per Kværne, Olof Lindin, Christian Lindtner, Claus Lund, Lise Manniche, Tord Olsson, Klara Preben Hansen, Svend Søndergaard, Henrik Hjort Sørensen, Jørgen Podemann Sørensen, Per Kjeld Sørensen, Else Merethe Sundby-Sørensen, Magdolne Tatar, Morten Warmind"
"61612618","Lars Damkjær, Agnete Elmose, Anne Marie Halgren Eriksen, Finn Eriksen, Henrik Borg Jensen, Benedicte Kieler, Karen Thygesen"
"61612464","Knud Erik Bang, Kai Hansen, Marianne Poulsen, Gitte Størup, Jørgen Waarst"
"61603295","Systime A/S"
"61612391","Torben Svendsen, Uwe Timm"
"61612103","René Bühlmann, Dick Webb"
"61608033","René Bühlmann, Dick Webb"
"61613339","Bjarne Mørup"
"61615269","Jørgen Wildt Hansen, Anne Marie Heltoft, Helle Banke Thoregaard"
"61603058","Birgitte Bjerre, Annemarie Meyer Larsen, Michael Skjoldborg"
"61621351","Lene Lundsgaard, Svend Madsen"
"61621935","Mette Dinesen"
"61621559","Mads Christian Dagnis Jensen, Rikke Erhardi, Flemming Gräs, Rune Gregersen, Bent Greve, Martin Ingemann Hansen, Klaus Holleufer, Ole Hedegaard Jensen, Signe Maibom Krøjgaard, Henrik Friis Madsen, Peter Mouritsen, Kim Drejer Nielsen, Jakob Nørgaard-Petersen, Michael Øe, Bo Beier Thorup, Gunvor Vestergaard, Lisa Walsh, Janne Bisgaard Wikman"
"61623454","Michael Jensen, Klaus Marthinus"
"61609013","Ole Laustsen"
"77835344","Bent Olsen"
"61614327","Catherine Brejnholt, Marianne Grant"
"61603619","René Bühlmann, Dick Webb"
"61614823","Henrik Bonne Larsen, Thorkil Smitt"
"73510602","Birgit Christiansen"
"61605328","Helga Mikkelsen, Hans Oluf Schou"
"61605298","Henrik Scheel Andersen, Ole Laursen"
"61620484","Ole Buhl, Marianne Larsen"
"61608475","Sune Petersen"
"77831322","Karen Merete Bennike"
"61611174","Georg Bank-Mikkelsen, Anne Skaarup Rasmussen"
"61601098","Jørgen Riber Christensen"
"61613711","Annelise Andersen, Hanne Hylsberg, Michael Rantzau-Meyer, Kirsten Stordal"
"61610461","Erik Skyum-Nielsen"
"61617970","Ditte Gadegaard, Lourdes Miguel, Lucas Ruiz, Neus Sans"
"61613479","Birgit Bruun, Nanna Heggelund Christensen, Ulla Naumann"
"61612707","Claus Nymann Christensen, Ole Østergaard, Michael Boas Pedersen"
"61609250","Rikke Siersbæk"
"61621285","Sverri Hammer, Henrik Kureer, Svend Erik Lundgren"
"61622525","Poul Storgaard Mikkelsen"
"61622853","Birgitte Merci Lund, Dorte Blicher Møller"
"61623058","Hans Birger Jensen"
"61612936","Torben Benoni, Finn Elvekjær"
"61601438","Peter Øhrstrøm"
"61615080","Jens Studsgaard Sørensen"
"61612324","Sune Petersen"
"61606545","Jens Carstensen"
"61607134","Helle-Marie Kromanne"
"61623331","Hans Birger Jensen"
"61623324","Jens Carstensen, Jesper Frandsen, Jens Studsgaard Sørensen"
"61611891","Carl-Johan Bryld"
"61618896","Fancoise Arndt, Vibeke Gade"
"61610623","Kim Bruun, Hans Birger Jensen"
"61606758","Poul Storgaard Mikkelsen"
"61611514","Jesper Frandsen"
"61606340","Irving Eist, Per Larsen"
"61613177","Niels Brimnes"
"61609632","Hanne Følner, Bente Lund"
"61604593","Erik Prinds"
"61616311","Hans Birger Jensen"
"61614041","Jens Carstensen, Jesper Frandsen, Jens Studsgaard Sørensen"
"61611301","Jens Carstensen, Jesper Frandsen, Jens Studsgaard Sørensen"
"61625250","Martin Damhus"
"61605514","John Mogensen, Knud Ryg Olsen, Ole Ravn"
"61622686","Birgitte Bjerre, Rikke Forsberg, Grete Ravn Nielsen"
"61620422","Martin Damhus"
"61622440","Jens Carstensen, Jesper Frandsen"
"61610798","Knud Erik Bang, Kai Hansen, Marianne Poulsen, Gitte Størup, Jørgen Waarst"
"61624765","Elisabeth Laursen, Birgit Tengberg, Jørn Wiese"
"61625120","Lise Ludvigsen, Poul Storgaard Mikkelsen"
"61610089","Bente Bisgaard"
"61604011","Torben Lindy Christensen"
"61607363","Lars Peter Visti Hansen"
"61614335","Dorte W Mulvad, Claus Zedlitz"
"61622563","Mette Hansen, Evald Bundgård Iversen, Andreas Kimergård, Dorthe Junge Vinsten Madsen, Christina Spanggaard"
"61621580","Birgitte Prytz Clausen, Mads Christian Dagnis Jensen, Rikke Erhardi, Flemming Gräs, Rune Gregersen, Bent Greve, Martin Ingemann Hansen, Klaus Holleufer, Ole Hedegaard Jensen, Signe Maibom Krøjgaard, Søren Lundsgaard, Henrik Friis Madsen, Peter Mouritsen, Kim Drejer Nielsen, Jakob Nørgaard-Petersen, Michael Øe, Bo Beier Thorup, Gunvor Vestergaard, Janne Bisgaard Wikman"
"61610747","Ole Hedegaard Jensen"
"61608254","Ole Barnholdt"
"61613813","Nanna Dissing Bay Jørgensen, Marie Sørensen"
"61613126","Jens Carstensen, Jesper Frandsen, Jens Studsgaard Sørensen"
"61614416","Knud Erik Bang, Marianne Poulsen, Gitte Størup"
"61621633","René Bühlmann, Vibeke Margrethe Hansen, Per René Jensen, Eva Rosenvold"
"61607851","Flemming Møller Nicolaisen, Ole Faurskov Nielsen, Erik Jonas Pedersen, Børge Riis-Larsen"
"61600091","Peter Øhrstrøm"
"61617008","Klaus Marthinus"
"61613061","Torben Benoni, Finn Elvekjær"
"61610410","Michael Bregendahl, Morten Haase, Jan Halberg Madsen"
"61606502","Hardy Andersen"
"61622167","Ewa Schlünssen, Jan Schlünssen"
"61622044","Knud Erik Bang, Marianne Poulsen, Gitte Størup"
"61622792","Henrik Falkenberg, Peder K. Gasbjerg, Chris Østergaard, Lis Ravnsted-Larsen, Annette Balle Sørensen, Henning Troelsen, Troels Wolf"
"61605034","Bente Egelund Jensen, Susan Mose"
"61617628","Jens Walter"
"61621443","Allan Poulsen"
"77831861","Bent Rensch"
"61609196","Vibeke Blaksteen, Kirsten Møller"
"61622617","Ole Schultz Larsen"
"61623843","Esben Andreasen"
"61624642","Per Holck, Jens Kraaer, Birgitte Merci Lund"
"61605484","Bjarne Troelsen"
"61621129","Peter Bregendal, Simon Nitschky Schmidt, Lars Vestergaard"
"77833503","Jens Kjeldsen"
"61603597","Systime A/S"
"61616419","Morten Brydensholt"
"77836413","Henrik Andreasen, Marianne Dideriksen, Thomas Brunbjerg Hansen, Jette Lægdsmand, Jørgen Lorentzen, Bente Secher, Ole Thorup, Agnes Witzke"
"61614807","Lene Sønderby Bech, Christian Nielsen"
"61613207","Torben M. Andersen"
"61621889","Bjarne Villads Larsen"
"61621382","Karen Merete Bennike"
"73519200","Niels Arne Nielsen"
"61611263","K.B Bendtsen, Ole Bønnerup, Frede Salling Pedersen"
"61612723","Hanne Dittmer, Simon Laursen"
"61603643","Michael Klos"
"77837495","Astrid Holm"
"61610380","Jette Meldgaard Harboe, Gitte Horsbøl"
"61615072","Jens Studsgaard Sørensen"
"61611654","Niels Laasholdt, Steen Sloth Olsen, Marianne Poulsen, Gitte Størup"
"61610305","Susanne Gram Larsen, Birgitte Pedersen"
"61621374","René Bühlmann, Eva Rosenvold"
"61611379","Ove Benn, Jørn Jacobsen"
"61621429","Karen Sørensen"
"61611883","Esben Andreasen"
"77838521","Systime A/S"
"61601624","Henrik Falkenberg, Peder K. Gasbjerg, Gunnar Søgaard Jensen, Annette Balle Sørensen"
"61612944","Søren Graversen, Steen Hvorslev Mogensen"
"61615102","Allan C. Malmberg"
"61610593","Lars Pihl Jensen, Iørn Korzen, Lise Møller Andersen, Lise Velschow"
"61621597","Mads Christian Dagnis Jensen, Rikke Erhardi, Flemming Gräs, Rune Gregersen, Bent Greve, Martin Ingemann Hansen, Klaus Holleufer, Ole Hedegaard Jensen, Signe Maibom Krøjgaard, Henrik Kureer, Søren Lundsgaard, Peder Meyhoff, Peter Mouritsen, Kim Drejer Nielsen, Jakob Nørgaard-Petersen, Bo Beier Thorup"
"61600288","Jens Carstensen"
"61614157","Lene Sønderby Bech, Christian Nielsen"
"61614432","Knud Erik Bang, Marianne Poulsen, Gitte Størup"
"77831616","Orla Vinther"
"73517046","Birgit Christiansen, Helle Mollerup"
"73510912","Nina Mohr Christoffersen, Birte Dahlgreen"
"61600555","Jens Carstensen, Jesper Frandsen"
"61603368","Ole Schultz Larsen"
"61614742","Jens Carstensen, Jesper Frandsen, Jens Studsgaard Sørensen"
"61612022","Fancoise Arndt, Vibeke Gade"
"61623348","Kim Bruun, Hans Birger Jensen, Karsten Ulrik Jensen, Søren Munthe"
"61611441","Kirsten Juul Sørensen"
"61605174","Bent Funder"
"61621269","Nina Knudsbo, Klaus Marthinus"
"61620335","Systime A/S"
"77837444","Astrid Holm"
"61611573","Knud Erik Bang, Marianne Poulsen, Gitte Størup"
"61600261","Mogens Frølund"
"61611875","Jørn Ingemann Knudsen"
"61607312","Carl-Johan Bryld"
"77830040","Ole Schultz Larsen"
"61608882","Helle Birk"
"61622060","Esben Andreasen, Birthe Mølhave, Jens Walter"
"61609366","Torben Andersen, Hanne Brande-Lavridsen, Poul Brøndum, Karl-Erik Christensen, Kirsten Habicht, Henning Sten Hansen, Gunvor Johnsen, Peter Norskov Kristensen, Annegrete Larsen, Karl Martin List, Henrik Lund, Bernd Møller, Peter Momme, Arne Ingolf Partsch Sestoft, Ole Schou Pedersen, Peter Strømgaard"
"61607673","Annette Hauer, Birgitte Munk"
"73513245","Flemming Forsberg"
"61607797","Claus Bech-Danielsen"
"61601241","Frede Granum-Jensen"
"61615633","Aage Huulgaard, Hans Chr Thomsen"
"61615315","Hans Henrik Hansen, Niels H Poulsen, Johnny Weile"
"61611948","Lourdes Miguel, Lucas Ruiz, Neus Sans"
"61621161","Peter Bregendal, Simon Nitschky Schmidt, Lars Vestergaard"
"61611166","Niels Laasholdt, Steen Sloth Olsen, Marianne Poulsen, Gitte Størup"
"61606901","Grethe Nyholm Møller"
"61621838","Morten Haase, René Mortensen, Kirsten Wissing"
"61621218","Jens Carstensen, Jesper Frandsen, Jens Studsgaard Sørensen"
"61605573","Vivian Lindhardsen"
"61620963","Henrik Kureer, Svend Erik Lundgren"
"61622914","Gitte Barkholt, Jørgen Døssing Jepsen"
"61620246","Søren Antonius, Robert Clausen, Hans Henrik Hansen, Niels H Poulsen, Johnny Weile"
"61622877","Karen Sørensen"
"61621313","Bodil Hohwü Nielsen"
"77839803","Jesper Carlsen"
"61620125","Birgitte Prytz Clausen"
"61624659","Per Holck, Jens Kraaer, Birgitte Merci Lund"
"61609986","Elisabeth Laursen, Viveca Tallgren"
"61600296","Kenneth Hansen"
"61608710","Stig Jørgensen"
"77834518","Arne Jørgensen"
"61608467","Morten Haase, René Mortensen, Kirsten Wissing"
"61625489","Peder Meyhoff, Peter Mouritsen"
"61614009","Systime A/S"
"61623171","Henrik Kureer, Svend Erik Lundgren"
"73513458","Jesper Lützen"
"61610585","Jesper Frandsen"
"12021377","Lise Møller Andersen, Lise Velschow"
"77831853","Keld B Jessen, Peter Laurs Sørensen"
"61611158","Casper Andersen, Anders Munk Jensen"
"73519197","Niels Arne Nielsen"
"61615275","Jørgen Olsen"
"61610070","Elisabeth Laursen, Birgit Tengberg, Jørn Wiese"
"61606634","Susan Mose, Peter Nyord, Ole Ravn"
"61611492","Hanne Dittmer, Simon Laursen"
"61625397","Birgitte Merci Lund, Dorte Blicher Møller"
"61614068","Jens Carstensen, Jesper Frandsen, Jens Studsgaard Sørensen"
"61616982","Eva Liébana, Birgit Tengberg"
"61613584","Claus Estrup, Jette Engelsbreth Holm, Ellen Sig, Jan Kahr Sørensen"
"61616540","Peter Føge, Mogens Herman Hansen, Bonnie Hegner"
"61616937","Mette Volf"
"61620254","Peter Andersen, Knud Christoffersen, Niels Henrik Gregersen, Benny Friis Gunnø, Bodil Hjerrild, Finn Jacobi, Gunvor Johnsen, Annette Laage Jørgensen, Aase Koefoed, Jan Lindhardt, Jes Nysten, Mikael Rothstein, Henrik Hjort Sørensen, Judith Winther, Alex Wittendorff"
"61616951","Jesper Franch, Erik Hygum, Bo Isaksen, Per Jørgensen, Søren Gytz Olesen, Niels Vogensen"
"77839188","Jens Dalsgård"
"61623553","Mimi Olsen"
"61605042","Ole Ravn"
"61602590","Bjarne Mørup"
"61609706","Thomas Vilhelm"
"77837622","Carl-Johan Bryld, Harry Haue"
"61610011","Lone Milling, Elisabeth Nedergaard, Heine Norsk"
"77837282","Niels Martinov"
"61614920","Peter Laurs Sørensen"
"61612677","Henrik Harnow"
"61608130","Peter Jensen"
"61607789","Thorleif Christensen, Michael Skjoldborg"
"61613746","Lise Ludvigsen, Poul Storgaard Mikkelsen"
"61609676","Anne Knudstrup, Torben Knudstrup"
"61611050","Jesper Frandsen"
"61613215","Poul Tornøe"
"61608556","Peter Frederiksen"
"61617547","Vibeke Gade"
"61601616","Peter Frederiksen"
"61607142","Ole Ravn"
"73512931","Susan Woodford"
"61601152","Marianne Dideriksen, Thomas Brunbjerg Hansen, Jette Lægdsmand, Jørgen Lorentzen, Bente Secher, Katalin Tersztyansky, Ole Thorup, Agnes Witzke"
"61613800","Amrit Gangar, Kuntal Gangar, Birthe Mølhave, Kristian Mølhave"
"61613835","Esben Andreasen"
"61605492","Ole Thomsen"
"61620262","Lene Sønderby Bech, Christian Nielsen"
"61620392","Susanne Jørgensen"
"61613770","Peter Jensen"
"61615528","Lars H Nielsen, Troels Wolf"
"61611298","Jens Carstensen, Jesper Frandsen, Jens Studsgaard Sørensen"
"61617946","Ole Bjørn Petersen, Jens M Steffensen"
"61611824","Torben Lindy Christensen"
"61619787","Hanne Hylsberg, Martin Levander, Michael Rantzau-Meyer, Kirsten Stordal"
"61612758","Torben Lindy Christensen"
"61612448","Jens Carstensen, Jesper Frandsen, Jens Studsgaard Sørensen"
"61623102","Aksel Bertelsen"
"61612421","Kirsten Arnvig, Vibeke Kristensen"
"61622488","Lene Ipsen"
"77839242","Jacob Bastholm, Finn Hansen, Hans Chr Hovgaard, Jens P Østergaard, Verner Søndergaard, Morten Stender"
"61620408","Lene Sønderby Bech, Christian Nielsen"
"61611794","Niels Laasholdt, Steen Sloth Olsen, Marianne Poulsen, Gitte Størup"
"61609005","Ole Laustsen"
"12038954","Ove Elmer Ancker, Neal Ashley Conrad, Johannes Fibiger, Knud Bjarne Gjesing, Leif Erik Hansen, Kamma Haugan, Peter Kaspersen, Benedicte Kieler, Ivar Lærkesen, Gerd Lütken, Anne-Marie Mai, Johannes Nørregaard Frandsen, Peter Olivarius, Klaus P. Mortensen, Bjarne Sandstrøm, Søren Schou, Katja Tang-Petersen"
"61620118","Helle Birk"
"61621331","Henrik Kureer, Svend Erik Lundgren"
"61611557","Knud Erik Bang, Kai Hansen, Marianne Poulsen, Gitte Størup"
"61614643","Torben M. Andersen, Michael H.J. Stæhr"
"61614262","Morten Brydensholt, Tommy Gjøe, Claus Jessen, Ole Keller, Jan Møller, Jens Vaaben"
"61610372","Michael Pilgaard"
"61617989","Ditte Gadegaard, Lourdes Miguel, Lucas Ruiz, Neus Sans"
"61617040","Uffe Englund"
"61610208","Hans Birger Jensen"
"61617644","Jens Carstensen, Jesper Frandsen, Jens Studsgaard Sørensen"
"12032212","Katarina Grip"
"61612561","Lise Alsted Henrichsen, Signe Søndergaard"
"12038962","Kim Iversen, Uwe Timm"
"61611956","Ditte Gadegaard, Lourdes Miguel, Lucas Ruiz, Neus Sans"
"61607541","Bo Söderberg, Casper Syskind"
"61621943","Hanne Dittmer, Simon Laursen"
"61614688","Systime A/S"
"61623799","Morten Winter Bülow"
"61614211","Jens Studsgaard Sørensen"
"61613959","Jens Carstensen, Jesper Frandsen, Jens Studsgaard Sørensen"
"61611239","Peter Frederiksen, Knud Ryg Olsen, Olaf Søndberg"
"73515221","Inge Svendsen"
"61618128","Marianne Steen Larsen, Ruth Eidseth Rebernik"
"61615307","Michael Bregendahl, Simon Nitschky Schmidt, Lars Vestergaard"
"61614858","Jens Carstensen, Jesper Frandsen, Jens Studsgaard Sørensen"
"61613681","Henrik Bonne Larsen, Thorkil Smitt"
"61621684","Torben Benoni, Finn Elvekjær"
"61610658","Elisabeth Laursen, Birgit Tengberg, Jørn Wiese"
"61620351","Jens Walter"
"61613541","Sune Petersen"
"61613002","Eva Liébana, Birgit Tengberg"
"61621730","K.B Bendtsen, Ole Bønnerup, Frede Salling Pedersen"
"61611697","Johannes Grønager"
"61612332","Michael Bregendahl, Morten Haase, Jan Halberg Madsen"
"61619345","Conny Behrendt, Annalise Riis-Sørensen"
"61613630","Aase Kledal, Maria Berenice Lara Laursen"
"61610003","Fran Hopenwasser, Leif Stubbe Teglbjærg"
"61623461","Lars Jensen, Steen Lassen"
"61611409","Rasmus Vennekilde Andresen, Conni Paldam, Martin Paldam, Camilla Skovbjerg Paldam"
"61601888","Anders Krintel, Anne Louise Krogh"
"61622242","Ivy York Möller-Christensen"
"61622655","Peter Føge, Bonnie Hegner, Peter Andreas Toft"
"61622532","Ole Barnholdt"
"61622433","Jens Carstensen, Jesper Frandsen"
"61617938","Ulla Diedrichsen"
"61616906","Gitte Barkholt, Jørgen Døssing Jepsen"
"61622679","Annelise Buhl Staunstrup"
"61622389","Birgitte Merci Lund, Dorte Blicher Møller"
"61610151","Morten Hellesberg Grove, Peter Larsen"
"61612715","Torben Benoni, Finn Elvekjær"
"61619518","Henrik Bonne Larsen, Thorkil Smitt"
"61614957","Carl-Johan Bryld"
"61623140","Mads Christian Dagnis Jensen, Rikke Erhardi, Claus Lasse Frederiksen, Flemming Gräs, Rune Gregersen, Bent Greve, Martin Ingemann Hansen, Klaus Holleufer, Ole Hedegaard Jensen, Signe Maibom Krøjgaard, Søren Lundsgaard, Peder Meyhoff, Peter Mouritsen, Kim Drejer Nielsen, Jakob Nørgaard-Petersen, Bo Beier Thorup"
"61610550","Niels Søren Hansen, Grethe Hestbech, Ingelise Kahl, Lisbet Marcussen, Hans Marker"
"61613320","Aksel Bertelsen"
"61611913","Peder Meyhoff, Peter Mouritsen"
"61611034","Karl Christian Lammers"
"61612286","Henrik Bonne Larsen, Thorkil Smitt"
"61609277","Jeremy Watts"
"61603465","Jens Brincker"
"77837894","Dietrich Harbsmeier, Astrid Holm, Johannes Iversen, Keld B Jessen, Arne Jørgensen, Jens Frørup Madsen, Anne Okkels Olsen, Bent Rensch, Bjarne Troelsen"
"61624192","Susanne Gram Larsen"
"61622754","Svend Erik Lundgren, Rikke Willesen"
"77831977","Hanne Dittmer, Keld B Jessen"
"61621467","Peter Frederiksen, Knud Ryg Olsen, Olaf Søndberg"
"61613703","Morten Haase, René Mortensen, Kirsten Wissing"
"12022241","Lise Møller Andersen, Lise Velschow"
"61622228","Ivy York Möller-Christensen"
"61621307","Jens Carstensen, Jesper Frandsen, Jens Studsgaard Sørensen"
"61622983","Ole Hedegaard Jensen"
"61613096","Peter Bregendal, Simon Nitschky Schmidt, Lars Vestergaard"
"61614483","Susanne Gram Larsen, Birgitte Pedersen"
"61609382","Anna Andersen, Hardy Andersen"
"61612154","Peter Hald"
"61612014","Vibeke Gade"
"61610887","Microsoft Danmark"
"61613983","Morten Brydensholt, Tommy Gjøe, Per Holck, Lis Jespersen, Ole Keller, Jens Kraaer, Birgitte Merci Lund, Jan Møller, Jens Vaaben"
"91111714","Jørn Ingemann Knudsen"
"61613493","Birgit Andersen, Helle Bertelsen, Vinni Bøgelund, Anna Christoffersen, René Dybdal Pedersen"
"61611832","Knud Erik Bang, Marianne Poulsen, Gitte Størup"
"61603708","Thomas Ohrt"
"61622273","Henrik Kureer, Svend Erik Lundgren"
"61602094","Thomas Hammer, Jakob Jensen"
"61619815","Michael Pierce"
"61619922","Helle Hauge Bülow, Morten Winter Bülow"
"61605166","Henrik Flygare, Annette Koldkjær Højlund"
"61602205","Rob Friedrich, Jesper Hauge, Ole Nedergaard"
"61615137","Jens Dybkjær, Henrik Fich, Tobias Fischer-Hansen, Mette Moltesen, Karin Waaben"
"61610488","Allan Friis Clausen, Poul Storgaard Mikkelsen"
"61609188","Lise Alsted Henrichsen, Signe Søndergaard"
"61613789","Allan Ahle, Stefan Emkjær, Peter Madsen"
"61611042","Mogens Bjerring-Hansen, Anders Bollerup, Laurits Gregersen, Peter Boile Nielsen"
"77831888","Jesper Frandsen"
"61622303","Zsuzsanna Bjørn Andersen, Birgit Lohse"
"61622549","Claus Lasse Frederiksen, Henrik Kureer"
"61614718","Hans Jørgen Klarskov Mortensen"
"61614890","Niels Gram Bentsen, Kai Hansen"
"61609080","Susan Mose, Peter Nyord, Ole Ravn"
"61621765","Lene Lundsgaard, Svend Madsen"
"61603120","Hans-Erik Lystrup"
"61604178","Vibeke Gade"
"61611646","Knud Erik Bang, Marianne Poulsen, Gitte Størup"
"61622136","Jens Carstensen"
"61622259","Ivy York Möller-Christensen"
"61612235","Morten Haase, René Mortensen, Kirsten Wissing"
"77836162","Niels Brynjolf"
"61612596","Susanne Gram Larsen, Birgitte Pedersen"
"61623652","Karen Husegård, . Royalty Department, Ida Staunskjær"
"61620327","Eva Liébana, Birgit Tengberg"
"61606960","Niels Skovgaard"
"77834070","Ursula Hermes"
"61611565","Knud Erik Bang, Kai Hansen, Marianne Poulsen, Gitte Størup"
"77839374","Jens Carstensen, Jesper Frandsen"
"77838769","Ole Faaborg"
"61621277","Jens Carstensen, Jesper Frandsen"
"61613118","Jens Carstensen, Jesper Frandsen, Jens Studsgaard Sørensen"
"61612634","Hanne Leth Andersen"
"12036293","Jeppe Sinding Jensen"
"61611603","Knud Erik Bang, Marianne Poulsen, Gitte Størup"
"61604496","Vibeke Gade"
"61621773","Birgitte Bjerre, Annemarie Meyer Larsen, Michael Skjoldborg"
"61610569","Nina Knudsbo, Klaus Marthinus"
"61614831","Henrik Bonne Larsen, Thorkil Smitt"
"61623126","Birgitte Prytz Clausen, Mads Christian Dagnis Jensen, Rikke Erhardi, Flemming Gräs, Rune Gregersen, Bent Greve, Martin Ingemann Hansen, Klaus Holleufer, Ole Hedegaard Jensen, Signe Maibom Krøjgaard, Søren Lundsgaard, Henrik Friis Madsen, Peter Mouritsen, Kim Drejer Nielsen, Jakob Nørgaard-Petersen, Michael Øe, Bo Beier Thorup, Gunvor Vestergaard, Janne Bisgaard Wikman"
"61613673","Morten Haase, René Mortensen, Kirsten Wissing"
"61601071","Carsten Svane Hansen"
"61606979","Bjørn Christensen"
"61618108","Per Drud Nielsen"
"61623775","Mette Hansen, Evald Bundgård Iversen, Andreas Kimergård, Dorthe Junge Vinsten Madsen, Christina Spanggaard"
"61612685","Lars Heide"
"61623263","Henrik Kureer, Svend Erik Lundgren"
"61601144","Marianne Dideriksen, Thomas Brunbjerg Hansen, Jette Lægdsmand, Jørgen Lorentzen, Bente Secher, Katalin Tersztyansky, Ole Thorup, Agnes Witzke"
"61616788","Bjørn Matsen, Ole Bjørn Petersen"
"61604844","Ole Ravn"
"61614106","Henrik Scheel Andersen, Ole Laursen"
"61602930","Georg Bank-Mikkelsen, Anne Skaarup Rasmussen"
"61610399","K.B Bendtsen, Ole Bønnerup, Frede Salling Pedersen"
"61614491","Ole Bjørn Petersen, Jens M Steffensen"
"61623164","Mads Christian Dagnis Jensen, Rikke Erhardi, Flemming Gräs, Rune Gregersen, Bent Greve, Martin Ingemann Hansen, Klaus Holleufer, Ole Hedegaard Jensen, Signe Maibom Krøjgaard, Henrik Friis Madsen, Peter Mouritsen, Kim Drejer Nielsen, Jakob Nørgaard-Petersen, Michael Øe, Bo Beier Thorup, Gunvor Vestergaard, Lisa Walsh, Janne Bisgaard Wikman"
"61606316","Søren Elgaard"
"61612138","Morten Brydensholt, Tommy Gjøe, Johannes Grønager, Claus Jessen, Ole Keller, Jan Møller, Jens Vaaben"
"61621927","Kim Bruun, Hans Birger Jensen, Karsten Ulrik Jensen, Søren Munthe"
"61611344","Niels Gram Bentsen, Kai Hansen"
"61622143","VMK - Konservatoriet for musik og formidling, Jørgen Mortensen"
"61604623","Viveca Tallgren"
"61611778","Morten Haase"
"61610879","Ole Schultz Larsen"
"61621676","Morten Brydensholt"
"61614661","Jens Carstensen, Jesper Frandsen, Jens Studsgaard Sørensen"
"61614084","Jens Carstensen, Jesper Frandsen, Jens Studsgaard Sørensen"
"61621573","Mads Christian Dagnis Jensen, Rikke Erhardi, Flemming Gräs, Rune Gregersen, Bent Greve, Martin Ingemann Hansen, Klaus Holleufer, Ole Hedegaard Jensen, Signe Maibom Krøjgaard, Henrik Friis Madsen, Peter Mouritsen, Jakob Nørgaard-Petersen, Michael Øe, Bo Beier Thorup, Gunvor Vestergaard"
"61613282","Eva Liébana, Birgit Tengberg"
"61609218","Sten Moslund"
"61620446","Henrik Falkenberg, Peder K. Gasbjerg, Gunnar Søgaard Jensen, Tina Riis Mikkelsen, Chris Østergaard, Bodil Junker Pedersen, Lis Ravnsted-Larsen, Torben Skou, Annette Balle Sørensen, Henning Troelsen, Troels Wolf"
"61623492","Systime A/S"
"61609943","Marianne Steen Larsen, Ruth Eidseth Rebernik"
"61620156","Ole Hedegaard Jensen"
"61609064","Morten Brydensholt, Tommy Gjøe, Johannes Grønager, Claus Jessen, Ole Keller, Jan Møller, Jens Vaaben"
"61621811","Henrik Falkenberg, Peder K. Gasbjerg, Chris Østergaard, Lis Ravnsted-Larsen, Annette Balle Sørensen, Søren Peter Sørensen, Henning Troelsen, Troels Wolf"
"61610437","Eva Rosenvold"
"61622709","Tony Søndergaard Andersen, Morten Petersen"
"61623560","Vibeke Gade"
"61609919","Hans Jensen"
"61621238","Leif Ærø, Fran Hopenwasser, Leif Stubbe Teglbjærg"
"61600539","Jens Carstensen, Jesper Frandsen"
"61609021","Grete Ravn Nielsen"
"61621221","Christina Blach Hansen, Pernille Bødker Frank, Lene Madsen, Sofie Reimick"
"61622761","Claus Lasse Frederiksen, Henrik Kureer"
"61612251","Peter Jensen"
"61623201","Morten Winter Bülow, Birgitte Prytz Clausen, Mads Christian Dagnis Jensen, Rikke Erhardi, Flemming Gräs, Rune Gregersen, Bent Greve, Martin Ingemann Hansen, Klaus Holleufer, Ole Hedegaard Jensen, Kirsten Krehan, Signe Maibom Krøjgaard, Søren Lundsgaard, Henrik Friis Madsen, Peter Mouritsen, Kim Drejer Nielsen, Jakob Nørgaard-Petersen, Michael Øe, Bo Beier Thorup, Gunvor Vestergaard, Lisa Walsh, Janne Bisgaard Wikman"
"61622457","Knud Ryg Olsen, Olaf Søndberg"
"61622266","Ivy York Möller-Christensen"
"61621627","René Bühlmann, Vibeke Margrethe Hansen, Per René Jensen, Chris Plougheld, Eva Rosenvold"
"61611182","Henrik Bonne Larsen, Thorkil Smitt"
"61606162","Kim Bruun, Birgit Lund Henriksen, Ole Frost Nielsen"
"77839366","Jens Carstensen, Jesper Frandsen"
"61603082","Bent Rensch"
"61621139","Mette Hansen, Evald Bundgård Iversen, Andreas Kimergård, Dorthe Junge Vinsten Madsen, Christina Spanggaard"
"61609889","Peter Hald"
"61613460","Johannes Grønager"
"61623072","Birgitte Bjerre, Anne Mette Finderup, Rikke Forsberg, Grete Ravn Nielsen"
"61601063","Carsten Svane Hansen"
"61621846","Gunnar Søgaard Jensen, Torben Skou"
"61623638","Astrid Holm"
"61605387","Rune Bech Lauesen"
"61623515","Lasse Ørum Wikman"
"77839404","Bent Olsen"
"61609129","Grethe Nyholm Møller"
"61612413","Birgitte Bjerre, Annemarie Meyer Larsen, Michael Skjoldborg"
"61622181","Ewa Schlünssen, Jan Schlünssen"
"61622600","Lene Sønderby Bech, Christian Nielsen"
"61622860","Jesper Franch, Bo Isaksen, Per Jørgensen, Niels Vogensen"
"61622907","Geert  A Nielsen, Flemming Olsen"
"61621986","Hans Birger Jensen"
"61603694","Peter Bejder, Kim Boye"
"12021008","Hans Christian Helt, Else Emilie Rancke-Madsen"
"61613185","Ingelise Flensborg, Birgitte Holm Sørensen"
"61623362","Martin Damhus"
"61601276","Kim Bruun, Hans Birger Jensen, Karsten Ulrik Jensen, Søren Munthe"
"61621399","Simon Nitschky Schmidt, Lars Vestergaard"
"77835824","Robert Rodrìguez"
"61615064","Jens Studsgaard Sørensen"
"61607525","Erik Skyum-Nielsen"
"61625298","Peter Laurs Sørensen"
"61600210","Thorkild Johs Nielsen"
"61617954","Chris Plougheld"
"61608890","Henrik Juhl Andersen, Ingeborg Bugge, Søren Elgaard, Jørgen Eriksen, Hans Jørgen Frederiksen, Karina Lykke Grand, Mogens Nykjær"
"61613142","Jens Carstensen, Jesper Frandsen, Jens Studsgaard Sørensen"
"61606200","Vivian Lindhardsen"
"61609304","Ole Schultz Larsen"
"61611727","Esben Andreasen"
"61613975","Peder Meyhoff"
"61609536","Gunnar Søgaard Jensen, Torben Skou"
"61607843","Jesper Frandsen"
"61613134","Jens Carstensen, Jesper Frandsen, Jens Studsgaard Sørensen"
"61608572","Jørgen Sørensen"
"61623119","Mads Christian Dagnis Jensen, Rikke Erhardi, Flemming Gräs, Rune Gregersen, Bent Greve, Martin Ingemann Hansen, Klaus Holleufer, Ole Hedegaard Jensen, Signe Maibom Krøjgaard, Henrik Friis Madsen, Peter Mouritsen, Jakob Nørgaard-Petersen, Michael Øe, Bo Beier Thorup, Gunvor Vestergaard"
"61616559","Peter Føge, Bonnie Hegner"
"61606642","Max Ipsen"
"61615412","Hanne Leth Andersen, Dorte Fristrup"
"61612316","Giulia Bellesso, Susanne Gram Larsen, Birgitte Pedersen"
"77838467","Ole Schultz Larsen"
"61614963","Peter Øhrstrøm"
"61614505","Ole Bostrup"
"61600547","Jens Carstensen, Jesper Frandsen"
"61613517","Knud Erik Bang, Henrik Frølich, David Engelbrecht Pedersen"
"61610518","Mogens Bjerring-Hansen, Anders Bollerup, Laurits Gregersen, Peter Boile Nielsen"
"61623508","Marianne Poulsen, Gitte Størup"
"61619809","Ida Semey"
"61622341","Chris Plougheld"
"61608998","Ole Laustsen"
"61620432","Pia Ballegaard Hansen, Lisbeth Kjær, Claus Zedlitz"
"61612472","Knud Erik Bang, Marianne Poulsen, Gitte Størup, Jørgen Waarst"
"61614902","Allan Bohnstedt, Bernt Hansen, Michael Jensen, Klaus Marthinus"
"61612243","René Mortensen, Vibeke Rasmussen"
"61622815","Martin Damhus"
"61614637","Michael Jensen, Klaus Marthinus"
"61614025","Morten Brydensholt, Tommy Gjøe, Claus Jessen, Ole Keller, Jan Møller, Jens Vaaben"
"61616400","Jens Studsgaard Sørensen"
"61612480","Knud Erik Bang, Marianne Poulsen, Gitte Størup, Jørgen Waarst"
"61615056","Jens Studsgaard Sørensen"
"61621153","Annelise Buhl Staunstrup"
"77838971","Anders Aare, Johannes Grønager, Poul Rønnenfelt"
"61612073","Casper Andersen, Anders Munk Jensen"
"61615323","Johannes Fibiger, Sine Dalsgaard Kristensen, Gerd Lütken"
"61606413","Esben Andreasen"
"61621404","Henrik Kureer, Svend Erik Lundgren"
"61623720","Jens Carstensen"
"61610135","Morten Brydensholt, Tommy Gjøe, Per Holck, Lis Jespersen, Ole Keller, Jens Kraaer, Birgitte Merci Lund, Jan Møller, Jens Vaaben"
"77830067","John Mogensen, Knud Ryg Olsen, Ole Ravn"
"61616605","Michael Bregendahl, Morten Haase, Jan Halberg Madsen"
"61620386","Lene Sønderby Bech, Christian Nielsen"
"61611964","Ditte Gadegaard, Lourdes Miguel, Lucas Ruiz, Neus Sans"
"61612278","Torben Benoni, Finn Elvekjær"
"61614351","Torben Benoni, Finn Elvekjær"
"61611336","Kim Bruun, Hans Birger Jensen, Karsten Ulrik Jensen, Søren Munthe"
"61621668","Morten Brydensholt, Tommy Gjøe, Claus Jessen, Ole Keller, Jan Møller, Jens Vaaben"
"61623034","Maria Bruun Bundgård, Evald Bundgård Iversen, Thomas Lund"
"61621196","Bjarne Mørup"
"61623157","Mads Christian Dagnis Jensen, Rikke Erhardi, Flemming Gräs, Rune Gregersen, Bent Greve, Martin Ingemann Hansen, Klaus Holleufer, Signe Maibom Krøjgaard, Peter Mouritsen, Kim Drejer Nielsen, Jakob Nørgaard-Petersen, Bo Beier Thorup, Gunvor Vestergaard"
"61622938","Ole Schultz Larsen"
"61625281","Susanne Gram Larsen"
"61611190","Annette Hauer, Birgitte Munk"
"12027472","Karen Husegård, . Royalty Department, Ida Staunskjær"
"61612952","Morten Haase, René Mortensen, Kirsten Wissing"
"61623355","Zsuzsanna Bjørn Andersen, Jørn Jacobsen, Birgit Lohse"
"61609285","Lars Bukdahl"
"61616370","Michael Jensen, Klaus Marthinus"
"61608815","Henrik Poulsen"
"61615587","Torben Benoni, Finn Elvekjær"
"61609978","Jimmy Zander Hagen"
"61611085","Grethe Abildgaard Christensen, Lone Madsen"
"77830202","Hans Birger Jensen, Inger Spangsberg Jensen, Jørgen Mogensen, Bo Paulsen"
"61613967","Lars H Nielsen, Troels Wolf"
"61602035","Peter Frederiksen"
"12028037","Karen Husegård, . Royalty Department, Ida Staunskjær"
"61617962","Ditte Gadegaard, Lourdes Miguel, Lucas Ruiz, Neus Sans"
"61611581","Knud Erik Bang, Kai Hansen, Marianne Poulsen, Gitte Størup, Jørgen Waarst"
"61614653","Jens Carstensen, Jesper Frandsen, Jens Studsgaard Sørensen"
"61609838","Morten Brydensholt, Tommy Gjøe, Lis Jespersen, Ole Keller, Jan Møller, Jens Vaaben"
"61612456","Knud Erik Bang, Kai Hansen, Marianne Poulsen, Gitte Størup, Jørgen Waarst"
"61611131","Morten Haase, René Mortensen, Kirsten Wissing"
"61622846","Birgitte Bjerre, Rikke Forsberg, Grete Ravn Nielsen"
"61612529","Allan Ahle, Stefan Emkjær, Peter Madsen"
"61621862","Jørn Ingemann Knudsen"
"61608173","Poul René Bertelsen, Dietrich Harbsmeier, Johannes Iversen, Arne Jørgensen, Jens Frørup Madsen, Anne Okkels Olsen, Bjarne Troelsen"
"61614696","Jens Forman"
"61603104","Hardy Andersen, Birte Dahlgreen, Birgitte Zinn Lund, Peter Odel"
"61601845","Laila Thim"
"61621803","Eva Liébana, Birgit Tengberg"
"61625106","Agnes Witzke"
"61615560","Mogens Herman Hansen"
"61621870","Ditte Gadegaard, Lucas Ruiz"
"61607002","Anders Christian Skouvig"
"61610615","Elisabeth Laursen, Birgit Tengberg, Jørn Wiese"
"61611107","Mette Dinesen"
"77833406","Olaf Søndberg"
"61614734","Lene Sønderby Bech, Christian Nielsen"
"61622730","Svend Erik Lundgren, Rikke Willesen"
"61614424","Knud Erik Bang, Marianne Poulsen, Gitte Størup"
"61624864","Johannes Fibiger, Sine Dalsgaard Kristensen, Gerd Lütken"
"61613592","Ditte Gadegaard, Lucas Ruiz"
"61606995","Bjørn Matsen, Ole Bjørn Petersen"
"61605611","Johannes Andersen"
"77836634","Henrik Blicher Pedersen"
"61612308","Susanne Gram Larsen, Birgitte Pedersen"
"61609099","Susan Mose, Peter Nyord, Ole Ravn"
"61614947","Kirsten Fogd"
"61609994","Jesper Frandsen"
"61604879","Ole Bjørn Petersen, Otto Pretzmann"
"61605794","Jane Blomhøj, Jørgen Dalhoff"
"61616362","Jens Studsgaard Sørensen"
"61610542","Hans Birger Jensen"
"61622921","Jens Carstensen"
"77839358","Jens Carstensen, Jesper Frandsen"
"61623621","Vibeke Gade"
"77836979","Vibeke Gade"
"61612189","Jens P Jensen, Finn D Mogensen, Peter Zangenberg"
"61619558","Grethe Abildgaard Christensen, Lone Madsen"
"61613045","Niels Laasholdt, Steen Sloth Olsen, Marianne Poulsen, Gitte Størup"
"61623225","Helle Brieghel, Dorthe Chalotte Hansen"
"61609927","Johannes Fibiger, Gerd Lütken"
"61622952","Hans Birger Jensen"
"77832213","Bjarne Mørup"
"61607282","Bente Egelund Jensen, Susan Mose"
"61617194","Ane Hejlskov Larsen, Sally Thorhauge"
"61614203","Jens Studsgaard Sørensen"
"61603015","Anna Andersen, Hardy Andersen"
"61609846","Torben Svendsen, Uwe Timm"
"61621900","Morten Haase, René Mortensen, Kirsten Wissing"
"61613304","Eva Liébana, Birgit Tengberg"
"61623737","Martin Marcussen"
"61610666","Torben Benoni, Finn Elvekjær"
"61620165","Nina Knudsbo, Klaus Marthinus"
"77839617","Karen Strøm"
"77838815","Bitten Arildsen, Chris Plougheld"
"77833759","Jens Carstensen"
"61612669","Ole Hyldtoft"
"61623287","Lene Sønderby Bech, Christian Nielsen"
"61615022","Jørn Jacobsen, Michael Balle Jensen"
"61608548","Flemming Møller Nicolaisen, Ole Faurskov Nielsen, Erik Jonas Pedersen, Børge Riis-Larsen"
"61606294","Jens Carstensen, Jesper Frandsen, Jens Studsgaard Sørensen"
"61611387","Kim Bruun, Hans Birger Jensen"
"61608807","Henrik Poulsen"
"61610402","Knud Erik Bang, Kai Hansen, Marianne Poulsen, Gitte Størup, Jørgen Waarst"
"61620347","Linda Svenstrup Munk, Karen Risager, Niels Erik Wille"
"61603236","Per Reinholdt Nielsen"
"61600385","Peter Bjerregaard, Helene Brochmann, Asii Naarup Chemnitz, Hjalmar Dahl, Jens Dahl, Jørgen Fleischer, Peter Friis, Rolf Gilberg, Hans Christian Gullø, Ole Hertz, Einar Lund Jensen, Helge Kleivan, Inge Kleivan, Svend Kolte, Bo Lidegaard, Jørgen Lorentzen, Juaaka Lyberth, Naja Mikkelsen, Jeppe Mordhorst, Birger Sandell, Frank Sejersen, Birgitte Sonne, Kirsten Thisted, Hanne Tuborg"
"61620415","Annette Hauer, Birgitte Munk"
"61608122","Michael Pilgaard"
"61615552","Peter Øhrstrøm"
"12035033","Lise Møller Andersen, Lise Velschow"
"91240042","Henrik Kureer, Svend Erik Lundgren, Rikke Willesen"
"61621641","Carl-Johan Bryld"
"61613290","Giulia Bellesso, Susanne Gram Larsen, Birgitte Pedersen"
"77839838","Hans Jørgen Frederiksen"
"77836448","Jens Carstensen"
"61613657","Claus Estrup, Jette Engelsbreth Holm, Ellen Sig"
"61614017","Torben Benoni, Finn Elvekjær"
"61622001","Birgit Bruun, Nanna Heggelund Christensen, Ulla Naumann"
"77832655","Anette Faye Jacobsen, Anne Løkke"
"61621692","Jens Studsgaard Sørensen"
"61613940","Kåre Janussen"
"77831594","Orla Vinther"
"61615459","Birgitte Bjerre, Rikke Forsberg, Grete Ravn Nielsen"
"61623607","Peter Frederiksen, Knud Ryg Olsen, Olaf Søndberg"
"61618098","Marianne Steen Larsen, Ruth Eidseth Rebernik"
"61622358","Knud Erik Bang, Klaus Marthinus, Ole Nystrøm, Kirsten Wissing"
"61604062","Kirsten Holm"
"61601306","Stephen Greenhorn"
"61617026","Peter Føge, Bonnie Hegner, Peter Andreas Toft"
"61616397","Jens Studsgaard Sørensen"
"61616567","Peter Føge, Bonnie Hegner, Peter Øhrstrøm"
"61614793","Birthe Mølhave"
"61621455","Vibeke Gade"
"61608831","Ditte Gadegaard, Lucas Ruiz"
"61607029","Henrik Falkenberg, Peder K. Gasbjerg, Chris Østergaard, Annette Balle Sørensen, Henning Troelsen, Troels Wolf"
"61615110","Knud Erik Bang, Henrik Frølich, David Engelbrecht Pedersen"
"61622839","Simon Nitschky Schmidt, Lars Vestergaard"
"61612227","Morten Haase, René Mortensen, Kirsten Wissing"
"61615366","Ivy York Möller-Christensen"
"61616647","Morten Winter Bülow, Birgitte Prytz Clausen, Mads Christian Dagnis Jensen, Rikke Erhardi, Flemming Gräs, Rune Gregersen, Bent Greve, Martin Ingemann Hansen, Klaus Holleufer, Ole Hedegaard Jensen, Simon Laumann Jørgensen, Kirsten Krehan, Signe Maibom Krøjgaard, Anders Ølsgaard Larsen, Henrik Friis Madsen, Peter Mouritsen, Kim Drejer Nielsen, Jakob Nørgaard-Petersen, Michael Øe, Bo Beier Thorup, Gunvor Vestergaard, Lisa Walsh, Janne Bisgaard Wikman"
"12032794","Lars Pihl Jensen, Iørn Korzen, Lise Møller Andersen, Lise Velschow"
"61612650","Carl Erik Andresen"
"61619531","Ewa Schlünssen, Jan Schlünssen"
"12034533","Mogens Bjerring-Hansen, Anders Bollerup, Laurits Gregersen, Peter Boile Nielsen"
"61605344","Jette Meldgaard Harboe, Gitte Horsbøl"
"61612057","Helle Birk"
"61613797","Knud Erik Bang, Kai Hansen, Marianne Poulsen, Gitte Størup, Jørgen Waarst"
"61603732","Claus Blaaberg, Jesper Pilgaard Buchgraitz, Gerd Schmidt Nielsen, Ingrid Eller Thomsen, Lisbeth Thorsen"
"61610259","Bodil Hohwü Nielsen, Grethe Kirkeby Poulsen"
"61606391","Jens Carstensen"
"61622235","Ivy York Möller-Christensen"
"61615382","Ivy York Möller-Christensen"
"61623027","Nanna Dissing Bay Jørgensen, Marie Sørensen"
"61602043","Henrik Beck"
"61611271","Birgitte Prytz Clausen, Annemarie Lerche Sloth"
"61603007","Peter Frederiksen"
"61608378","Johannes Grønager"
"61620297","Kim Bruun, Hans Birger Jensen"
"61611816","Henrik Scheel Andersen, Ole Laursen"
"77834127","Jens Carstensen"
"61622747","Claus Lasse Frederiksen, Henrik Kureer"
"61605689","Peter Munk Christiansen, Hanne Nexø Jensen, Lotte Jensen, Tim Knudsen, Anker Brink Lund, Martin Marcussen, Pernille Lind Olsen, Karsten Ronit, Niels Christian Sidenius, Anne R Warburg"
"61621722","Jens Studsgaard Sørensen"
"61623416","Stinne Glasdam, Annette Hauer, Vibeke Lorentzen, Birgitte Munk, Karin Anna Petersen"
"61602000","Carl-Johan Bryld, Harry Haue"
"61603392","Jens-Ole Jensen, Tue Lindstrøm, Jan Kahr Sørensen"
"61622822","Michael Pierce"
"61615439","Henrik Bonne Larsen, Thorkil Smitt"
"61616389","Jens Studsgaard Sørensen"
"61607320","Allan Ahle, Stefan Emkjær, Peter Madsen"
"61610171","Mogens Kjær, Ole Laursen, Karen Lemming"
"61612340","Jens Carstensen, Jesper Frandsen, Jens Studsgaard Sørensen"
"61610275","Jens M Steffensen"
"61603716","Søren Mørch, Anne Okkels Olsen"
"61623423","Aksel Bertelsen"
"77835069","Jens Carstensen"
"61614297","Sten Moslund, Chris Plougheld"
"91240050","Henrik Kureer, Svend Erik Lundgren, Rikke Willesen"
"61611867","Henrik Poulsen"
"61601977","Hans-Georg Gadamer"
"61625052","Michael Jensen, Klaus Marthinus"
"61617083","Kirsten Fogd"
"61616354","Allan Bohnstedt, Bernt Hansen, Michael Jensen, Klaus Marthinus"
"61602647","Henrik Falkenberg, Peder K. Gasbjerg, Lars H Nielsen"
"61606081","Jens Blom-Hansen, Peter Munk Christiansen, Carsten Daugbjerg, Carsten Greve, Lotte Jensen, Søren Worsøe Laursen, Asbjørn Sonne Nørgaard, Thomas Pallesen, Niels Christian Sidenius"
"61612359","Jens Carstensen, Jesper Frandsen, Jens Studsgaard Sørensen"
"61613622","Vibeke Gade"
"61603503","Peter Jensen"
"61619825","VMK - Konservatoriet for musik og formidling, Jørgen Mortensen"
"61620300","Kim Bruun, Hans Birger Jensen, Karsten Ulrik Jensen, Søren Munthe"
"61623256","Søren Gytz Olesen, Jørgen Olsen"
"61614459","Morten Haase, René Mortensen, Kirsten Wissing"
"77834860","Palle Andkjær Olsen, Ursula Andkjær Olsen"
"12197432","Allan C. Malmberg"
"77836189","Bjarne Troelsen"
"61622280","Peter Boile Nielsen"
"61611638","Knud Erik Bang, Marianne Poulsen, Gitte Størup"
"61616532","Aksel Bertelsen"
"77838130","Jens Carstensen"
"61612146","Jens-Ole Jensen, Jan Kahr Sørensen"
"61620378","Lene Sønderby Bech, Christian Nielsen"
"61612960","Johannes Grønager"
"77833473","Elsemarie Hauge"
"61615099","Jens Studsgaard Sørensen"
"61610046","Birgitte Bjerre, Annemarie Meyer Larsen, Michael Skjoldborg"
"61606324","Hans Jørn Nielsen, Flemming B Sønderup, Søren Peter Sørensen, Jens Studsgaard Sørensen, Tina Thode Hougaard"
"61611840","Peter Øhrstrøm"
"61616591","Aksel Bertelsen"
"61600148","Niels Skovgaard"
"61616346","Hans Birger Jensen"
"61620289","Jørgen Winding"
"61622365","Annelise Buhl Staunstrup"
"61610534","Jesper Frandsen"
"61622028","Annette Hauer, Birgitte Munk"
"77838564","Systime A/S"
"61621542","Mads Christian Dagnis Jensen, Rikke Erhardi, Flemming Gräs, Rune Gregersen, Bent Greve, Martin Ingemann Hansen, Klaus Holleufer, Signe Maibom Krøjgaard, Peter Mouritsen, Kim Drejer Nielsen, Jakob Nørgaard-Petersen, Bo Beier Thorup, Gunvor Vestergaard"
"61610836","Jens P Jensen, Finn D Mogensen, Peter Zangenberg"
"61613738","Vibeke Gade"
"61624833","Johannes Fibiger, Sine Dalsgaard Kristensen, Gerd Lütken"
"61605336","Anja Dybris, Linda Grundtvig, Stig Petersen"
"61611425","Peder Meyhoff, Peter Mouritsen"
"61610771","Knud Erik Bang, Marianne Poulsen, Gitte Størup, Jørgen Waarst"
"61615684","Peter Føge, Bonnie Hegner"
"61614173","Jens Studsgaard Sørensen"
"61610240","Peter Jensen"
"61609323","Hans Birger Jensen"
"61609048","Jesper Frandsen"
"61621749","René Bühlmann, Dick Webb"
"61614076","Peter Bregendal, Simon Nitschky Schmidt, Lars Vestergaard"
"61623812","Peter Andreas Toft"
"77837487","Systime A/S"
"61623669","Ole Schultz Larsen"
"61622036","Knud Erik Bang, Marianne Poulsen, Gitte Størup"
"61606510","Hardy Andersen"
"61623294","Jens Carstensen, Jesper Frandsen, Jens Studsgaard Sørensen"
"61614254","Morten Brydensholt"
"61621757","René Bühlmann, Vibeke Margrethe Hansen, Per René Jensen, Eva Rosenvold"
"61612405","K.B Bendtsen, Ole Bønnerup, Frede Salling Pedersen, Chris Plougheld"
"61621951","Steen Svava Olsen"
"61622426","Anne Mette Finderup, Agnete Fog"
"77834011","Poul Bruun, Lisbeth Veirup"
"61608874","Mai-Britt Østergaard Nielsen, Lars Ulrik Tambjerg-Ravn"
"61610100","Poul Høybye"
"61614777","Søren Antonius, Robert Clausen, Hans Henrik Hansen, Niels H Poulsen, Johnny Weile"
"61613762","Aksel Bertelsen"
"61617695","Eva Liébana, Birgit Tengberg"
"61615498","Paul Klitnæs"
"61600504","A Pérez-Reverte"
"12037400","Elisabeth Laursen, Birgit Tengberg"
"61614998","Mogens Herman Hansen"
"61614114","Hanne Leth Andersen"
"61621366","René Bühlmann, Eva Rosenvold"
"61622105","Jens Forman"
"61611611","Knud Erik Bang, Marianne Poulsen, Gitte Størup"
"61601004","Bent Rensch"
"61601365","Jesper Frandsen"
"61623188","Henrik Kureer, Svend Erik Lundgren"
"61608912","Lars Gråbæk, Hanne Ullerup"
"61607991","Jes Aarre, Jørgen Døssing Jepsen"
"12035041","Lise Møller Andersen, Lise Velschow"
"61609072","Susan Mose, Peter Nyord, Ole Ravn"
"61600563","Jens Carstensen, Jesper Frandsen"
"61621994","Ditte Gadegaard, Lucas Ruiz"
"77835832","Jesper Frandsen"
"61614971","Peter Føge, Bonnie Hegner"
"61621293","Jens Walter"
"91240077","Sverri Hammer, Henrik Kureer, Svend Erik Lundgren"
"61610852","Esben Andreasen, Lise Debel Christensen, Hanne Følner, Armin W. Geertz, Allan Poulsen, Jørgen Bæk Simonsen, Jørgen Podemann Sørensen"
"61622112","Hans Birger Jensen"
"61614300","Jeremy Watts"
"61613053","Morten Brydensholt, Tommy Gjøe, Claus Jessen, Ole Keller, Jan Møller, Jens Vaaben"
"61607347","Kim Beck Danielsen, Sanne Stemann Knudsen"
"61612545","Poul René Bertelsen, Dietrich Harbsmeier, Johannes Iversen, Arne Jørgensen, Jens Frørup Madsen, Anne Okkels Olsen, Bjarne Troelsen"
"61614769","Hans Jørgen Klarskov Mortensen"
"61615536","Peter Frederiksen, Knud Ryg Olsen, Olaf Søndberg"
"61613820","Vibeke Gade"
"61621714","Jens Studsgaard Sørensen"
"77834968","Birte Dahlgreen"
