"OJCity","OJFreeDec9"
"61603694","1"
"61610585","1"
"61610208","1"
"61610542","1"
"61611514","1"
"61611840","1"
"61601438","1"
"61608254","1"
"61600261","1"
"77831977","3"
"77838025","1"
"77838947","1"
"61605549","1"
"61605581","1"
"61601004","1"
"77834992","1"
"61602035","2"
"12021008","1"
"77839404","1"
"77834860","1"
"77839587","1"
"77831985","2"
"61608351","1"
"61601101","1"
"61600490","1"
"77835344","1"
"77831888","2"
"77836448","1"
"77833759","2"
"73510769","7"
"77831594","2"
"77834127","4"
"77839838","1"
"77831616","2"
"77837282","3"
"77835069","2"
"61600296","1"
"77835670","5"
"73517046","5"
"61601918","1"
"77838130","2"
"61602043","1"
"77838467","2"
"61603015","1"
"61603104","1"
"61603546","1"
"61606979","2"
"61606502","1"
"61606510","1"
"61606529","1"
"12036293","1"
"12033642","1"
"61610275","2"
"77835689","1"
"61611158","1"
"61607371","1"
"61605042","3"
"61606634","1"
"61609072","1"
"61610003","1"
"77838564","1"
"61605301","1"
"61613703","1"
"61616559","1"
"61610488","2"
"61614971","1"
"61609080","1"
"61601853","1"
"61602140","1"
"61614831","1"
"61617555","1"
"61608467","2"
"61611654","2"
"61612952","2"
"77836634","1"
"61609188","1"
"61612561","1"
"61609277","1"
"61603120","1"
"61613711","3"
"61610496","1"
"61611700","1"
"61611131","1"
"61618128","1"
"61613177","1"
"61620165","1"
"61607444","1"
"61614890","1"
"61621072","1"
"77838394","4"
"61610836","1"
"77836065","1"
"77838831","1"
"73515426","2"
"77839064","1"
"77839641","1"
"61604283","4"
"77837002","2"
"77831276","2"
"77838009","1"
"77834496","1"
"77836847","1"
"61600636","1"
"77836812","1"
"77836383","1"
"77839307","1"
"77839994","1"
"61620254","6"
"61602094","2"
"61621749","1"
"61621730","1"
"61621935","1"
"61620386","1"
"61613673","1"
"61603325","1"
"61617954","1"
"61620432","1"
"61621889","1"
"61621951","1"
"61614815","1"
"61621196","1"
"61621900","1"
"61618108","1"
"61614998","2"
"61613746","1"
"61614734","2"
"61614957","1"
"61622563","1"
"91240042","2"
"91240077","2"
"91240050","3"
"61622532","1"
"61617026","1"
"61622655","1"
"61609099","1"
"61613339","1"
"61622525","1"
"61623027","1"
"61622396","1"
"61616540","1"
"61612038","1"
"61623072","1"
"61611425","2"
"61615275","1"
"61619815","1"
"61622167","1"
"61620484","1"
"77837487","1"
"61605344","4"
"61610380","1"
"61617194","1"
"77834518","1"
"77833503","1"
"73510912","2"
"73513458","2"
"73518484","1"
"77834968","2"
"61602590","2"
"77836979","2"
"77837045","1"
"73515221","3"
"77837894","4"
"77836162","4"
"73518832","3"
"73519197","2"
"77838769","1"
"77835832","2"
"77838971","4"
"77836189","4"
"77839188","1"
"77839242","1"
"77833473","5"
"77839803","2"
"73519200","2"
"77834011","8"
"61600105","2"
"61600148","2"
"61600288","3"
"61600385","1"
"77834070","5"
"77837576","6"
"61600504","1"
"61600512","1"
"61600539","2"
"61600547","2"
"61600555","3"
"61600563","3"
"61600644","2"
"77839358","5"
"77839366","4"
"77839374","7"
"61601241","1"
"61601306","1"
"77832213","3"
"61601365","1"
"77830040","10"
"73515450","8"
"61601845","2"
"61601888","1"
"61601926","1"
"61602205","2"
"77835824","5"
"73510602","9"
"61602930","1"
"61603058","1"
"61603082","1"
"61603236","1"
"61603392","1"
"61603465","1"
"61603481","1"
"61603503","2"
"61603619","1"
"61603627","2"
"61603708","2"
"61603716","1"
"61603732","1"
"61604011","1"
"61604062","2"
"61604429","1"
"61604453","1"
"61604496","3"
"61604623","2"
"61605034","1"
"61605174","1"
"61605298","2"
"61605336","2"
"61605387","2"
"61605492","2"
"61605522","1"
"61605557","1"
"61605573","1"
"61601500","3"
"61606316","1"
"61606898","1"
"61606901","1"
"61606960","1"
"61607002","1"
"61607851","1"
"61606391","1"
"61606413","1"
"61606545","1"
"61609935","2"
"61606561","1"
"61607312","1"
"61607320","2"
"61607347","2"
"61607363","2"
"61607525","1"
"61607673","4"
"61607789","1"
"61607797","1"
"61611441","1"
"61608122","1"
"61607991","1"
"61608874","3"
"61608882","1"
"61608378","4"
"61608556","1"
"61608572","1"
"61608742","1"
"61608793","2"
"61608807","1"
"61608815","1"
"61608912","2"
"61608831","1"
"61609021","1"
"61609129","1"
"61609986","2"
"61609196","1"
"61609285","2"
"61609323","1"
"61610321","1"
"61609994","1"
"61609366","2"
"61609382","1"
"61609706","1"
"61609676","1"
"61609943","1"
"61609889","1"
"61609838","1"
"61609846","1"
"61610240","1"
"61609919","1"
"61609978","2"
"12034533","1"
"12038954","1"
"12021377","5"
"12032794","2"
"12038962","1"
"12032212","1"
"12027472","3"
"12028037","4"
"12197432","6"
"12197386","6"
"12022241","4"
"12035033","1"
"12035041","1"
"61610259","1"
"61610089","1"
"61610100","31"
"61610135","3"
"61610267","5"
"61610399","1"
"61610437","1"
"61610461","1"
"61610518","2"
"61610593","8"
"61610623","2"
"61610666","2"
"61610658","13"
"61610747","2"
"61610879","1"
"61611034","1"
"61611042","6"
"61611085","1"
"61611174","2"
"61611182","3"
"61611271","2"
"61611298","2"
"61611433","1"
"61611492","2"
"61611697","3"
"61611727","1"
"61611980","1"
"61612014","1"
"61612022","1"
"61611964","1"
"61611956","1"
"61611948","1"
"61612057","1"
"61612529","1"
"61612588","1"
"61612634","1"
"61614718","1"
"61613053","2"
"61612960","1"
"61612995","1"
"61613126","1"
"61613142","3"
"61613185","5"
"61613207","1"
"61613193","7"
"61613320","1"
"61613282","1"
"61613452","3"
"61613614","1"
"61613681","1"
"61614491","1"
"61614858","1"
"61614920","1"
"61614947","1"
"61615022","1"
"61615412","2"
"61615676","1"
"61616532","1"
"61616338","1"
"61617687","1"
"61617962","1"
"61617970","1"
"61617989","1"
"61618896","1"
"61619531","1"
"61620246","1"
"61620963","2"
"61621129","1"
"61621366","1"
"91111714","1"
"61614653","2"
"61622303","1"
"61623256","1"
"61611395","2"
"61615315","1"
"61622907","1"
"61610550","4"
"61611166","2"
"61622730","1"
"61622747","1"
"61622600","1"
"61621443","1"
"61610151","3"
"61613959","2"
"61622105","1"
"61614777","2"
"61613061","2"
"61613584","5"
"61610690","3"
"61620422","1"
"61609632","1"
"61622433","1"
"61615668","7"
"61623294","1"
"61611344","2"
"61621542","1"
"61623157","1"
"61621285","3"
"61613096","2"
"61615293","1"
"61606294","2"
"61620446","1"
"61622792","1"
"61613622","2"
"61621399","1"
"73513245","8"
"61621894","1"
"61622273","3"
"61606995","2"
"61606642","2"
"61623263","3"
"61610526","3"
"61621153","2"
"61622365","1"
"61619787","2"
"77837495","2"
"61612707","3"
"61613134","3"
"61613630","2"
"61615498","2"
"77833406","4"
"61610852","4"
"77831322","5"
"77831861","5"
"61611638","4"
"61617644","2"
"61611301","4"
"61611824","2"
"61622341","1"
"61620156","2"
"61605166","2"
"61600091","2"
"61623348","1"
"61609250","1"
"61612944","3"
"77830067","5"
"61615102","7"
"61611581","3"
"61620262","2"
"61615459","1"
"61612715","3"
"61623102","1"
"61613290","4"
"61608653","1"
"61612618","5"
"61613813","1"
"61621757","1"
"61622549","2"
"61623454","1"
"61623591","1"
"61623119","1"
"61621573","1"
"61607541","3"
"61623560","1"
"61623652","5"
"61621580","1"
"61621597","1"
"61623140","1"
"61623355","1"
"61623607","1"
"61622280","9"
"61615269","3"
"61603945","2"
"12021164","2"
"77836413","1"
"61601144","1"
"61601152","1"
"61603368","1"
"77837622","3"
"61602000","4"
"61623416","1"
"61621994","1"
"61609218","3"
"77833694","4"
"61621429","1"
"61620347","1"
"61600210","3"
"61613606","6"
"61621838","1"
"61613517","2"
"61613967","3"
"61621139","1"
"61622112","2"
"61620118","1"
"61614939","1"
"61611360","8"
"61611573","4"
"61608890","1"
"61615110","2"
"61607843","1"
"61613975","4"
"61605514","1"
"61623126","1"
"61613118","2"
"61621404","4"
"77832655","3"
"61609927","10"
"61602647","4"
"61620289","2"
"61603007","3"
"61611565","1"
"61611646","1"
"61611603","1"
"61611832","1"
"61605530","1"
"61611321","1"
"61621351","1"
"61610798","3"
"61610771","3"
"61611557","3"
"61611611","2"
"73512931","4"
"61610402","3"
"61621218","2"
"61616567","1"
"61614963","2"
"61623461","1"
"61611379","2"
"61605328","2"
"61614696","3"
"61603821","3"
"61613215","3"
"61604178","1"
"61606758","2"
"77837878","1"
"61621331","3"
"61613493","1"
"61611816","4"
"61614823","2"
"61601977","2"
"12037400","1"
"77838815","3"
"61620415","2"
"61610070","13"
"61617598","2"
"61621221","1"
"61622358","1"
"61624833","1"
"61607029","1"
"61605689","1"
"61605611","1"
"61605794","1"
"61607142","1"
"61607134","1"
"61606081","1"
"61606162","1"
"61606170","1"
"61606200","1"
"61606324","1"
"61606340","1"
"61607282","1"
"61607894","1"
"61608130","1"
"61605484","1"
"61608475","1"
"61608548","1"
"61608998","1"
"61609005","1"
"61609013","1"
"61608971","1"
"61609048","1"
"61610046","1"
"61610372","1"
"61610534","1"
"61610569","1"
"61610615","2"
"61610887","1"
"61611050","1"
"61611107","1"
"61611204","1"
"61611778","1"
"61611913","1"
"61611867","1"
"61612065","2"
"61612073","1"
"61612103","1"
"61612405","1"
"61612138","1"
"61612146","1"
"61612154","1"
"61612189","1"
"61612197","1"
"61612227","1"
"61612235","1"
"61612243","1"
"61612251","1"
"61612278","1"
"61612286","1"
"61612316","1"
"61612308","1"
"61612324","1"
"61612332","1"
"61612340","1"
"61612359","1"
"61612383","2"
"61612391","1"
"61612413","1"
"61612421","1"
"61612448","2"
"61612456","1"
"61612464","1"
"61612472","1"
"61612480","1"
"61612650","1"
"61612669","1"
"61612677","1"
"61612685","1"
"61612758","1"
"61612936","1"
"61613045","1"
"61613304","1"
"61613460","1"
"61613541","1"
"61613592","1"
"61613657","2"
"61613738","1"
"61613762","1"
"61613789","1"
"61613800","1"
"61613797","2"
"61613843","1"
"61613835","1"
"61614009","1"
"61614033","1"
"61614041","1"
"61614017","1"
"61614025","1"
"61614068","1"
"61614076","2"
"61614084","1"
"61614114","1"
"61614106","2"
"61614130","1"
"61614300","1"
"61614297","1"
"61614327","1"
"61614335","1"
"61614157","1"
"61614254","1"
"61614262","1"
"61614270","1"
"61614351","1"
"61614416","1"
"61614432","1"
"61614440","1"
"61614459","1"
"61614483","1"
"61614505","1"
"61614661","2"
"61614688","1"
"61614742","1"
"61614793","1"
"61614807","1"
"61614769","1"
"61615307","1"
"61615439","1"
"61615528","1"
"61620378","1"
"61615536","1"
"61615552","1"
"61615560","1"
"61615579","1"
"61615587","1"
"61615595","1"
"61615609","1"
"61615633","1"
"61615684","1"
"61616524","1"
"61616303","1"
"61616346","1"
"61616354","1"
"61616370","1"
"61616419","1"
"61616591","1"
"61616605","1"
"61617083","1"
"61616788","1"
"61619809","1"
"61617628","1"
"61617652","2"
"61617911","1"
"61617938","1"
"61617946","1"
"61618098","1"
"61619345","1"
"61619558","1"
"61619825","1"
"61620297","1"
"61620300","1"
"61620327","1"
"61620408","1"
"61621161","1"
"61621307","1"
"61621277","1"
"61621269","1"
"61621374","1"
"61621382","1"
"61621455","1"
"61621633","1"
"61621846","1"
"61621870","1"
"61622136","1"
"61622440","1"
"61622679","1"
"61622686","1"
"61622754","1"
"61622761","1"
"61622815","1"
"61622822","1"
"61622839","1"
"61622846","1"
"61622877","1"
"61622938","1"
"61622952","1"
"61622983","1"
"61622921","1"
"61623058","1"
"61623171","1"
"61623188","1"
"61623324","1"
"61623423","1"
"61623577","1"
"61623621","1"
"61623638","1"
"61623669","1"
"61623775","1"
"61623812","1"
"61624659","1"
"61624642","1"
"61620125","2"
"61616906","2"
"61617040","2"
"61604879","1"
"61621627","1"
"61620279","1"
"61624192","1"
"61609536","1"
"61621467","1"
"61615137","4"
"61624765","2"
"61625052","1"
"77837444","7"
"61614643","1"
"61622488","1"
"61613940","1"
"61614149","1"
"61615285","1"
"61615382","1"
"61615366","1"
"61619922","1"
"61622228","1"
"61622235","1"
"61622242","1"
"61622259","1"
"61622266","1"
"61623515","1"
"61623737","1"
"61601098","1"
"77838521","1"
"61616311","1"
"61601276","2"
"61621986","1"
"61623331","1"
"61623508","1"
"61604593","1"
"1012","1"
"61601314","1"
"77839617","1"
"61601071","1"
"61601063","1"
"61603295","1"
"61603597","1"
"61617008","1"
"61621559","2"
"61622617","1"
"61621765","1"
"61608173","4"
"61612545","1"
"61601616","3"
"61609749","1"
"61609064","5"
"61611409","2"
"61604844","3"
"61601624","2"
"61603643","2"
"61612596","1"
"61625281","1"
"61620335","1"
"61621706","1"
"61621722","1"
"61621714","1"
"61621692","1"
"61616397","1"
"61615072","1"
"61615099","1"
"61616362","1"
"61614173","1"
"61616400","1"
"61614203","1"
"61614211","1"
"61616389","1"
"61615064","1"
"61615080","1"
"61614165","1"
"61614181","1"
"61615056","1"
"61621313","1"
"61611875","1"
"61613479","1"
"61616647","1"
"61622693","1"
"61621943","1"
"61612723","1"
"61621811","1"
"61622001","1"
"61611190","1"
"61622028","1"
"61621862","1"
"61623362","1"
"61611263","1"
"61608033","1"
"61621242","1"
"61622044","1"
"61614424","1"
"61622036","1"
"61609730","1"
"61617547","1"
"61621781","1"
"61613770","1"
"61621684","1"
"61621668","1"
"61621676","1"
"61611794","1"
"61622052","1"
"61611387","1"
"61621927","1"
"61611336","1"
"61622143","1"
"61623201","1"
"61621803","1"
"61617695","1"
"61613002","1"
"61621773","1"
"61623799","1"
"61623492","1"
"61625489","1"
"61625250","1"
"61611239","4"
"61620392","1"
"61623164","1"
"61623287","1"
"61610305","1"
"61616937","1"
"61616920","1"
"61616951","1"
"61622860","1"
"61625298","1"
"77830202","2"
"61615323","1"
"61624864","1"
"61611883","1"
"61620351","1"
"61621293","1"
"61622060","1"
"61616982","1"
"61619518","1"
"77831853","4"
"61614637","1"
"61609304","1"
"61611891","1"
"61621641","1"
"61623768","1"
"61610171","1"
"61610429","2"
"61623553","1"
"61623522","1"
"61624918","1"
"61613820","1"
"61621238","1"
"61623843","1"
"61625304","1"
"61625120","1"
"61622457","1"
"61610410","2"
"61622914","1"
"61622389","1"
"61622853","1"
"61610011","3"
"61614902","1"
"61613983","1"
"61623720","1"
