﻿"OJSBN","ONtekst"
"98958763","Stinne Glasdam, "
"61625564",""
"91562104","Niels Rosendal Jensen, "
"98820834","Søren Gytz Olesen, "
"98555979","Erik Hygum, Søren Gytz Olesen, "
"91562112","Staf Callewaert, "
"91562139","Bodil Kjær Nielsen, "
"50037226","Staf Callewaert, "
"91562242","Klaus Ernst Hansen, "
"91562280","Søren Gytz Olesen, Lars Wahlun, "
"98958798","Marianne H. Johnsen, "
"91562082","Erik Hygum, "
"91562058","Peter Møller Pedersen, "
"91562031","Inga Axelsen, "
"91562066","Søren Gytz Olesen, "
"91562074","Kirsten Frederiksen, "
"91562090","Birte Hedegaard Larsen, "
"91562174","Bent Olsen, "
"91562023","Vibeke Lorentzen, "
"91562259","Jette Steensen, "
"98820842","Tina Damsholt, Anne Daugbjerg, Erik Hygum, "
"98820850","Staf Callewaert, "
"98958704","Ole Steen Kristensen, "
"98958712","Kirsten Højbjerg, "
"98958720","Anja Stokholm, "
"98958739","Anna Crowford Pinnerup, "
"98958747","Steen Juul Hansen, "
"98958755","Gordon Vincent, "
"91562007","Tina Andersen, "
"91562015","Susanne Højlund, Ole Steen Kristensen, "
"98555995","Leif Ærø, "
"91562120","Henrik Bavnhøj, Finn Gadgaard, Niels Kjeldsen, Martin Krabbe Sillasen, Henrik L. Nielsen, Kim Negendahl, "
"91562143","Peder Johannesen, "
"91190029","Ruth Johnsen, Anna Lica, "
"91562303","Kirsten Højbjerg, Åge Rokkjær, "
"91190037","Birgit Tanderup, "
"91190053","Birthe Bøhm, Karen Sørensen, "
"91190061","Birthe Bøhm, "
"91190045","Lene W. Pedersen, "
"91373034","Frode Boye Andersen, "
"90833992","Gert Vorre, "
"91562266","Jens Rasmussen, "
"77018060","Marianne Nykjær Madsen, Marianne Thrane, "
"77018052","Birgit Ryberg, "
"91273026","Frode Boye Andersen, Jørgen Gleerup, Birgit Ryberg, Per Schaarup, "
"91373042","Frode Boye Andersen, Marianne Nykjær Madsen, Birgit Ryberg, "
"91562297","Frode Boye Andersen, "
"90833145","Anja Stokholm, "
"91562235","Vibeke Galsbo, Kristian Horslund, Peder Johannesen, Andreas Rasch, Martin Strøm, "
"91562198","Stinne Glasdam, Vibeke Lorentzen, Karin Anna Petersen, "
"98820826","Kirsten Beedholm, Ulf Brinkkjær, Staf Callewaert, Eva Gulløv, Erik Hygum, marianne johnsen, Vibeke Lorentzen, Morten Nørholm, Søren Gytz Olesen, Karin Anna Petersen, "
"91562334","Kaj Struve, "
"91562155","Tina Andersen, Katja Anna Hybel, Kirsten Højbjerg, Susanne Højlund, Steen Juul Hansen, Ole Steen Kristensen, Anja Stokholm, Gordon Vincenti, "
"98820893","Jan Bauditz, Mogens Dinesen, John Gulløv, Kenneth H. Sørensen, Mikkel Haarder, Poul Erik Hansen, Erik Hygum, Søren K. Lauridsen, Søren Gytz Olesen, Peter Møller Pedersen, Aage Pedersen, Anette Rachlitz, Per Schultz Jørgensen, Johannes Stensgaard, Sonja Svendsen, Leif Ærø, "
"98820819","Leif Hermann, Stefan Hermann, Torben Næsby, Britta Nørgaard, Søren Gytz Olesen, Peter Møller Pedersen, "
"90833367","Erik Hygum, Søren Gytz Olesen, "
"90833343","Gitte Wind, "
