"OJSBN","OJUdgave","OJAktivt oplag","OJProjekt","OJISBN 10","OJISBN 13","OJAnslået dato","OJBekræftet dato","ONtekst","OJProjektansvarlig","OJPris inkl moms","OJAntal sider","OJSystime Lab-url","OJFag","OJMedietype","OJVægt","OJProjektstatus","OJUdgivelsesår"
"61648822","1","1","Erhvervscase","8761648825","9788761648822","20120808","20120810","Jeanette Hassing, Henrik Jespersen, Birte Ravn Østergaard, ","Rikke Haue","100.00","","http://lab.systime.dk/kategori/udgivelser/erhvervscase/","Erhvervs-/virksomhedsøkonomi","iBog - Lærer/klasselicens","","OK","2012"
"61654212","1","1","Erhvervscase","8761654213","9788761654212","","20120810","","Rikke Haue","50.00","","","Erhvervs-/virksomhedsøkonomi","iBog - Lærer/klasselicens 3 mdr.","","OK","2012"
"61649867","1","1","Erhvervscase","8761649848","9788761649867","","20120810","","Rikke Haue","62.50","","http://lab.systime.dk/kategori/udgivelser/erhvervscase/","Erhvervs-/virksomhedsøkonomi","iBog - Lærer/klasselicens ½ år","","OK","2012"
"61645616","1","1","Erhvervscase","8761645613","9788761645616","","20120810","","Rikke Haue","75.00","","http://lab.systime.dk/kategori/udgivelser/erhvervscase/","Erhvervs-/virksomhedsøkonomi","iBog - Lærer/klasselicens 1 år","","OK","2012"
"61645623","1","1","Erhvervscase","8761645621","9788761645623","","20120810","","Rikke Haue","87.50","","http://lab.systime.dk/kategori/udgivelser/erhvervscase/","Erhvervs-/virksomhedsøkonomi","iBog - Lærer/klasselicens 2 år","","OK","2012"
"61649850","1","1","Erhvervscase","8761649856","9788761649850","","20120810","","Rikke Haue","145.00","","http://lab.systime.dk/kategori/udgivelser/erhvervscase/","Erhvervs-/virksomhedsøkonomi","iBog - Studie/privatlicens 1 år","","OK","2012"
