"OJSBN","OJUdgave","OJAktivt oplag","OJProjekt","OJISBN 10","OJISBN 13","OJAnslået dato","OJBekræftet dato","ONtekst","OJProjektansvarlig","OJPris inkl moms","OJAntal sider","OJSystime Lab-url","OJFag","OJMedietype","OJVægt","OJProjektstatus","OJUdgivelsesår"
"61627896","2","1","SamfNU - en grundbog til samfundsfag STX & HF C-niveau, 2. udgave","8761627895","9788761627896","20120730","20110323","Morten Winther Bülow, Mads Christian Dagnis Jensen, Rikke Erhardi, Bent Greve, Flemming Gräs, Martin Ingemann Hansen, Klaus Holleufer, Ole Hedegaard Jensen, Signe Maibom Krøjgaard, Peter Mouritsen, Jakob Nørgaard-Petersen, Gunvor Vestergaard, Janne Bisgaard Wikman, Michael Øe, ","Rikke Haue","225.00","215","http://lab.systime.dk/kategori/udgivelser/samfnu/","Samfundsfag","Bog","0.41","OK","2011"
"61636997","1","1","C Samf","8761636991","9788761636997","20120801","20120801","Helle Hauge Bülow, ","Rikke Haue","112.50","","http://lab.systime.dk/kategori/udgivelser/c-samf/","Samfundsfag","iBog - Lærer/klasselicens","","Under udgivelse","2012"
