"OJSBN","OJUdgave","OJAktivt oplag","OJProjekt","OJISBN 10","OJISBN 13","OJAnslået dato","OJBekræftet dato","ONtekst","OJProjektansvarlig","OJPris inkl moms","OJAntal sider","OJSystime Lab-url","OJFag","OJMedietype","OJVægt","OJProjektstatus","OJUdgivelsesår"
"61638991","1","1","C Salg og service","8761638994","9788761638991","20120801","","Nettie Pape, Bruno Sørensen, ","Rikke Haue","142.50","","http://lab.systime.dk/kategori/udgivelser/sos/","Salg og service","iBog - Lærer/klasselicens","","Under udgivelse","2012"
"61648822","1","1","Erhvervscase","8761648825","9788761648822","20120808","","Jeanette Hassing, Henrik Jespersen, Birte Ravn Østergaard, ","Rikke Haue","100.00","","http://lab.systime.dk/kategori/udgivelser/erhvervscase/","Erhvervs-/virksomhedsøkonomi","iBog - Lærer/klasselicens","","Under udgivelse","2012"
