"OJSBN","OJUdgave","OJAktivt oplag","OJProjekt","OJISBN 10","OJISBN 13","OJAnslået dato","OJBekræftet dato","ONtekst","OJProjektansvarlig","OJPris inkl moms","OJAntal sider","OJSystime Lab-url","OJFag","OJMedietype","OJVægt","OJProjektstatus","OJUdgivelsesår"
"61622587","1","1","Engelsk grundgrammatik. Questions and Answers","8761622583","9788761622587","20120815","20120817","Helle Brieghel, Dorthe Chalotte Hansen, ","Birte Annette Nørregaard","87.50","","http://lab.systime.dk/kategori/udgivelser/engelsk-grundgrammatik/","Engelsk","iBog - Lærer/klasselicens","","Under udgivelse","2012"
"61623225","1","1","Engelsk grundgrammatik. Questions and Answers - fortsætter","8761623229","9788761623225","20130919","20120817","Helle Brieghel, Dorthe Chalotte Hansen, ","Birte Annette Nørregaard","","150","http://lab.systime.dk/kategori/udgivelser/engelsk-grundgrammatik/","Engelsk","Bog","","Under udgivelse","2013"
"61628244","1","1","Franskbogen","8761628247","9788761628244","20120824","20120831","Vibeke Gade, ","Birte Annette Nørregaard","118.75","","http://lab.systime.dk/kategori/udgivelser/franskbogen/","Fransk","iBog - Lærer/klasselicens","","Under udgivelse","2012"
"61632173","1","1","Engelsk grundgrammatik. Questions and Answers","8761632171","9788761632173","20120815","20120817","Birgitte Bjerre, Helle Brieghel, Dorthe Chalotte Hansen, ","Birte Annette Nørregaard","35.00","","","Engelsk","iBog - Lærer/klasselicens ½ år","","Under udgivelse","2012"
"61632197","1","1","Engelsk grundgrammatik. Questions and Answers","8761632198","9788761632197","20120815","20120817","Helle Brieghel, Dorthe Chalotte Hansen, ","Birte Annette Nørregaard","62.50","","","Engelsk","iBog - Lærer/klasselicens 1 år","","Under udgivelse","2012"
"61632241","1","1","Engelsk grundgrammatik. Questions and Answers","8761632244","9788761632241","20120815","20120817","Helle Brieghel, Dorthe Chalotte Hansen, ","Birte Annette Nørregaard","75.00","","","Engelsk","iBog - Lærer/klasselicens 2 år","","Under udgivelse","2012"
"61632265","1","1","Engelsk grundgrammatik. Questions and Answers","8761632260","9788761632265","20120815","20120817","Helle Brieghel, Dorthe Chalotte Hansen, ","Birte Annette Nørregaard","95.00","","","Engelsk","iBog - Studie/privatlicens 1 år","","Under udgivelse","2012"
"61634191","1","1","Franskbogen","8761634190","9788761634191","20120824","20120831","","Birte Annette Nørregaard","63.75","","","Fransk","iBog - Lærer/klasselicens ½ år","","Under udgivelse","2012"
"61634207","1","1","Franskbogen","8761634204","9788761634207","20120824","20120831","","Birte Annette Nørregaard","93.75","","","Fransk","iBog - Lærer/klasselicens 1 år","","Under udgivelse","2012"
"61634238","1","1","Franskbogen","8761634239","9788761634238","20120824","20120831","","Birte Annette Nørregaard","195.00","","","Fransk","iBog - Studie/privatlicens 1 år","","Under udgivelse","2012"
"61634214","1","1","Franskbogen","8761634212","9788761634214","20120824","20120831","","Birte Annette Nørregaard","106.25","","","Fransk","iBog - Lærer/klasselicens 2 år","","Under udgivelse","2012"
"61637635","1","1","Kinesiske skrifttegn for begyndere - øvebog","8761637637","9788761637635","20120907","","Lene Sønderby Bech, Christian Nielsen, ","Birte Annette Nørregaard","250.00","","http://lab.systime.dk/rikke-haue/2008/11/06/kinesiske-skrifttegn-for-begyndere/","Kinesisk","Bog","","Under udgivelse","2012"
"61638663","1","1","American History","8761638668","9788761638663","20120817","","David Nye, ","Birte Annette Nørregaard","87.50","","http://lab.systime.dk/kategori/udgivelser/american-history/","Engelsk","iBog - Lærer/klasselicens","","Under udgivelse","2012"
