"OJSBN","OJUdgave","OJAktivt oplag","OJProjekt","OJISBN 10","OJISBN 13","OJAnslået dato","OJBekræftet dato","ONtekst","OJProjektansvarlig","OJPris inkl moms","OJAntal sider","OJSystime Lab-url","OJFag","OJMedietype","OJVægt","OJProjektstatus","OJUdgivelsesår"
"61654298","1","1","Franskbogen","8716154299","9788761654298","","","","Birte Annette Nørregaard","48.75","","","Fransk","iBog - Lærer/klasselicens 3 mdr.","","Under udgivelse","2012"
"61628244","1","1","Franskbogen","8761628247","9788761628244","20120824","","Vibeke Gade, ","Birte Annette Nørregaard","118.75","","http://lab.systime.dk/kategori/udgivelser/franskbogen/","Fransk","iBog - Lærer/klasselicens","","Under udgivelse","2012"
