"OJSBN","OJUdgave","OJAktivt oplag","OJProjekt","OJISBN 10","OJISBN 13","OJAnslået dato","OJBekræftet dato","ONtekst","OJProjektansvarlig","OJPris inkl moms","OJAntal sider","OJSystime Lab-url","OJFag","OJMedietype","OJVægt","OJProjektstatus","OJUdgivelsesår"
"61638540","1","1","Studievaner på HF","8761638544","9788761638540","","","","Poul Storgaard Mikkelsen","22.50","","","Værkstedsundervisning","iBog - Lærer/klasselicens ½ år","","Under udgivelse","2012"
"61638557","1","1","Studievaner på HF","8761638552","9788761638557","","","","Poul Storgaard Mikkelsen","37.50","","","Værkstedsundervisning","iBog - Lærer/klasselicens 1 år","","Under udgivelse","2012"
"61638564","1","1","Studievaner på HF","8761638560","9788761638564","","","","Poul Storgaard Mikkelsen","50.00","","","Værkstedsundervisning","iBog - Lærer/klasselicens 2 år","","Under udgivelse","2012"
"61638595","1","1","Studievaner på HF","8761638595","9788761638595","","","","Poul Storgaard Mikkelsen","95.00","","","Værkstedsundervisning","iBog - Studie/privatlicens 1 år","","Under udgivelse","2012"
"61655271","1","1","Studievaner på HF","8761655279","9788761655271","","","","Poul Storgaard Mikkelsen","18.75","","http://lab.systime.dk/kategori/udgivelser/studievaner-hf/","Værkstedsundervisning","iBog - Lærer/klasselicens 3 mdr.","","Under udgivelse","2012"
"61638922","1","1","Studievaner på HF","8761638927","9788761638922","20120801","","Lise Ludvigsen, Poul-Erik Møhring, ","Poul Storgaard Mikkelsen","62.50","","http://lab.systime.dk/kategori/udgivelser/studievaner-hf/","Værkstedsundervisning","iBog - Lærer/klasselicens","","Under udgivelse","2012"
"61655851","1","1","Mat A2 - STX","8761655856","9788761655851","","","","Klaus Marthinus Christensen","155.00","","http://lab.systime.dk/kategori/udgivelser/mat-serien/","Matematik","E-bog - privatlicens","","Under udgivelse",""
"61648884","1","1","Begreb om dansk - grundbog og antologi","8761648884","9788761648884","20120801","","","Poul Storgaard Mikkelsen","156.25","","","Dansk","iBog - Lærer/klasselicens","","Under udgivelse","2012"
"61656551","1","1","Begreb om dansk - grundbog og antologi","8761656550","9788761656551","","","","Poul Storgaard Mikkelsen","125.00","","","Dansk","iBog - Lærer/klasselicens 2 år","","Under udgivelse","2012"
"61656544","1","1","Begreb om dansk - grundbog og antologi","8761656542","9788761656544","","","","Poul Storgaard Mikkelsen","93.75","","","Dansk","iBog - Lærer/klasselicens 1 år","","Under udgivelse","2012"
"61656537","1","1","Begreb om dansk - grundbog og antologi","8761656534","9788761656537","","","","Poul Storgaard Mikkelsen","87.50","","","Dansk","iBog - Lærer/klasselicens ½ år","","Under udgivelse","2012"
"61654120","1","1","Begreb om dansk - grundbog og antologi","8761654124","9788761654120","","","","Poul Storgaard Mikkelsen","75.00","","","Dansk","iBog - Lærer/klasselicens 3 mdr.","","Under udgivelse","2012"
"61655325","1","1","Begreb om dansk - grundbog og antologi","8761655325","9788761655325","","","","Poul Storgaard Mikkelsen","145.00","","","Dansk","iBog - Studie/privatlicens 1 år","","Under udgivelse","2012"
"61648785","1","1","Netværker - digitale medier i dansk","8761648787","9788761648785","20120801","","","Steen Hammershøy Andersen","91.25","","","Dansk","iBog - Lærer/klasselicens","","Under udgivelse","2012"
"61626455","1","1","Grundbogen til Religion C","8761626457","9788761626455","20120502","20120502","Bodil Juncker, Lene Madsen, Dorte Thelander Motzfeldt, Anders Nielsen, Sofie Reimick, Trine Ryhave, ","Poul Storgaard Mikkelsen","310.00","296","http://lab.systime.dk/kategori/udgivelser/grundbog-til-religion/","Religion","Bog","","Under udgivelse","2012"
"61649676","1","1","Netværker - digitale medier i dansk","8761649678","9788761649676","","","","Steen Hammershøy Andersen","78.75","","","Dansk","iBog - Lærer/klasselicens 2 år","","Under udgivelse","2012"
"61649652","1","1","Netværker - digitale medier i dansk","8761649651","9788761649652","","","","Steen Hammershøy Andersen","55.00","","","Dansk","iBog - Lærer/klasselicens 1 år","","Under udgivelse","2012"
"61649645","1","1","Netværker - digitale medier i dansk","8761649643","9788761649645","","","","Steen Hammershøy Andersen","38.75","","","Dansk","iBog - Lærer/klasselicens ½ år","","Under udgivelse","2012"
"61654113","1","1","Netværker - digitale medier i dansk","8761654116","9788761654113","","","","Steen Hammershøy Andersen","31.25","","","Dansk","iBog - Lærer/klasselicens 3 mdr.","","Under udgivelse","2012"
"61649706","1","1","Netværker - digitale medier i dansk","8761649708","9788761649706","","","","Steen Hammershøy Andersen","95.00","","","Dansk","iBog - Studie/privatlicens 1 år","","Under udgivelse","2012"
"61638786","1","1","Mat A2 - STX","8761638781","9788761638786","20120801","","Jens Carstensen, Jesper Frandsen, Jens Studsgaard Sørensen, ","Klaus Marthinus Christensen","112.50","","http://lab.systime.dk/kategori/udgivelser/mat-serien/","Matematik","iBog - Lærer/klasselicens","","Under udgivelse","2012"
"61640611","1","1","Mat A2 - STX","8761640611","9788761640611","","","","Klaus Marthinus Christensen","50.00","","","Matematik","iBog - Lærer/klasselicens ½ år","","Under udgivelse","2012"
"61640635","1","1","Mat A2 - STX","8761640638","9788761640635","","","","Klaus Marthinus Christensen","62.50","","","Matematik","iBog - Lærer/klasselicens 1 år","","Under udgivelse","2012"
"61640642","1","1","Mat A2 - STX","8761640646","9788761640642","","","","Klaus Marthinus Christensen","87.50","","","Matematik","iBog - Lærer/klasselicens 2 år","","Under udgivelse","2012"
"61640666","1","1","Mat A2 - STX","8761640662","9788761640666","","","","Klaus Marthinus Christensen","95.00","","","Matematik","iBog - Studie/privatlicens 1 år","","Under udgivelse","2012"
"61645593","1","1","Mat A2 - STX","8761645591","9788761645593","","","","Klaus Marthinus Christensen","37.50","","http://lab.systime.dk/kategori/udgivelser/mat-serien/","Matematik","iBog - Lærer/klasselicens 3 mdr.","","Under udgivelse","2012"
"61629302","1","1","MAT C - STX","8761629308","9788761629302","20120801","","Jens Carstensen, Jesper Frandsen, ","Klaus Marthinus Christensen","112.50","","http://lab.systime.dk/kategori/udgivelser/mat-serien/","Matematik","iBog - Lærer/klasselicens","","Under udgivelse","2012"
"61632616","1","1","MAT C - STX","8761632619","9788761632616","","","","Klaus Marthinus Christensen","95.00","","","Matematik","iBog - Studie/privatlicens 1 år","","Under udgivelse","2012"
"61645609","1","1","MAT C - STX","8761645605","9788761645609","","","","Klaus Marthinus Christensen","37.50","","http://lab.systime.dk/kategori/udgivelser/mat-serien/","Matematik","iBog - Lærer/klasselicens 3 mdr.","","Under udgivelse","2012"
"61632586","1","1","MAT C - STX","8761632589","9788761632586","","","","Klaus Marthinus Christensen","62.50","","","Matematik","iBog - Lærer/klasselicens 1 år","","Under udgivelse","2012"
"61632593","1","1","MAT C - STX","8761632597","9788761632593","","","","Klaus Marthinus Christensen","87.50","","","Matematik","iBog - Lærer/klasselicens 2 år","","Under udgivelse","2012"
"61632579","1","1","MAT C - STX","8761632570","9788761632579","","","","Klaus Marthinus Christensen","50.00","","","Matematik","iBog - Lærer/klasselicens ½ år","","Under udgivelse","2012"
"61644572","1","1","PolitikNU","8761644579","9788761644572","","","","Rikke Haue","33.75","","","Samfundsfag","iBog - Lærer/klasselicens 3 mdr.","","Under udgivelse","2012"
"61644503","1","1","PolitikNU","8761644501","9788761644503","","","","Rikke Haue","42.50","","","Samfundsfag","iBog - Lærer/klasselicens ½ år","","Under udgivelse","2012"
"61644527","1","1","PolitikNU","8761644528","9788761644527","","","","Rikke Haue","52.50","","","Samfundsfag","iBog - Lærer/klasselicens 1 år","","Under udgivelse","2012"
"61644534","1","1","PolitikNU","8761644536","9788761644534","","","","Rikke Haue","78.75","","","Samfundsfag","iBog - Lærer/klasselicens 2 år","","Under udgivelse","2012"
"61644558","1","1","PolitikNU","8761644552","9788761644558","","","","Rikke Haue","95.00","","","Samfundsfag","iBog - Studie/privatlicens 1 år","","Under udgivelse","2012"
"61644411","1","1","SociologiNU","8761644412","9788761644411","","","","Rikke Haue","33.75","","","Samfundsfag","iBog - Lærer/klasselicens 3 mdr.","","Under udgivelse","2012"
"61644398","1","1","SociologiNU","8761644390","9788761644398","","","","Rikke Haue","95.00","","","Samfundsfag","iBog - Studie/privatlicens 1 år","","Under udgivelse","2012"
"61644374","1","1","SociologiNU","8761644374","9788761644374","","","","Rikke Haue","78.75","","","Samfundsfag","iBog - Lærer/klasselicens 2 år","","Under udgivelse","2012"
"61644367","1","1","SociologiNU","8761644366","9788761644367","","","","Rikke Haue","52.50","","","Samfundsfag","iBog - Lærer/klasselicens 1 år","","Under udgivelse","2012"
"61644350","1","1","SociologiNU","8761644358","9788761644350","","","","Rikke Haue","42.50","","","Samfundsfag","iBog - Lærer/klasselicens ½ år","","Under udgivelse","2012"
"61638847","1","1","SociologiNU","8761638846","9788761638847","20121003","","","Rikke Haue","102.50","","","Samfundsfag","iBog - Lærer/klasselicens","","Under udgivelse","2012"
"61648730","1","1","Sæt skrivespor","8761648736","9788761648730","20120518","","Roland Hachmann, ","Søren Peter Sørensen","88.75","","","Dansk","iBog - Lærer/klasselicens","","Under udgivelse","2012"
"61653727","1","1","plus C-til-B stx","8761653721","9788761653727","20130101","","","Claes Sønderriis","","","","Matematik","iBog - Lærer/klasselicens","","Under udgivelse",""
"61648525","1","2","Renæssancen - da mennesket kom i centrum","8761648523","9788761648525","20130101","","Kim Beck Danielsen, Sanne Stemann Knudsen, ","Steen Hammershøy Andersen","","","","Historie","iBog - Lærer/klasselicens","","Under udgivelse",""
"61637178","1","1","Musikalsk produktion","8761637173","9788761637178","","","","Claes Sønderriis","50.00","","","Musik","iBog - Lærer/klasselicens ½ år","","Under udgivelse","2011"
"61654809","1","1","Musikalsk produktion","8761654809","9788761654809","","","","Claes Sønderriis","37.50","","","Musik","iBog - Lærer/klasselicens 3 mdr.","","Under udgivelse","2011"
"61637208","1","1","Musikalsk produktion","8761637203","9788761637208","","","","Claes Sønderriis","145.00","","","Musik","iBog - Lærer/klasselicens 2 år","","Under udgivelse","2012"
"61645548","1","1","Sæt skrivespor","8761645540","9788761645548","","","","Søren Peter Sørensen","95.00","","","Dansk","iBog - Studie/privatlicens 1 år","","Under udgivelse","2012"
"61649317","1","1","Danske forfatterskaber","8761649317","9788761649317","20120801","","","Søren Peter Sørensen","112.50","","","Dansk","iBog - Lærer/klasselicens","","Under udgivelse","2012"
"61654014","1","1","Danske forfatterskaber","8761654019","9788761654014","","","","Søren Peter Sørensen","50.00","","","Dansk","iBog - Lærer/klasselicens 3 mdr.","","Under udgivelse","2012"
"61655332","1","1","Danske forfatterskaber","8761655333","9788761655332","","","","Søren Peter Sørensen","62.50","","","Dansk","iBog - Lærer/klasselicens ½ år","","Under udgivelse","2012"
"61655349","1","1","Danske forfatterskaber","8761655341","9788761655349","","","","Søren Peter Sørensen","87.50","","","Dansk","iBog - Lærer/klasselicens 1 år","","Under udgivelse","2012"
"61655363","1","1","Danske forfatterskaber","8761655368","9788761655363","","","","Søren Peter Sørensen","100.00","","","Dansk","iBog - Lærer/klasselicens 2 år","","Under udgivelse","2012"
"61655370","1","1","Danske forfatterskaber","8761655376","9788761655370","","","","Søren Peter Sørensen","195.00","","","Dansk","iBog - Studie/privatlicens 1 år","","Under udgivelse","2012"
"61634191","1","1","Franskbogen","8761634190","9788761634191","20120101","","","Birte Annette Nørregaard","63.75","","","Fransk","iBog - Lærer/klasselicens ½ år","","Under udgivelse","2012"
"61628244","1","1","Franskbogen","8761628247","9788761628244","20120824","","Vibeke Gade, ","Birte Annette Nørregaard","118.75","","","Fransk","iBog - Lærer/klasselicens","","Under udgivelse","2012"
"61634207","1","1","Franskbogen","8761634204","9788761634207","20120101","","","Birte Annette Nørregaard","93.75","","","Fransk","iBog - Lærer/klasselicens 1 år","","Under udgivelse","2012"
"61634214","1","1","Franskbogen","8761634212","9788761634214","20120101","","","Birte Annette Nørregaard","106.25","","","Fransk","iBog - Lærer/klasselicens 2 år","","Under udgivelse","2012"
"61654298","1","1","Franskbogen","8716154299","9788761654298","","","","Birte Annette Nørregaard","45.00","","","Fransk","iBog - Lærer/klasselicens 3 mdr.","","Under udgivelse","2012"
"61634238","1","1","Franskbogen","8761634239","9788761634238","20120101","","","Birte Annette Nørregaard","195.00","","","Fransk","iBog - Studie/privatlicens 1 år","","Under udgivelse","2012"
"61642400","1","1","MetodeNU","8761642401","9788761642400","20121003","","Klaus Holleufer, Benjamin Kristensen, Jens Langkjær, Kasper Vandborg Rasmussen, ","Rikke Haue","","","","Samfundsfag","iBog - Lærer/klasselicens","","Under udgivelse","2012"
"61644602","1","1","MetodeNU","8761644609","9788761644602","","","","Rikke Haue","","","","Samfundsfag","iBog - Lærer/klasselicens 2 år","","Under udgivelse","2012"
"61644626","1","1","MetodeNU","8761644625","9788761644626","","","","Rikke Haue","","","","Samfundsfag","iBog - Studie/privatlicens 1 år","","Under udgivelse","2012"
"61644596","1","1","MetodeNU","8761644595","9788761644596","","","","Rikke Haue","","","","Samfundsfag","iBog - Lærer/klasselicens 1 år","","Under udgivelse","2012"
"61644589","1","1","MetodeNU","8761644587","9788761644589","","","","Rikke Haue","","","","Samfundsfag","iBog - Lærer/klasselicens ½ år","","Under udgivelse","2012"
"61644640","1","1","MetodeNU","8761644641","9788761644640","","","","Rikke Haue","","","","Samfundsfag","iBog - Lærer/klasselicens 3 mdr.","","Under udgivelse","2012"
"61637826","1","1","Jakob Ejersbos univers - Introduktion til et forfatterskab","8761637823","9788761637826","20120502","","Vibeke Blaksteen, Kirsten Møller, ","Søren Peter Sørensen","60.00","","http://lab.systime.dk/kategori/udgivelser/jakob-ejersbos-univers/","Dansk","iBog - Lærer/klasselicens","","Under udgivelse","2012"
"61643599","1","1","Sprog i brug","8761643599","9788761643599","20120518","","Anna Maria Lassen, ","Søren Peter Sørensen","68.75","","http://lab.systime.dk/kategori/udgivelser/sprog-i-brug/","Dansk","iBog - Lærer/klasselicens","","Under udgivelse","2012"
"61640260","1","1","PolitikNU","8761640263","9788761640260","20120801","","Jørgen Goul Andersen, Aage Frandsen, Rune Gregersen, ","Rikke Haue","102.50","","","Samfundsfag","iBog - Lærer/klasselicens","","Under udgivelse","2012"
"61648822","1","1","Erhvervscase","8761648825","9788761648822","20120808","","Jeanette Hassing, Henrik Jespersen, Birte Ravn Østergaard, ","Rikke Haue","","","http://lab.systime.dk/kategori/udgivelser/erhvervscase/","Erhvervs-/virksomhedsøkonomi","iBog - Lærer/klasselicens","","Under udgivelse","2012"
"61654212","1","1","Erhvervscase","8761654213","9788761654212","","","","Rikke Haue","","","","Erhvervs-/virksomhedsøkonomi","iBog - Lærer/klasselicens 3 mdr.","","Under udgivelse","2012"
"61643735","1","1","Finansiering og Privatøkonomi","8761643734","9788761643735","","","","Rikke Haue","","","","Finansiering","iBog - Lærer/klasselicens ½ år","","Under udgivelse","2011"
"61638878","1","1","Finansiering og Privatøkonomi","8761638870","9788761638878","20120806","","","Rikke Haue","","","http://lab.systime.dk/kategori/udgivelser/finansiering-c-b/","Finansiering","iBog - Lærer/klasselicens","","Under udgivelse","2012"
"61643742","1","1","Finansiering og Privatøkonomi","8761643742","9788761643742","","","","Rikke Haue","","","","Finansiering","iBog - Lærer/klasselicens 1 år","","Under udgivelse","2012"
"61643759","1","1","Finansiering og Privatøkonomi","8761643750","9788761643759","","","","Rikke Haue","","","","Finansiering","iBog - Lærer/klasselicens 2 år","","Under udgivelse","2011"
"61643773","1","1","Finansiering og Privatøkonomi","8761643777","9788761643773","","","","Rikke Haue","","","","Finansiering","iBog - Studie/privatlicens 1 år","","Under udgivelse","2011"
"61654243","1","1","Finansiering og Privatøkonomi","8761654248","9788761654243","","","","Rikke Haue","","","http://lab.systime.dk/kategori/udgivelser/finansiering-c-b/","Finansiering","iBog - Lærer/klasselicens 3 mdr.","","Under udgivelse","2012"
"61629258","1","1","Liv og magt","8761629251","9788761629258","20120601","","Mickey Gjerris, Ulrik B. Nissen, ","Claes Sønderriis","185.00","","http://lab.systime.dk/kategori/udgivelser/liv-magt/","Biologi","Bog","","Under udgivelse","2012"
"61645227","1","1","USA's historie","8761645222","9788761645227","20121203","","Henrik Bonne Larsen, Andreas Bonne Sindberg, ","Steen Hammershøy Andersen","60.00","","","Historie","iBog - Lærer/klasselicens","","Under udgivelse","2012"
"61645395","1","1","USA's historie","8761645397","9788761645395","","","","Steen Hammershøy Andersen","25.00","","","Historie","iBog - Lærer/klasselicens ½ år","","Under udgivelse","2012"
"61645401","1","1","USA's historie","8761645400","9788761645401","","","","Steen Hammershøy Andersen","27.50","","","Historie","iBog - Lærer/klasselicens 1 år","","Under udgivelse","2012"
"61645418","1","1","USA's historie","8761645419","9788761645418","","","","Steen Hammershøy Andersen","46.25","","","Historie","iBog - Lærer/klasselicens 2 år","","Under udgivelse","2012"
"61645449","1","1","USA's historie","8761645443","9788761645449","","","","Steen Hammershøy Andersen","95.00","","","Historie","iBog - Studie/privatlicens 1 år","","Under udgivelse","2012"
"61654397","1","1","USA's historie","8761654396","9788761654397","","","","Steen Hammershøy Andersen","21.25","","","Historie","iBog - Lærer/klasselicens 3 mdr.","","Under udgivelse","2012"
"61642615","3","1","Litteraturens Veje","8761642614","9788761642615","20120810","","Johannes Fibiger, Gerd von Buchwald Lütken, ","Søren Peter Sørensen","475.00","","http://lab.systime.dk/kategori/udgivelser/litteraturens-veje-udgivelser-2/","Dansk","Bog","1.60","Under udgivelse","2012"
"61643667","1","1","FysikCbogen","8761643661","9788761643667","20120503","20120503","Torben Benoni, Finn Elvekjær, ","Claes Sønderriis","203.75","","http://lab.systime.dk/kategori/udgivelser/fysikabboegerne","Fysik","iBog - Lærer/klasselicens","","Under udgivelse","2012"
"61641205","1","1","Plus A1 - STX","8761641200","9788761641205","20120423","20120426","Peder Thomas Dalby, Bjarke Møller Madsen, Lars Peter E. Overgaard, Jens Studsgaard Sørensen, ","Claes Sønderriis","146.25","","http://lab.systime.dk/kategori/udgivelser/plus/","Matematik","iBog - Lærer/klasselicens","","Under udgivelse","2012"
"61642882","1","1","C Samf","8761642886","9788761642882","","","","Rikke Haue","37.50","","","Samfundsfag","iBog - Lærer/klasselicens ½ år","","Under udgivelse","2012"
"61642936","1","1","C Samf","8761642932","9788761642936","","","","Rikke Haue","95.00","","","Samfundsfag","iBog - Studie/privatlicens 1 år","","Under udgivelse","2012"
"61642899","1","1","C Samf","8761642894","9788761642899","","","","Rikke Haue","50.00","","","Samfundsfag","iBog - Lærer/klasselicens 1 år","","Under udgivelse","2012"
"61657022","1","1","C Samf","8761657026","9788761657022","","","","Rikke Haue","25.00","","http://lab.systime.dk/kategori/udgivelser/c-samf/","Samfundsfag","iBog - Lærer/klasselicens 3 mdr.","","Under udgivelse","2012"
"61642905","1","1","C Samf","8761642908","9788761642905","","","","Rikke Haue","87.50","","","Samfundsfag","iBog - Lærer/klasselicens 2 år","","Under udgivelse","2012"
"61622471","1","1","Litterære klassikere på film","8761622478","9788761622471","20120702","","Lisbet Borker, Kamma Haugan, Morten Henriksen, Lise Lense-Møller, ","Søren Peter Sørensen","81.25","","http://lab.systime.dk/kategori/udgivelser/litter%C3%A6re-klassikere-pa-film/","Dansk","iBog - Lærer/klasselicens","","Under udgivelse","2012"
"61642110","1","1","Plus B - HF","8761642118","9788761642110","","","","Claes Sønderriis","37.50","","","Matematik","iBog - Lærer/klasselicens 3 mdr.","","Under udgivelse","2012"
"61642066","1","1","Plus B - HF","8761642061","9788761642066","","","","Claes Sønderriis","50.00","","","Matematik","iBog - Lærer/klasselicens ½ år","","Under udgivelse","2012"
"61642080","1","1","Plus B - HF","8761642088","9788761642080","","","","Claes Sønderriis","62.50","","","Matematik","iBog - Lærer/klasselicens 1 år","","Under udgivelse","2012"
"61642097","1","1","Plus B - HF","8761642096","9788761642097","","","","Claes Sønderriis","87.50","","","Matematik","iBog - Lærer/klasselicens 2 år","","Under udgivelse","2012"
"61642134","1","1","Plus B - HF","8761642134","9788761642134","","","","Claes Sønderriis","95.00","","","Matematik","iBog - Studie/privatlicens 1 år","","Under udgivelse","2012"
"61627001","1","1","Dit samfund - samfundsfag i 8.","8761627003","9788761627001","20110516","20110518","Ole Hedegaard Jensen, Rasmus Ulsøe Kær, Peter Nyborg, ","Rikke Haue","150.00","144","","Samfundsfag","Bog","0.42","OK","2011"
"61640215","1","1","Dit samfund - samfundsfag i 9.","8761640212","9788761640215","20110523","20110518","Ole Hedegaard Jensen, Rasmus Ulsøe Kær, Peter Nyborg, ","Rikke Haue","150.00","131","","Samfundsfag","Bog","0.41","OK","2011"
"61644800","1","1","Plus B - HF","8761644803","9788761644800","20120818","","","Claes Sønderriis","112.50","","http://lab.systime.dk/kategori/udgivelser/plus/","Matematik","iBog - Lærer/klasselicens","","Under udgivelse","2012"
