"OJSBN","OJUdgave","OJAktivt oplag","OJProjekt","OJISBN 10","OJISBN 13","OJAnslået dato","OJBekræftet dato","ONtekst","OJProjektansvarlig","OJPris inkl moms","OJAntal sider","OJSystime Lab-url","OJFag","OJMedietype","OJVægt","OJProjektstatus","OJUdgivelsesår"
"61611638","2","7","Erhvervsøkonomi HG Niv. E, D og C - opgavesamling","8761611638","9788761611635","20120621","20110728","Knud Erik Bang, Marianne Poulsen, Gitte Størup, ","Rikke Haue","165.00","379","","Erhvervs-/virksomhedsøkonomi","Bog","1.03","Få styk","2005"
"61649294","1","1","Det lange løb","8761649295","9788761649294","","20120213","Jens-Ole Jensen, Tue Lindstrøm, Jan Kahr Sørensen, ","Claes Sønderriis","43.75","89","","Idræt","E-bog","","OK","2012"
"61653604","1","1","Samfundsfag C - 3. udgave","8761653608","9788761653604","20120509","","Claus Lasse Frederiksen, Henrik Kureer, ","Rikke Haue","137.50","","","Samfundsfag","E-bog","","Under udgivelse","2012"
