"OJSBN","OJUdgave","OJAktivt oplag","OJProjekt","OJISBN 10","OJISBN 13","OJAnslået dato","OJBekræftet dato","ONtekst","OJProjektansvarlig","OJPris inkl moms","OJAntal sider","OJSystime Lab-url","OJFag","OJMedietype","OJVægt","OJProjektstatus","OJUdgivelsesår"
"61651259","1","1","Rod i sproget","8761651257","9788761651259","20120801","20120801","","Søren Peter Sørensen","62.50","","","Dansk","iBog - Lærer/klasselicens","","Under udgivelse","2012"
"61636997","1","1","C Samf","8761636991","9788761636997","20120801","20120801","Helle Hauge Bülow, ","Rikke Haue","112.50","","http://lab.systime.dk/kategori/udgivelser/c-samf/","Samfundsfag","iBog - Lærer/klasselicens","","Under udgivelse","2012"
