"OJSBN","OJUdgave","OJAktivt oplag","OJProjekt","OJISBN 10","OJISBN 13","OJAnslået dato","OJBekræftet dato","ONtekst","OJProjektansvarlig","OJPris inkl moms","OJAntal sider","OJSystime Lab-url","OJFag","OJMedietype","OJVægt","OJProjektstatus","OJUdgivelsesår"
"61648785","1","1","Netværker - digitale medier i dansk","8761648787","9788761648785","20120801","20120801","Charlotte Bork Høvsgaard, Gitte Lautrup, Mads Pedersen, Dorthe Wang, ","Steen Hammershøy Andersen","91.25","","","Dansk","iBog - Lærer/klasselicens","","OK","2012"
"61649645","1","1","Netværker - digitale medier i dansk","8761649643","9788761649645","","20120801","","Steen Hammershøy Andersen","38.75","","","Dansk","iBog - Lærer/klasselicens ½ år","","OK","2012"
"61649652","1","1","Netværker - digitale medier i dansk","8761649651","9788761649652","","20120801","","Steen Hammershøy Andersen","55.00","","","Dansk","iBog - Lærer/klasselicens 1 år","","OK","2012"
"61649676","1","1","Netværker - digitale medier i dansk","8761649678","9788761649676","","20120801","","Steen Hammershøy Andersen","78.75","","","Dansk","iBog - Lærer/klasselicens 2 år","","OK","2012"
"61649706","1","1","Netværker - digitale medier i dansk","8761649708","9788761649706","","20120801","","Steen Hammershøy Andersen","95.00","","","Dansk","iBog - Studie/privatlicens 1 år","","OK","2012"
"61654113","1","1","Netværker - digitale medier i dansk","8761654116","9788761654113","","20120801","","Steen Hammershøy Andersen","31.25","","","Dansk","iBog - Lærer/klasselicens 3 mdr.","","OK","2012"
