"OJSBN","OJUdgave","OJAktivt oplag","OJProjekt","OJISBN 10","OJISBN 13","OJAnslået dato","OJBekræftet dato","ONtekst","OJProjektansvarlig","OJPris inkl moms","OJAntal sider","OJSystime Lab-url","OJFag","OJMedietype","OJVægt","OJProjektstatus","OJUdgivelsesår"
"61632203","1","1","Dansk stx","8761632201","9788761632203","20120524","20120524","Henrik Poulsen, ","Søren Peter Sørensen","203.75","","http://lab.systime.dk/kategori/udgivelser/dansk-stx/","Dansk","iBog - Lærer/klasselicens","","Under udgivelse","2012"
"61633422","1","1","Dansk stx","8761633429","9788761633422","","","","Søren Peter Sørensen","122.50","","","Dansk","iBog - Lærer/klasselicens 1 år","","Under udgivelse","2012"
"61633415","1","1","Dansk stx","8761633410","9788761633415","","","","Søren Peter Sørensen","113.75","","","Dansk","iBog - Lærer/klasselicens ½ år","","Under udgivelse","2012"
