"OJSBN","OJUdgave","OJAktivt oplag","OJProjekt","OJISBN 10","OJISBN 13","OJAnslået dato","OJBekræftet dato","ONtekst","OJProjektansvarlig","OJPris inkl moms","OJAntal sider","OJSystime Lab-url","OJFag","OJMedietype","OJVægt","OJProjektstatus","OJUdgivelsesår"
"61653819","1","1","Toolbox - en afsætningsøkonomisk værktøjskasse","8761653810","9788761653819","","20120801","","Rikke Haue","31.25","","http://lab.systime.dk/kategori/udgivelser/toolbox/","Afsætningsøkonomi","iBog - Lærer/klasselicens 3 mdr.","","OK","2012"
"61629227","1","1","Ved Vejen","8761629227","9788761629227","20120116","20120117","Per Dahl, Birgitte Dalsgård, ","Søren Peter Sørensen","62.50","","http://lab.systime.dk/kategori/udgivelser/ved-vejen/","Dansk","iBog - Lærer/klasselicens","","OK","2012"
"61632746","1","1","Ved vejen","8761632740","9788761632746","","20120117","","Søren Peter Sørensen","50.00","","","Dansk","iBog - Lærer/klasselicens 2 år","","OK","2012"
"61632739","1","1","Ved vejen","8761632732","9788761632739","","20120117","","Søren Peter Sørensen","37.50","","","Dansk","iBog - Lærer/klasselicens 1 år","","OK","2012"
"61632722","1","1","Ved vejen","8761632724","9788761632722","","20120117","","Søren Peter Sørensen","31.25","","","Dansk","iBog - Lærer/klasselicens ½ år","","OK","2012"
"61653970","1","1","Ved Vejen","8761653977","9788761653970","","20120801","","Søren Peter Sørensen","25.00","","http://lab.systime.dk/kategori/udgivelser/ved-vejen/","Dansk","iBog - Lærer/klasselicens 3 mdr.","","OK","2012"
"61628176","1","1","Verden efter 1914 - i dansk perspektiv","8761628174","9788761628176","","20100816","Carl-Johan Bryld, ","Steen Hammershøy Andersen","137.50","","http://lab.systime.dk/kategori/udgivelser/verden-f%C3%B8r-og-efter-1914-i-dansk-perspektiv/","Historie","iBog - Lærer/klasselicens","","OK","2010"
"61630360","1","1","Verden efter 1914 - i dansk perspektiv","8761630365","9788761630360","","20100816","","Steen Hammershøy Andersen","112.50","","","Historie","iBog - Lærer/klasselicens 2 år","","OK","2010"
"61630353","1","1","Verden efter 1914 - i dansk perspektiv","8761630357","9788761630353","","20100816","","Steen Hammershøy Andersen","75.00","","","Historie","iBog - Lærer/klasselicens 1 år","","OK","2010"
"61630346","1","1","Verden efter 1914 - i dansk perspektiv","8761630349","9788761630346","","20100816","","Steen Hammershøy Andersen","62.50","","","Historie","iBog - Lærer/klasselicens ½ år","","OK","2010"
"61654427","1","1","Verden efter 1914 - i dansk perspektiv","8761654426","9788761654427","","","","Steen Hammershøy Andersen","50.00","","http://lab.systime.dk/kategori/udgivelser/verden-f%C3%B8r-og-efter-1914-i-dansk-perspektiv/","Historie","iBog - Lærer/klasselicens 3 mdr.","","OK","2012"
"61626998","1","1","Verden før 1914 - i dansk perspektiv","8761626996","9788761626998","20101201","20101105","Carl-Johan Bryld, ","Steen Hammershøy Andersen","125.00","","http://lab.systime.dk/kategori/udgivelser/verden-f%C3%B8r-og-efter-1914-i-dansk-perspektiv/","Historie","iBog - Lærer/klasselicens","","OK","2010"
"61634344","1","1","Verden før 1914 - i dansk perspektiv","8761634344","9788761634344","20101201","20101105","","Steen Hammershøy Andersen","100.00","","","Historie","iBog - Lærer/klasselicens 2 år","","OK","2010"
"61634337","1","1","Verden før 1914 - i dansk perspektiv","8761634336","9788761634337","20101201","20101105","","Steen Hammershøy Andersen","62.50","","","Historie","iBog - Lærer/klasselicens 1 år","","OK","2010"
"61654410","1","1","Verden før 1914 - i dansk perspektiv","9761654418","9788761654410","","20120801","","Steen Hammershøy Andersen","37.50","","http://lab.systime.dk/kategori/udgivelser/verden-f%C3%B8r-og-efter-1914-i-dansk-perspektiv/","Historie","iBog - Lærer/klasselicens 3 mdr.","","OK","2012"
"61642318","1","1","Verdenshistorie HHX","8761642312","9788761642318","20110929","20111007","Carl-Johan Bryld, ","Steen Hammershøy Andersen","143.75","","http://lab.systime.dk/kategori/udgivelser/verdenshistorie-hhx/","Historie","iBog - Lærer/klasselicens","","OK","2011"
"61641243","1","1","Verdenshistorie HHX","8761641243","9788761641243","","20111007","","Steen Hammershøy Andersen","125.00","","","Historie","iBog - Lærer/klasselicens 2 år","","OK","2011"
"61641236","1","1","Verdenshistorie HHX","8761641235","9788761641236","","20111007","","Steen Hammershøy Andersen","100.00","","","Historie","iBog - Lærer/klasselicens 1 år","","OK","2011"
"61641229","1","1","Verdenshistorie HHX","8761641227","9788761641229","","20111007","","Steen Hammershøy Andersen","75.00","","","Historie","iBog - Lærer/klasselicens ½ år","","OK","2011"
"61654458","1","1","Verdenshistorie HHX","8876165444","9788761654458","","20120801","","Steen Hammershøy Andersen","62.50","","http://lab.systime.dk/kategori/udgivelser/verdenshistorie-hhx/","Historie","iBog - Lærer/klasselicens 3 mdr.","","OK","2012"
"61629821","1","1","Virksomhedsøkonomi A1","8761629802","9788761629821","","20100816","","Rikke Haue","145.00","","","Erhvervs-/virksomhedsøkonomi","iBog - Lærer/klasselicens 1 år","","OK","2010"
"61655257","1","1","Virksomhedsøkonomi A1","8761655252","9788761655257","","20120801","","Rikke Haue","91.25","","http://lab.systime.dk/kategori/udgivelser/virksomhedsoekonomi-serien/","Erhvervs-/virksomhedsøkonomi","iBog - Lærer/klasselicens 3 mdr.","","OK","2012"
"61634399","1","1","Virksomhedsøkonomi A2","8761634395","9788761634399","","20110812","","Rikke Haue","145.00","","","Erhvervs-/virksomhedsøkonomi","iBog - Lærer/klasselicens 1 år","","OK","2011"
"61655264","1","1","Virksomhedsøkonomi A2","8761655260","9788761655264","","20120801","","Rikke Haue","91.25","","http://lab.systime.dk/kategori/udgivelser/virksomhedsoekonomi-serien/","Erhvervs-/virksomhedsøkonomi","iBog - Lærer/klasselicens 3 mdr.","","OK","2012"
"61626745","1","1","Virksomhedsøkonomi B","8761626740","9788761626745","20100801","20100816","Knud Erik Bang, Henrik Frølich, Jeanette Hassing, Marianne Poulsen, Gitte Størup, ","Rikke Haue","375.00","","http://lab.systime.dk/kategori/udgivelser/virksomhedsoekonomi-serien/","Erhvervs-/virksomhedsøkonomi","iBog - Lærer/klasselicens","","OK","2010"
"61655240","1","1","Virksomhedsøkonomi B","8761655244","9788761655240","","20120801","","Rikke Haue","118.75","","http://lab.systime.dk/kategori/udgivelser/virksomhedsoekonomi-serien/","Erhvervs-/virksomhedsøkonomi","iBog - Lærer/klasselicens 3 mdr.","","OK","2012"
"61628428","1","1","Worlds of English","8761628425","9788761628428","20110801","20110805","Anne Mette Finderup, Agnete Fog, ","Birte Annette Nørregaard","100.00","","http://lab.systime.dk/kategori/udgivelser/worlds-of-english/","Engelsk","iBog - Lærer/klasselicens","","OK","2011"
"61634269","1","1","Worlds of English","8761634263","9788761634269","20110601","20110812","","Birte Annette Nørregaard","87.50","","","Engelsk","iBog - Lærer/klasselicens 2 år","","OK","2011"
"61634252","1","1","Worlds of English","8761634255","9788761634252","20110601","20110812","","Birte Annette Nørregaard","75.00","","","Engelsk","iBog - Lærer/klasselicens 1 år","","OK","2011"
"61622976","1","1","Worlds of English","8761622974","9788761622976","20110801","20110801","Anne Mette Finderup, Agnete Fog, ","Birte Annette Nørregaard","43.75","","","Engelsk","iBog - Lærer/klasselicens ½ år","","OK","2011"
"61654137","1","1","Worlds of English","8761654132","9788761654137","","20120801","","Birte Annette Nørregaard","36.25","","http://lab.systime.dk/kategori/udgivelser/worlds-of-english/","Engelsk","iBog - Lærer/klasselicens 3 mdr.","","OK","2012"
"61637611","1","1","ØkonomiNU - en grundbog til samfundsøkonomi","8761637610","9788761637611","20110601","20110601","Henrik Kureer, ","Rikke Haue","102.50","","http://lab.systime.dk/kategori/udgivelser/oekonominu/","Samfundsfag","iBog - Lærer/klasselicens","","OK","2011"
"61636669","1","1","ØkonomiNU - en grundbog til samfundsøkonomi","8761636665","9788761636669","","20110601","","Rikke Haue","78.75","","","Samfundsfag","iBog - Lærer/klasselicens 2 år","","OK","2011"
"61636652","1","1","ØkonomiNU - en grundbog til samfundsøkonomi","8761636657","9788761636652","","20110601","","Rikke Haue","52.50","","","Samfundsfag","iBog - Lærer/klasselicens 1 år","","OK","2011"
"61636645","1","1","ØkonomiNU - en grundbog til samfundsøkonomi","8761636649","9788761636645","","20110601","","Rikke Haue","42.50","","","Samfundsfag","iBog - Lærer/klasselicens ½ år","","OK","2011"
"61654984","1","1","ØkonomiNU - en grundbog til samfundsøkonomi","8761654981","9788761654984","","20120801","","Rikke Haue","36.25","","http://lab.systime.dk/kategori/udgivelser/oekonominu/","Samfundsfag","iBog - Lærer/klasselicens 3 mdr.","","OK","2012"
