"OJSBN","OJUdgave","OJAktivt oplag","OJProjekt","OJISBN 10","OJISBN 13","OJAnslået dato","OJBekræftet dato","ONtekst","OJProjektansvarlig","OJPris inkl moms","OJAntal sider","OJSystime Lab-url","OJFag","OJMedietype","OJVægt","OJProjektstatus","OJUdgivelsesår"
"61655448","1","1","Dialog i undervisningen Overblik i skolehverdagen efter reformen","8761655449","9788761655448","","","","Søren Peter Sørensen","93.75","88","","Af almen interesse","E-bog - privatlicens","","Under udgivelse",""
"61653024","1","1","Dramatik – en grundbog","8761653020","9788761653024","","","","Claes Sønderriis","213.75","164","","Drama","E-bog - privatlicens","","Under udgivelse",""
