"OJSBN","OJUdgave","OJAktivt oplag","OJProjekt","OJISBN 10","OJISBN 13","OJAnslået dato","OJBekræftet dato","ONtekst","OJProjektansvarlig","OJPris inkl moms","OJAntal sider","OJSystime Lab-url","OJFag","OJMedietype","OJVægt","OJProjektstatus","OJUdgivelsesår"
"61627902","1","1","Sammenspilsbogen - klassesæt á 32 stk.","8761627909","9788761627902","20120715","20120615","Mads Pagsberg, Sille Kathrine Buur Schultz, ","Claes Sønderriis","4000.00","64","","Musik","Bog","6.60","OK","2012"
"61647597","1","1","La vita - italiensk for begyndere. E-bog uden lyd","8761647594","9788761647597","","","","Birte Annette Nørregaard","215.63","181","","Italiensk","E-bog - privatlicens","","OK","2005"
"61647580","1","1","La vita - italiensk for begyndere. E-bog med lyd","8761647586","9788761647580","","","","Birte Annette Nørregaard","215.63","181","","Italiensk","E-bog - privatlicens","","OK","2005"
