"OJSBN","OJUdgave","OJAktivt oplag","OJProjekt","OJISBN 10","OJISBN 13","OJAnslået dato","OJBekræftet dato","ONtekst","OJProjektansvarlig","OJPris inkl moms","OJAntal sider","OJSystime Lab-url","OJFag","OJMedietype","OJVægt","OJProjektstatus","OJUdgivelsesår"
"61645548","1","1","Sæt skrivespor","8761645540","9788761645548","","20120524","","Søren Peter Sørensen","95.00","","","Dansk","iBog - Studie/privatlicens 1 år","","OK","2012"
"61645517","1","1","Sæt skrivespor","8761645516","9788761645517","","20120524","","Søren Peter Sørensen","77.50","","","Dansk","iBog - Lærer/klasselicens 2 år","","OK","2012"
