"OJSBN","OJUdgave","OJAktivt oplag","OJProjekt","OJISBN 10","OJISBN 13","OJAnslået dato","OJBekræftet dato","ONtekst","OJProjektansvarlig","OJPris inkl moms","OJAntal sider","OJSystime Lab-url","OJFag","OJMedietype","OJVægt","OJProjektstatus","OJUdgivelsesår"
"61654496","1","1","Innovationsantologi","8761654493","9788761654496","","20120801","","Klaus Marthinus Christensen","37.50","","http://lab.systime.dk/kategori/udgivelser/innovationsantologi/","Innovation","iBog - Lærer/klasselicens 3 mdr.","","OK","2012"
"61633545","1","1","Début 1","8761633542","9788761633545","20110404","20110406","","Birte Annette Nørregaard","145.00","","","Fransk","iBog - Studie/privatlicens 1 år","","OK","2011"
