"OJSBN","OJUdgave","OJAktivt oplag","OJProjekt","OJISBN 10","OJISBN 13","OJAnslået dato","OJBekræftet dato","ONtekst","OJProjektansvarlig","OJPris inkl moms","OJAntal sider","OJSystime Lab-url","OJFag","OJMedietype","OJVægt","OJProjektstatus","OJUdgivelsesår"
"92711007","1","1","Livsideer","8792711006","9788792711007","20120620","","Henrik Bækgaard, Birgitte Holck Bækgaard, Dorete Kallesøe, ","Toke Riis Ebbesen","293.75","275","","Pædagogiske og sociale emner","iBog - Studie/privatlicens","","Under udgivelse","2012"
"92711076","1","2","Samarbejdsbaseret problemløsning","8792711073","9788792711076","20120423","20120508","Jenny Bohr, ","Toke Riis Ebbesen","175.00","128","","Pædagogiske og sociale emner","Bog","0.29","Under genoptryk","2011"
