"OJSBN","OJUdgave","OJAktivt oplag","OJProjekt","OJISBN 10","OJISBN 13","OJAnslået dato","OJBekræftet dato","ONtekst","OJProjektansvarlig","OJPris inkl moms","OJAntal sider","OJSystime Lab-url","OJFag","OJMedietype","OJVægt","OJProjektstatus","OJUdgivelsesår"
"61651259","1","1","Rod i sproget","8761651257","9788761651259","20120801","20120801","","Søren Peter Sørensen","62.50","","http://lab.systime.dk/kategori/udgivelser/rod-i-sproget/","Dansk","iBog - Lærer/klasselicens","","OK","2012"
"61653918","1","1","Rod i sproget","8761653918","9788761653918","","20120801","","Søren Peter Sørensen","25.00","","","Dansk","iBog - Lærer/klasselicens 3 mdr.","","OK","2012"
"61656698","1","1","Rod i sproget","8761656690","9788761656698","","20120801","","Søren Peter Sørensen","31.25","","","Dansk","iBog - Lærer/klasselicens ½ år","","OK","2012"
"61656704","1","1","Rod i sproget","8761656704","9788761656704","","20120801","","Søren Peter Sørensen","37.50","","","Dansk","iBog - Lærer/klasselicens 1 år","","OK","2012"
"61656711","1","1","Rod i sproget","8761656712","9788761656711","","20120801","","Søren Peter Sørensen","50.00","","","Dansk","iBog - Lærer/klasselicens 2 år","","OK","2012"
"61656728","1","1","Rod i sproget","8761656720","9788761656728","","20120801","","Søren Peter Sørensen","95.00","","","Dansk","iBog - Studie/privatlicens 1 år","","OK","2012"
