"OJSBN","OJUdgave","OJAktivt oplag","OJProjekt","OJISBN 10","OJISBN 13","OJAnslået dato","OJBekræftet dato","ONtekst","OJProjektansvarlig","OJPris inkl moms","OJAntal sider","OJSystime Lab-url","OJFag","OJMedietype","OJVægt","OJProjektstatus","OJUdgivelsesår"
"61649126","1","1","Religionernes verden på video","8761649120","9788761649126","20120815","","Poul Storgaard Mikkelsen, ","Poul Storgaard Mikkelsen","37.50","","","Religion","iBog - Lærer/klasselicens","","Under udgivelse","2012"
"61647443","1","1","Religionernes verden på video","8761647446","9788761647443","","","","Poul Storgaard Mikkelsen","","","","Religion","iBog - Lærer/klasselicens 1 år","","Under udgivelse","2012"
"61647450","1","1","Religionernes verden på video","8761647454","9788761647450","","","","Poul Storgaard Mikkelsen","","","","Religion","iBog - Lærer/klasselicens ½ år","","Under udgivelse","2012"
"61647467","1","1","Religionernes verden på video","8761647462","9788761647467","","","","Poul Storgaard Mikkelsen","","","","Religion","iBog - Lærer/klasselicens 2 år","","Under udgivelse","2012"
"61647474","1","1","Religionernes verden på video","8761647470","9788761647474","","","","Poul Storgaard Mikkelsen","","","","Religion","iBog - Lærer/klasselicens 3 mdr.","","Under udgivelse","2012"
