"OJSBN","OJUdgave","OJAktivt oplag","OJProjekt","OJISBN 10","OJISBN 13","OJAnslået dato","OJBekræftet dato","ONtekst","OJProjektansvarlig","OJPris inkl moms","OJAntal sider","OJSystime Lab-url","OJFag","OJMedietype","OJVægt","OJProjektstatus","OJUdgivelsesår"
"61655868","1","1","MAT B - HF","8761655864","9788761655868","","","","Klaus Marthinus Christensen","281.25","","","Matematik","E-bog - privatlicens","","Under udgivelse",""
"61653574","1","1","MAT B - HF - opgaver","8761653578","9788761653574","","","","Klaus Marthinus Christensen","159.38","209","","Matematik","E-bog - privatlicens","","Under udgivelse",""
"61651549","2","2","MAT B - HHX - 2. udgave","8761651540","9788761651549","","","","Claes Sønderriis","337.50","","http://lab.systime.dk/kategori/udgivelser/mat-serien/","Matematik","E-bog - privatlicens","","Under udgivelse",""
"61653109","2","1","MAT B til A - STX - 2. udgave","8761653101","9788761653109","","","","Klaus Marthinus Christensen","271.88","328","http://lab.systime.dk/kategori/udgivelser/mat-serien/","Matematik","E-bog - privatlicens","","Under udgivelse",""
"61652195","1","2","MAT B til A - STX - opgaver","8761652199","9788761652195","","","","Klaus Marthinus Christensen","150.00","171","http://lab.systime.dk/kategori/udgivelser/mat-serien/","Matematik","E-bog - privatlicens","","Under udgivelse",""
"61652706","2","1","MAT B2 - STX","8761652709","9788761652706","","20120801","","Klaus Marthinus Christensen","248.44","","http://lab.systime.dk/kategori/udgivelser/mat-serien/","Matematik","E-bog - privatlicens","","Under udgivelse",""
"61645050","1","1","Barokbogen - musik, tanke og kultur i Europa 1600-1750","8761645052","9788761645050","20120127","20120619","Jens Dalsgård, ","Claes Sønderriis","87.50","216","","Musik","E-bog","","OK","2012"
"61652072","2","1","MAT C - HF - 2. udgave","8761652075","9788761652072","","","","Klaus Marthinus Christensen","257.81","","","Matematik","E-bog - privatlicens","","Under udgivelse",""
"61652737","3","1","MAT C - HHX - 3. udgave","8761652733","9788761652737","","","","Klaus Marthinus Christensen","346.88","512","http://lab.systime.dk/kategori/udgivelser/mat-serien/","Matematik","E-bog - privatlicens","","Under udgivelse",""
"61653314","1","1","MAT C til B - STX","8761653314","9788761653314","","","","Klaus Marthinus Christensen","239.06","","http://lab.systime.dk/kategori/udgivelser/mat-serien/","Matematik","E-bog - privatlicens","","Under udgivelse",""
"61651570","5","1","Matematik A - HHX - 5. udgave","8761651575","9788761651570","","","","Claes Sønderriis","337.50","","","Matematik","E-bog - privatlicens","","Under udgivelse",""
"61651365","3","2","Matematik B - HHX - 3. udgave","8761651362","9788761651365","","","","Claes Sønderriis","337.50","","http://lab.systime.dk/kategori/udgivelser/matematik-b-hhx/","Matematik","E-bog - privatlicens","","Under udgivelse",""
"61651600","4","1","Matematik C - HHX - 4. udgave","8761651605","9788761651600","","","","Claes Sønderriis","346.88","","","Matematik","E-bog - privatlicens","","Under udgivelse",""
"61655875","1","1","Matematikken i spil","8761655872","9788761655875","","","","Claes Sønderriis","112.50","72","","Matematik","E-bog - privatlicens","","Under udgivelse",""
