"OJSBN","OJUdgave","OJAktivt oplag","OJProjekt","OJISBN 10","OJISBN 13","OJAnslået dato","OJBekræftet dato","ONtekst","OJProjektansvarlig","OJPris inkl moms","OJAntal sider","OJSystime Lab-url","OJFag","OJMedietype","OJVægt","OJProjektstatus","OJUdgivelsesår"
"61650153","1","1","Dansk fra basis til D - avu. Niveau G","8761650153","9788761650153","","","","Søren Peter Sørensen","","","http://lab.systime.dk/kategori/udgivelser/dansk-fra-basis-til-d/","Dansk","iBog - Lærer/klasselicens ½ år","","Under udgivelse","2012"
"61650160","1","1","Dansk fra basis til D - avu. Niveau G","8761650161","9788761650160","","","","Søren Peter Sørensen","","","http://lab.systime.dk/kategori/udgivelser/dansk-fra-basis-til-d/","Dansk","iBog - Lærer/klasselicens 3 mdr.","","Under udgivelse","2012"
"61650184","1","1","Den kolde krig","8761650188","9788761650184","","","","Steen Hammershøy Andersen","","","http://lab.systime.dk/kategori/udgivelser/den-kolde-krig-udgivelser/","Historie","iBog - Lærer/klasselicens 2 år","0.39","Under udgivelse","2011"
"61650191","1","1","Den kolde krig","8761650196","9788761650191","","","","Steen Hammershøy Andersen","","","http://lab.systime.dk/kategori/udgivelser/den-kolde-krig-udgivelser/","Historie","iBog - Lærer/klasselicens 1 år","0.39","Under udgivelse","2011"
"61650214","1","1","Den kolde krig","8761650218","9788761650214","","","","Steen Hammershøy Andersen","","","http://lab.systime.dk/kategori/udgivelser/den-kolde-krig-udgivelser/","Historie","iBog - Studie/privatlicens 1 år","0.39","Under udgivelse","2011"
"61650221","1","1","Den kolde krig","8761650226","9788761650221","","","","Steen Hammershøy Andersen","","","http://lab.systime.dk/kategori/udgivelser/den-kolde-krig-udgivelser/","Historie","iBog - Lærer/klasselicens ½ år","0.39","Under udgivelse","2011"
"61650238","1","1","Den kolde krig","8761650234","9788761650238","","","","Steen Hammershøy Andersen","","","http://lab.systime.dk/kategori/udgivelser/den-kolde-krig-udgivelser/","Historie","iBog - Lærer/klasselicens 3 mdr.","0.39","Under udgivelse","2011"
