"OJSBN","OJUdgave","OJAktivt oplag","OJProjekt","OJISBN 10","OJISBN 13","OJAnslået dato","OJBekræftet dato","ONtekst","OJProjektansvarlig","OJPris inkl moms","OJAntal sider","OJSystime Lab-url","OJFag","OJMedietype","OJVægt","OJProjektstatus","OJUdgivelsesår"
"61647498","2","1","Verden efter 1914 - i dansk perspektiv","8761647497","9788761647498","20120904","","Carl-Johan Bryld, ","Steen Hammershøy Andersen","","372","http://lab.systime.dk/kategori/udgivelser/verden-f%C3%B8r-og-efter-1914-i-dansk-perspektiv/","Historie","Bog","0.77","Under udgivelse","2012"
"61643643","2","1","FysikABbogen 2","8761643645","9788761643643","20120915","","Torben Benoni, Finn Elvekjær, ","Claes Sønderriis","437.50","","http://lab.systime.dk/kategori/udgivelser/fysikabboegerne/","Fysik","Bog","","Under udgivelse","2012"
