"OJSBN","OJUdgave","OJAktivt oplag","OJProjekt","OJISBN 10","OJISBN 13","OJAnslået dato","OJBekræftet dato","ONtekst","OJProjektansvarlig","OJPris inkl moms","OJAntal sider","OJSystime Lab-url","OJFag","OJMedietype","OJVægt","OJProjektstatus","OJUdgivelsesår"
"61629272","1","1","Orbit B - HTX","8761629278","9788761629272","20120801","20120801","Morten Brydensholt, Tommy Gjøe, Per Holck, Lis Jespersen, Ole Keller, Jens Kraaer, Jan Møller, Jens Vaaben, ","Claes Sønderriis","175.00","","http://lab.systime.dk/kategori/udgivelser/orbit-serien/","Fysik","iBog - Lærer/klasselicens","","OK","2012"
"61648785","1","1","Netværker - digitale medier i dansk","8761648787","9788761648785","20120801","20120801","Charlotte Bork Høvsgaard, Gitte Lautrup, Mads Pedersen, Dorthe Wang, ","Steen Hammershøy Andersen","91.25","","","Dansk","iBog - Lærer/klasselicens","","OK","2012"
"61649126","1","1","Religionernes verden på video","8761649120","9788761649126","20120815","20120801","Poul Storgaard Mikkelsen, ","Poul Storgaard Mikkelsen","62.50","","","Religion","iBog - Lærer/klasselicens","","OK","2012"
