"OJSBN","OJUdgave","OJAktivt oplag","OJProjekt","OJISBN 10","OJISBN 13","OJAnslået dato","OJBekræftet dato","ONtekst","OJProjektansvarlig","OJPris inkl moms","OJAntal sider","OJSystime Lab-url","OJFag","OJMedietype","OJVægt","OJProjektstatus","OJUdgivelsesår"
"61628121","1","2","Den ny skriftlighed - skriv i alle fag","8761628123","9788761628121","20120608","20120606","Ole Schou Hansen, Mette Jørgensen, ","Søren Peter Sørensen","185.00","154","http://lab.systime.dk/kategori/udgivelser/den-ny-skriftlighed-skriv-i-alle-fag/","Flerfagligt","Bog","0.31","OK","2012"
"61617644","1","2","MAT A3 - STX - opgaver","8761617644","9788761617644","20120416","20120604","Jens Carstensen, Jesper Frandsen, Jens Studsgaard Sørensen, ","Klaus Marthinus Christensen","150.00","134","http://lab.systime.dk/kategori/udgivelser/mat-serien/","Matematik","Bog","0.31","OK","2007"
"61611301","1","5","MAT AB1 - STX - opgaver","8761611301","9788761611307","20120516","20120603","Jens Carstensen, Jesper Frandsen, Jens Studsgaard Sørensen, ","Klaus Marthinus Christensen","200.00","194","","Matematik","Bog","0.44","OK","2005"
