"OJSBN","OJUdgave","OJAktivt oplag","OJProjekt","OJISBN 10","OJISBN 13","OJAnslået dato","OJBekræftet dato","ONtekst","OJProjektansvarlig","OJPris inkl moms","OJAntal sider","OJSystime Lab-url","OJFag","OJMedietype","OJVægt","OJProjektstatus","OJUdgivelsesår"
"61629272","1","1","Orbit B - HTX","8761629278","9788761629272","20120801","","Morten Brydensholt, Tommy Gjøe, Per Holck, Lis Jespersen, Ole Keller, Jens Kraaer, Jan Møller, Jens Vaaben, ","Claes Sønderriis","175.00","","http://lab.systime.dk/kategori/udgivelser/orbit-serien/","Fysik","iBog - Lærer/klasselicens","","Under udgivelse","2012"
"61627940","1","1","Afsætning 1","8761627941","9788761627940","","20100816","Michael Bregendahl, Morten Haase, Jan Halberg Madsen, René Mortensen, Birte Ravn Østergaard, ","Rikke Haue","270.00","","http://lab.systime.dk/kategori/udgivelser/afsaetning-serien/","Afsætningsøkonomi","iBog - Lærer/klasselicens","","OK","2010"
"61627971","1","1","Afsætning 2","8761627976","9788761627971","20110630","20110812","Michael Bregendahl, Morten Haase, René Mortensen, Birte Ravn Østergaard, ","Rikke Haue","270.00","","http://lab.systime.dk/kategori/udgivelser/afsaetning-serien/","Afsætningsøkonomi","iBog - Lærer/klasselicens","","OK","2011"
"61627926","1","1","Virksomhedsøkonomi A1","8761627925","9788761627926","20120102","20100816","Knud Erik Bang, Henrik Frølich, Jeanette Hassing, Marianne Poulsen, Gitte Størup, ","Rikke Haue","350.00","","http://lab.systime.dk/kategori/udgivelser/virksomhedsoekonomi-serien/","Erhvervs-/virksomhedsøkonomi","iBog - Lærer/klasselicens","","OK","2010"
