"OJSBN","OJUdgave","OJAktivt oplag","OJProjekt","OJISBN 10","OJISBN 13","OJAnslået dato","OJBekræftet dato","ONtekst","OJProjektansvarlig","OJPris inkl moms","OJAntal sider","OJSystime Lab-url","OJFag","OJMedietype","OJVægt","OJProjektstatus","OJUdgivelsesår"
"61649737","1","1","Den kolde krig","8761649732","9788761649737","20120905","","Kai Otto von Barner, ","Steen Hammershøy Andersen","","","http://lab.systime.dk/kategori/udgivelser/den-kolde-krig-udgivelser/","Historie","iBog - Lærer/klasselicens","0.39","Under udgivelse","2011"
"61622426","1","2","Worlds of English","8761622427","9788761622426","20120831","20101006","Anne Mette Finderup, Agnete Fog, ","Birte Annette Nørregaard","262.50","225","http://lab.systime.dk/kategori/udgivelser/worlds-of-english/","Engelsk","Bog","0.48","OK","2010"
