"OJSBN","OJUdgave","OJAktivt oplag","OJProjekt","OJISBN 10","OJISBN 13","OJAnslået dato","OJBekræftet dato","ONtekst","OJProjektansvarlig","OJPris inkl moms","OJAntal sider","OJSystime Lab-url","OJFag","OJMedietype","OJVægt","OJProjektstatus","OJUdgivelsesår"
"61650092","1","1","Dansk fra basis til D - avu. Basisniveau","8761650099","9788761650092","","20120606","","Søren Peter Sørensen","95.00","","http://lab.systime.dk/kategori/udgivelser/dansk-fra-basis-til-d/","Dansk","iBog - Studie/privatlicens 1 år","","OK","2012"
"61650108","1","1","Dansk fra basis til D - avu. Basisniveau","8761650102","9788761650108","","20120606","","Søren Peter Sørensen","18.75","","http://lab.systime.dk/kategori/udgivelser/dansk-fra-basis-til-d/","Dansk","iBog - Lærer/klasselicens ½ år","","OK","2012"
"61649935","1","1","Dansk fra basis til D - avu. Niveau G","8761649937","9788761649935","20120530","20120606","Annamette Kjærsgaard Andersen, Anne Damholt Bøndergaard, Susanne Djurhuus, ","Søren Peter Sørensen","43.75","","http://lab.systime.dk/kategori/udgivelser/dansk-fra-basis-til-d/","Dansk","iBog - Lærer/klasselicens","","OK","2012"
