"%s Item(s)","%s vare(r)"
"(ver. %s)","(ver. %s)"
"Items %s to %s of %s total","<strong>%s</strong> til <strong>%s</strong> af <strong>%s</strong>"
"Copyright","Copyright"
"This is a demo store. Any orders placed through this store will not be honored or fulfilled.","Dette er en demoshop. Ordrer afgivet igennem denne shop vil ikke blive gennemført."
"Your Language","Dit sprog"
"You're currently on:","Du er her:"
"Previous Page","Forrige side"
"Skip to Main Content","Gå til hovedside"
"Help Us to Keep Magento Healthy","Hjælp os med at holde Magento fejlfri"
"HTML Head","HTML Hoved (HEAD)"
"Report All Bugs","Indrapporter alle fejl"
"Logo Image Alt","Logo Billede Alt"
"Logo Image Src","Logo Billede Src"
"Close Window","Luk vindue"
"Magento Commerce Demo Store","Magento Demoshop"
"Magento is a trademark of Irubin Consulting Inc. DBA Varien. Copyright &copy; %s Irubin Consulting Inc.","Magento er et varemærke ejet af Irubin Consulting Inc. DBA Varien. Copyright &copy; %s Irubin Consulting Inc."
"Next Page","Næste side"
"per page","pr. side"
"Page:","Side:"
"Footer","Sidefod"
"Header","Sidehoved"
"Interface Language","Sprog"
"Default Description","Standard-beskrivelse"
"Default Keywords","Standard-nøgleord"
"Default Robots","Standard-robotter"
"Default Title","Standard-titel"
"Title Prefix","Titel-præfiks"
"Title Suffix","Titel-suffiks"
"Select Store","Vælg shop"
"Welcome, %s!","Velkommen, %s!"
"Welcome Text","Velkomsttekst"
"Show","Vis"
