"Community Poll","Afstemning"
"Poll not exists","Afstemning findes ikke"
"Poll with the same question","Afstemning med samme spørgsmål eksisterer allerede"
"Polls","Afstemninger"
"Poll Manager","Afstemninger"
"Votes Count","Antal stemmer"
"Votes Count:","Antal stemmer:"
"Number of Responses","Antal svar"
"Open","Åben"
"Are you sure you want to delete it?","Er du sikker på, at du ønsker at slette?"
"Save Poll","Gem afstemning"
"Save Answer","Gem svar"
"Actions","Handlinger"
"ID","ID"
"Closed","Lukket"
"New Poll","Ny afstemning"
"Add New Poll","Opret ny afstemning"
"Edit Poll '%s'","Rediger afstemning '%s'"
"Edit Poll Answer","Rediger svar"
"Edit Answer '%s'","Rediger svar '%s'"
"Answer with the same title in this poll","Samme svar findes allerede i denne afstemning"
"Delete","Slet"
"Delete Poll","Slet afstemning"
"Delete Answer","Slet svar"
"Date Closed","Slutdato"
"Poll information","Spørgsmål"
"Poll Question","Spørgsmål"
"Poll Information","Spørgsmål"
"Date Posted","Startdato"
"Status","Status"
"Vote","Stem"
"Answer Title","Svar"
"Answer was successfully saved","Svar er gemt"
"Answer Title:","Svar:"
"Poll Answers","Svarmuligheder"
"Assigned Answers","Svarmuligheder"
"Visible In","Synlig i"
"Unable to find answer to delete.","Systemet kunne ikke finde nogen svar"
"Add New Answer","Tilføj nyt svar"
"Add Answer","Tilføj svar"
"Invalid Answer","Ugyldigt svar"
