"* Required Fields","* Skal udfyldes"
"Cancel","Annuller"
"Message","Besked"
"Gift Message","Besked på gave"
"Use config","Brug konfiguration"
"Your gift message successfully removed","Din beksed på gave er fjernet."
"Your gift message successfully saved","Din besked på gave er gemt."
"Your gift message has been successfully removed","Din gavebesked er fjernet"
"Your gift message has been successfully saved","Din gavebesked er gemt"
"You can leave a box blank if you don't wish to add a gift message for this address.","Du kan lade boxen være tom hvis du ikke ønsker at tilføje en besked til denne adresse."
"You can leave a box blank if you don't wish to add a gift message for the item.","Du kan lade boxen være tom hvis du ikke ønsker at tilføje en besked til varen."
"You can leave a box blank if you don't wish to add a gift message for whole order.","Du kan lade en box være tom hvis du ikke ønsker at tilføje en besked til hele ordren."
"Are you sure?","Er du sikker?"
"Error while saving gift message","Fejl: kunne ikke gemme gavebesked"
"Remove","Fjern"
"From","Fra"
"Gift message has been successfully saved","Gavebeskeden er gemt"
"Gift Messages","Gavebeskeder"
"Save","Gem"
"Save Gift Message","Gem besked"
"Do you have any gift items in your order?","Har du nogen gaver i din ordre?"
"Yes","Ja"
"Close","Luk"
"No","Nej"
"Item %d of %d","Post %d af %d"
"Edit","Rediger"
"Edit Gift Message","Rediger gavebesked"
"Check this checkbox if you want to add gift messages.","Sæt kryds hvis du ønsker at tilføje gavebeskeder."
"Check this checkbox if you want to add gift messages to your items.","Sæt kryds hvis du ønsker at tilføje gavebeskeder."
"Enter a gift message for this address.","Skriv en gavebesked for denne addresse."
"Enter a gift message for entire order.","Skriv en gavebesked for denne ordre."
"Enter a gift message for each item in your order.","Skriv en gavebesked for hver vare i din ordre."
"To","Til"
"Add","Tilføj"
"Add Gift Message","Tilføj gavebesked"
"Allow Gift Messages for Order Items","Tillad gavebeskeder for ordreelementer"
"Allow Gift Messages on Order Level","Tillad gavebeskeder på ordreniveau"
"Unknown entity type","Ukendt enhedstype"
