"Enabled","Aktiv"
"Never","Aldrig"
"Always","Altid"
"CMS Pages Options","CMS-sider"
"Error Email Sender","Fejl - afsender"
"Error Email Recipient","Fejl - modtager"
"Error Email Template","Fejl - skabelon"
"Filename","Filnavn"
"Generation Settings","Genereringsindstillinger"
"Google Sitemap","Google Sitemap"
"Manage Google Sitemaps","Google sitemaps"
"Google Sitemaps","Google Sitemaps"
"Daily","Hver dag"
"Monthly","Hver måned"
"Hourly","Hver time"
"Weekly","Hver uge"
"Yearly","Hvert år"
"Frequency","Hyppighed"
"ID","ID"
"Categories Options","Kategorier"
"Link for Google","Link til Google"
"New Sitemap","Nyt sitemap"
"Priority","Prioritet"
"Priority must be between 0 and 1","Prioritet skal være mellem 0 og 1"
"Products Options","Produktmuligheder"
"Edit Sitemap","Rediger sitemap"
"Last Time Generated","Sidst genereret"
"Sitemap","Sitemap"
"Sitemap generate Warnings","Sitemap - advarsler for generering"
"Sitemap was successfully saved","Sitemap blev gemt"
"Sitemap was successfully deleted","Sitemap er slettet"
"This sitemap no longer exists","Sitemap findes ikke længere"
"Unable to find a sitemap to delete","Sitemap kunne ikke findes."
"Start Time","Starttidspunkt"
"Path","Sti"
"Add Sitemap","Tilføj sitemap"
"Store View","Visning af forretning"
