"1 star","1 stjerne"
"2 stars","2 stjerner"
"3 stars","3 stjerner"
"4 stars","4 stjerner"
"5 stars","5 stjerner"
"Manage Ratings","Administrer Ratings"
"Rating with the same title","Bedømmelse med samme overskrift"
"Save Rating","Gem karakter"
"If you do not specify a rating title for a store, the default value will be used.","Hvis du ikke specificere en karaktertitel for en butik vil den standard værdi blive brugt."
"ID","ID"
"Rating Options","Indstillinger for karakter"
"Rating Information","Karakter - detaljer"
"Rating isn't Available","Karakter er ikke tilgængelig"
"Option Label","Label"
"Rating Title","Navn"
"Rating Name","Navn"
"New Rating","Ny karakter"
"Edit Rating","Rediger karakter: %s"
"Delete Rating","Slet karakter"
"Default Value","Standard-værdi"
"Visible In","Synlig i"
"Rating Visibility","Synlighed - bedømmelse:"
"Assigned Options","Tildelte muligheder"
"Add New Rating","Tilføj ny karakter"
"Option Title","Titel"
"Option Title:","Titel:"
"Please select one of each ratings above","Vælg venligst en af bedømmelserne ovenfor."
"Be the first to review this product","Vær den første til at bedømme dette produkt"
