"-- Please select --","-- Vælg venligst --"
"WARNING:","ADVARSEL:"
"Currency Update Warnings","Advarsler ved valutaopdatering"
"Enabled","Aktiv"
"FATAL ERROR:","FATAL FEJL:"
"Error Email Sender","Fejl: e-mailafsender"
"Error Email Recipient","Fejl: e-mailmodtager"
"Error Email Template","Fejl: e-mailskabelon"
"Continue &raquo;","Fortsæt &raquo;"
"Frequency","Frekvens"
"Base currency (Currency will be used for all online payment transactions)","Grund valuta (Valuta vil blive brugt for alle online betalinger)"
"Unable to initialize import model","Import-model kunne ikke initialiseres"
"Installed Currencies","Installerede valutaer"
"Cannot retrieve rate from %s","Kan ikke hente kurs fra %s"
"Country and Format Type combination should be unique","Kombination af land og formattype skal være unik"
"Country","Land"
"Scheduled Import Settings","Planlagt import (indstillinger)"
"State/Province","Region"
"Service","Service"
"Default display currency","Standard valuta"
"Start Time","Starttidspunkt"
"Allowed currencies","Tilladte lande"
"Undefined rate from ""%s-%s""","Udefineret sats fra ""%s-%s"""
"Invalid Import Service Specified","Ugyldig import-service"
"Invalid country code: %s","Ugyldig landekode: %s"
"Invalid target currency","Ugyldig valuta"
"Invalid rates received","Ugyldige kurser blev modtaget"
"Currency","Valuta"
"Currency Options","Valuta (indstillinger)"
"Your current currency is: %s","Valuta: %s"
"Currency Setup","Valutaopsætning"
"Select Your Currency","Vælg valuta"
