"sku","isbn_13","google_books_isbn"
"87616161","9788761608802",""
"8761608793","9788761608796",""
"77834518","9788777834516",""
"77833503","9788777833502",""
"77834992","9788777834998",""
"73510912","9788773510919",""
"77834496","9788777834493",""
"77830202","9788777830204",""
"73513458","9788773513453",""
"73518484","9788773518489",""
"77834968","9788777834967",""
"77835689","9788777835681",""
"73515426","9788773515426",""
"77834860","9788777834868",""
"77835344","9788777835346",""
"77836065","9788777836060",""
"77831888","9788777831881",""
"77836383","9788777836381",""
"77836448","9788777836442",""
"77836634","9788777836633",""
"77836979","9788777836978",""
"77836812","9788777836817",""
"77836847","9788777836848",""
"77831276","9788777831270",""
"77837045","9788777837043",""
"73515221","9788773515228",""
"77837495","9788777837494",""
"77837622","9788777837623",""
"77837878","9788777837876",""
"77837894","9788777837890",""
"77836162","9788777836169",""
"77833406","9788777833403",""
"77838009","9788777838002",""
"77838025","9788777838026",""
"73518832","9788773518830",""
"77831853","9788777831850",""
"77831861","9788777831867",""
"73519197","9788773519196",""
"77838769","9788777838767",""
"77838815","9788777838811",""
"77833759","9788777833755",""
"77835832","9788777835834",""
"77838831","9788777838835",""
"77838971","9788777838972",""
"77838947","9788777838941",""
"77839064","9788777839061",""
"73510769","9788773510766",""
"77836189","9788777836183",""
"77839188","9788777839184",""
"77839242","9788777839245",""
"77839307","9788777839306",""
"77837002","9788777837005",""
"77831594","9788777831591",""
"77833473","9788777833472",""
"77839587","9788777839580",""
"77839641","9788777839641",""
"77834127","9788777834127",""
"77839803","9788777839801",""
"77839838","9788777839832",""
"77831977","9788777831973",""
"73519200","9788773519202",""
"77831616","9788777831614",""
"77837282","9788777837289",""
"77839994","9788777839993",""
"77834011","9788777834011",""
"61600105","9788761600103",""
"61600091","9788761600097",""
"61600148","9788761600141",""
"77835417","9788777835414",""
"73513245","9788773513248",""
"61600210","9788761600219","9788761600219"
"77835069","9788777835063",""
"77831985","9788777831980",""
"61600261","9788761600264",""
"61600288","9788761600288",""
"61600296","9788761600295",""
"73512931","9788773512937",""
"61600385","9788761600387",""
"77834070","9788777834073",""
"77837576","9788777837579",""
"61600490","9788761600493",""
"61600504","9788761600509",""
"61600512","9788761600516",""
"61600539","9788761600530",""
"61600547","9788761600547",""
"61600555","9788761600554",""
"61600563","9788761600561",""
"77833694","9788777833694",""
"61600636","9788761600639",""
"61600644","9788761600646",""
"77832655","9788777832659",""
"77839358","9788777839351",""
"77839366","9788777839368",""
"77839374","9788777839375",""
"61601004","9788761601001",""
"61601101","9788761601100",""
"61601241","9788761601247",""
"61601306","9788761601308",""
"77837444","9788777837449",""
"77832213","9788777832215",""
"61601365","9788761601360",""
"77830040","9788777830044",""
"77835670","9788777835674",""
"73515450","9788773515457",""
"61601624","9788761601629","9788761601629"
"61601616","9788761601612",""
"73517046","9788773517048",""
"77838394","9788777838392",""
"77830067","9788777830067",""
"77831322","9788777831324",""
"61601845","9788761601841",""
"61601853","9788761601858",""
"61601888","9788761601889",""
"61601918","9788761601919",""
"77838130","9788777838132",""
"61601926","9788761601926",""
"61601977","9788761601971",""
"61602043","9788761602046",""
"61602035","9788761602039",""
"61602000","9788761602008",""
"61602094","9788761602091",""
"61602140","9788761602145",""
"61602175","9788761602176",""
"61602205","9788761602206",""
"77835824","9788777835827",""
"77838467","9788777838460",""
"73510602","9788773510605",""
"61602647","9788761602640","9788761602640"
"61602434","9788761602435",""
"61602442","9788761602442",""
"61602930","9788761602930",""
"61603015","9788761603012",""
"61603007","9788761603005",""
"61603058","9788761603050",""
"61603082","9788761603081",""
"61603120","9788761603128",""
"61603163","9788761603166",""
"61603198","9788761603197",""
"61603236","9788761603234",""
"61603325","9788761603326",""
"61603368","9788761603364",""
"61603422","9788761603425",""
"61603392","9788761603395",""
"61603465","9788761603463",""
"61603481","9788761603487",""
"61603503","9788761603500",""
"61603546","9788761603548",""
"61603619","9788761603616",""
"61603627","9788761603623",""
"61603643","9788761603647",""
"61603694","9788761603692",""
"61603708","9788761603708",""
"61603716","9788761603715",""
"61603732","9788761603739",""
"61603945","9788761603944",""
"61603953","9788761603951",""
"61603961","9788761603968",""
"61604011","9788761604019",""
"61604062","9788761604064",""
"61604054","9788761604057",""
"61604070","9788761604071",""
"61604283","9788761604286",""
"61604429","9788761604422",""
"61604453","9788761604453",""
"61604496","9788761604491",""
"61604623","9788761604620",""
"61604844","9788761604842",""
"61605034","9788761605030",""
"61605166","9788761605160",""
"61605174","9788761605177",""
"61605298","9788761605290",""
"61605301","9788761605306",""
"61605328","9788761605320",""
"61605336","9788761605337",""
"61605344","9788761605344",""
"61605387","9788761605382",""
"61605492","9788761605498",""
"61605514","9788761605511",""
"61605522","9788761605528",""
"61605530","9788761605535",""
"61605549","9788761605542",""
"61605557","9788761605559",""
"61605573","9788761605573",""
"61605581","9788761605580",""
"61601500","9788761601506",""
"61606758","9788761606754",""
"61606316","9788761606310",""
"61606898","9788761606891",""
"61606901","9788761606907",""
"61606960","9788761606969",""
"61606979","9788761606976",""
"61606995","9788761606990",""
"61607002","9788761607003",""
"61607851","9788761607850",""
"61606391","9788761606396",""
"61606294","9788761606297",""
"61606413","9788761606419",""
"61606545","9788761606549",""
"61609935","9788761609939",""
"61606561","9788761606563",""
"61608254","9788761608253",""
"61606634","9788761606631",""
"61606642","9788761606648",""
"61607312","9788761607317",""
"61607320","9788761607324",""
"61607347","9788761607348",""
"61607363","9788761607362",""
"61607371","9788761607379",""
"61607525","9788761607522",""
"61607444","9788761607447",""
"61607541","9788761607546",""
"61607673","9788761607676",""
"61607789","9788761607782",""
"61607797","9788761607799","9788761607799"
"61611441","9788761611444",""
"61607843","9788761607843",""
"61608122","9788761608123",""
"61607991","9788761607997",""
"61608874","9788761608871",""
"61608173","9788761608178",""
"61608882","9788761608888",""
"61608890","9788761608895",""
"61608351","9788761608352",""
"61608378","9788761608376",""
"61608467","9788761608468",""
"61608556","9788761608550",""
"61608572","9788761608574",""
"61608653","9788761608659",""
"61608742","9788761608741",""
"61608793","9788761608796",""
"61608807","9788761608802",""
"61608815","9788761608819",""
"61608912","9788761608918",""
"61608831","9788761608833",""
"61609021","9788761609021",""
"61609064","9788761609069",""
"61609072","9788761609076",""
"61609080","9788761609083",""
"61609099","9788761609090",""
"61609129","9788761609120",""
"61609304","9788761609304",""
"61609986","9788761609984",""
"61609188","9788761609182",""
"61609196","9788761609199",""
"61609277","9788761609274",""
"61609218","9788761609212",""
"61609250","9788761609250",""
"61609749","9788761609748",""
"61609285","9788761609281",""
"61609323","9788761609328",""
"61610321","9788761610324",""
"61609994","9788761609991",""
"61609366","9788761609366",""
"61609382","9788761609380",""
"61609706","9788761609700",""
"61609536","9788761609533",""
"61609632","9788761609632",""
"61609676","9788761609670",""
"61610171","9788761610171",""
"61609943","9788761609946",""
"61610011","9788761610010",""
"61609889","9788761609885",""
"61609838","9788761609830",""
"61609846","9788761609847",""
"61610240","9788761610249",""
"61609919","9788761609915",""
"61609927","9788761609922",""
"61609978","9788761609977",""
"61610003","9788761610003",""
"12034533","9788712034537",""
"12038954","9788712038955",""
"12021377","9788712021377",""
"12032794","9788712032793",""
"12036293","9788712036296",""
"12037400","9788712037408",""
"12033642","9788712033646",""
"12038962","9788712038962",""
"12032212","9788712032212",""
"12027472","9788712027478",""
"12021164","9788712021162",""
"12028037","9788712028031",""
"12197432","9788712197430",""
"12197386","9788712197386",""
"12022241","9788712022244",""
"12035033","9788712035039",""
"12035041","9788712035046",""
"61610259","9788761610256",""
"12021008","9788712021001",""
"61610089","9788761610089",""
"61610070","9788761610072",""
"61610100","9788761610102",""
"61610135","9788761610133",""
"61610151","9788761610157",""
"61610267","9788761610263",""
"61610275","9788761610270",""
"61610305","9788761610300",""
"61610399","9788761610393",""
"61610402","9788761610409",""
"61610410","9788761610416",""
"61610429","9788761610423",""
"61610437","9788761610430",""
"61610461","9788761610461",""
"61610488","9788761610485",""
"61610496","9788761610492",""
"61610518","9788761610515",""
"61610526","9788761610522",""
"61610550","9788761610553",""
"61610593","9788761610591",""
"61610623","9788761610621",""
"61610666","9788761610669",""
"61610658","9788761610652",""
"61610690","9788761610690",""
"61610798","9788761610799",""
"61610771","9788761610775",""
"61610747","9788761610744",""
"61610836","9788761610836",""
"61610852","9788761610850",""
"61610879","9788761610874",""
"61611034","9788761611031",""
"61611042","9788761611048",""
"61611085","9788761611086",""
"61611131","9788761611130",""
"61611158","9788761611154",""
"61611166","9788761611161",""
"61611174","9788761611178",""
"61611182","9788761611185",""
"61611239","9788761611239",""
"61611271","9788761611277",""
"61611298","9788761611291",""
"61611301","9788761611307",""
"61611321","9788761611321",""
"61611344","9788761611345",""
"61611360","9788761611369",""
"61611379","9788761611376",""
"61611395","9788761611390",""
"61611409","9788761611406",""
"61611425","9788761611420",""
"61611433","9788761611437",""
"61611492","9788761611499",""
"61611557","9788761611550",""
"61611565","9788761611567",""
"61611573","9788761611574",""
"61611581","9788761611581",""
"61611603","9788761611604",""
"61611611","9788761611611",""
"61611638","9788761611635",""
"61611646","9788761611642",""
"61611654","9788761611659",""
"61611697","9788761611697",""
"61611700","9788761611703",""
"61611727","9788761611727",""
"61611816","9788761611819",""
"61611824","9788761611826",""
"61611832","9788761611833",""
"61611980","9788761611987",""
"61612014","9788761612014",""
"61612022","9788761612021",""
"61612038","9788761612038",""
"61611964","9788761611963",""
"61611956","9788761611956",""
"61611948","9788761611949",""
"61612057","9788761612052",""
"61612618","9788761612618",""
"61612634","9788761612632",""
"61614718","9788761614711",""
"61612715","9788761612717",""
"61613053","9788761613059",""
"61612707","9788761612700",""
"61616906","9788761616906",""
"61613630","9788761613639",""
"61612944","9788761612946",""
"61612952","9788761612953",""
"61612960","9788761612960",""
"61613061","9788761613066",""
"61613339","9788761613332",""
"61613096","9788761613097",""
"61613118","9788761613110",""
"61613126","9788761613127",""
"61613134","9788761613134",""
"61613142","9788761613141",""
"61613177","9788761613172",""
"61613185","9788761613189",""
"61613207","9788761613202",""
"61613193","9788761613196",""
"61613215","9788761613219",""
"61613320","9788761613325",""
"61613282","9788761613288",""
"61613290","9788761613295",""
"61613452","9788761613455",""
"61613517","9788761613516",""
"61613584","9788761613585",""
"61613606","9788761613608",""
"61613673","9788761613677",""
"61613746","9788761613745",""
"61613711","9788761613714",""
"61613703","9788761613707",""
"61613813","9788761613813",""
"61613820","9788761613820",""
"61617040","9788761617040",""
"61613959","9788761613950",""
"61613967","9788761613967",""
"61613975","9788761613974",""
"61613983","9788761613981",""
"61614491","9788761614490",""
"61614637","9788761614636",""
"61614643","9788761614643",""
"61614653","9788761614650",""
"61614696","9788761614698",""
"61614777","9788761614773",""
"61614815","9788761614810",""
"61614823","9788761614827",""
"61614858","9788761614858",""
"61614902","9788761614902",""
"61614890","9788761614896",""
"61614920","9788761614926",""
"61614939","9788761614933",""
"61614947","9788761614940",""
"61614957","9788761614957",""
"61614963","9788761614964",""
"61614971","9788761614971",""
"61614998","9788761614995",""
"61615022","9788761615022",""
"61615102","9788761615107",""
"61615110","9788761615114",""
"61615137","9788761615138",""
"61615269","9788761615268",""
"61615293","9788761615299",""
"61615315","9788761615312",""
"61615275","9788761615275",""
"61615459","9788761615459",""
"61615412","9788761615411",""
"61616920","9788761616920",""
"61615498","9788761615497",""
"61615676","9788761615671",""
"61615668","9788761615664",""
"61616532","9788761616531",""
"61621139","9788761621139",""
"61616338","9788761616333",""
"61616937","9788761616937",""
"61616951","9788761616951",""
"61616982","9788761616982",""
"61617194","9788761617194",""
"61617555","9788761617552",""
"61617598","9788761617590",""
"61617026","9788761617026",""
"61617954","9788761617958",""
"61617644","9788761617644",""
"61618108","9788761618108",""
"61619518","9788761619518",""
"61619531","9788761619532",""
"61619787","9788761619785",""
"61619815","9788761619815",""
"61620118","9788761620118",""
"61620125","9788761620125",""
"61620156","9788761620156",""
"61620165","9788761620163",""
"61620246","9788761620248",""
"61620254","9788761620255",""
"61620262","9788761620262",""
"61620279","9788761620279",""
"61620289","9788761620286",""
"61620347","9788761620347",""
"61621153","9788761621153",""
"61620415","9788761620415",""
"61620422","9788761620422",""
"91240077","9788791240072",""
"91240042","9788791240041",""
"61620432","9788761620439",""
"91240050","9788791240058",""
"61620446","9788761620446",""
"61620484","9788761620484",""
"61620963","9788761620965",""
"61621129","9788761621122",""
"61621218","9788761621214",""
"61621221","9788761621221",""
"61621072","9788761621078",""
"61621238","9788761621238",""
"61621313","9788761621313",""
"61622167","9788761622167",""
"61621285","9788761621283",""
"61621351","9788761621351",""
"61621331","9788761621337",""
"61621366","9788761621368","9788761602275"
"61621399","9788761621399",""
"61621404","9788761621405",""
"61621429","9788761621429",""
"61621443","9788761621443",""
"91111714","9788791111716",""
"61621467","9788761621467",""
"61621542","9788761621542",""
"61621559","9788761621559",""
"61621573","9788761621573",""
"61621580","9788761621580",""
"61621597","9788761621597",""
"61621889","9788761621887",""
"61621627","9788761621627",""
"61621894","9788761621894",""
"61621900","9788761621900",""
"61621951","9788761621955",""
"61622105","9788761622105",""
"61622112","9788761622112",""
"61622303","9788761622303",""
"61622273","9788761622273",""
"61622341","9788761622341",""
"61622358","9788761622358",""
"61622280","9788761622280",""
"61622396","9788761622396",""
"61622389","9788761622389",""
"61622433","9788761622433",""
"61622525","9788761622525",""
"61622549","9788761622549",""
"61622600","9788761622600",""
"61622730","9788761622730",""
"61622747","9788761622747",""
"61622792","9788761622792",""
"61622907","9788761622907",""
"61622914","9788761622914",""
"61623102","9788761623102",""
"61623287","9788761623287",""
"61623263","9788761623263",""
"61623294","9788761623294",""
"61623348","9788761623348",""
"61623454","9788761623454",""
"61623461","9788761623461",""
"61623560","9788761623560",""
"61623591","9788761623591",""
"61623607","9788761623607",""
"61623652","9788761623652",""
"61613493","9788761613493",""
"61603821","9788761603821",""
"61604879","9788761604873",""
"61624192","9788761624192","13"
