timer,start,count,sum,realmem,emalloc,realmem_start,emalloc_start
mage,0.000000,1,0.818058,13631488,13428064,786432,742224
mage::app,0.000000,1,0.523484,2883584,2615840,786432,744152
mage::app::construct,0.000000,1,0.000138,262144,76760,786432,746088
mage::app::register_config,0.000000,1,0.000537,262144,259720,1048576,841224
mage::app::init,0.000000,1,0.522515,2359296,2243136,1310720,1102632
mage::app::init::config,0.000000,1,0.514863,1835008,1193192,1310720,1132840
config/load-modules-declaration,0.000000,1,0.046954,262144,173144,1310720,1182048
config/load-modules,0.000000,1,0.253402,0,296,1572864,1171584
config/load-local,0.000000,1,0.000992,0,2664,1572864,1173656
dbUpdates,0.000000,1,0.028050,1048576,1086104,1572864,1178016
CORE::create_object_of::Mage_Core_Model_Resource,0.000000,1,0.000009,0,1160,1572864,1223152
CORE::create_object_of::Mage_Core_Model_Mysql4_Resource,0.000000,63,0.004987,0,60896,2621440,2270184
"DISPATCH EVENT:resource_get_tablename",0.000000,105,0.000982,0,1864,14417920,14192064
config/load-db,0.000000,1,0.174048,524288,62928,2621440,2265824
CORE::create_object_of::Mage_Core_Model_Mysql4_Config,0.000000,1,0.000030,0,3104,2621440,2324712
mage::app::init::stores,0.000000,1,0.006899,262144,891656,3145728,2327744
CORE::create_object_of::Mage_Core_Model_Website,0.000000,1,0.000022,0,4880,3145728,2424144
CORE::create_object_of::Mage_Core_Model_Mysql4_Website,0.000000,1,0.000033,0,3104,3145728,2455776
CORE::create_object_of::Mage_Core_Model_Mysql4_Website_Collection,0.000000,1,0.000231,0,13368,3145728,2673896
CORE::create_object_of::Mage_Core_Model_Store_Group,0.000000,1,0.000018,0,4216,3145728,2891136
CORE::create_object_of::Mage_Core_Model_Mysql4_Store_Group,0.000000,1,0.000027,0,3104,3145728,2923304
CORE::create_object_of::Mage_Core_Model_Mysql4_Store_Group_Collection,0.000000,1,0.000143,0,13400,3145728,2984832
CORE::create_object_of::Mage_Core_Model_Store,0.000000,1,0.000025,0,8032,3407872,3071000
CORE::create_object_of::Mage_Core_Model_Mysql4_Store,0.000000,1,0.000026,0,3096,3407872,3106216
CORE::create_object_of::Mage_Core_Model_Mysql4_Store_Collection,0.000000,1,0.000143,0,13368,3407872,3170200
"DISPATCH EVENT:core_collection_abstract_load_before",0.000000,7,0.000097,0,696,14417920,14164968
"DISPATCH EVENT:core_collection_abstract_load_after",0.000000,7,0.000092,0,696,14417920,14165520
CORE::create_object_of::Mage_Core_Model_Cookie,0.000000,1,0.000006,0,872,3407872,3233064
mage::dispatch::controller::action::predispatch::load_area::global::events,0.000000,1,0.000015,0,1488,3670016,3358704
mage::dispatch,0.000000,1,0.294546,10747904,10808600,3670016,3361696
mage::app::init_front_controller,0.000000,1,0.001639,262144,202504,3670016,3396864
"DISPATCH EVENT:controller_front_init_before",0.000000,1,0.000061,0,1960,3670016,3399424
mage::app::init_front_controller::collect_routers,0.000000,1,0.000870,0,94176,3670016,3406144
"DISPATCH EVENT:controller_front_init_routers",0.000000,1,0.000478,262144,92224,3670016,3502648
"OBSERVER: cms",0.000000,1,0.000118,0,9024,3670016,3573384
CORE::create_object_of::Mage_Cms_Controller_Router,0.000000,1,0.000007,0,736,3670016,3581200
"OBSERVER: aitmanufacturers",0.000000,1,0.000126,262144,19136,3670016,3584032
CORE::create_object_of::Aitoc_Aitmanufacturers_Controller_Router,0.000000,1,0.000006,0,1144,3932160,3601416
mage::dispatch::db_url_rewrite,0.000000,1,0.002935,0,151648,3932160,3601160
CORE::create_object_of::Mage_Core_Model_Url_Rewrite,0.000000,1,0.000016,0,3112,3932160,3645048
CORE::create_object_of::Mage_Core_Model_Mysql4_Url_Rewrite,0.000000,1,0.000110,0,4064,3932160,3747216
"DISPATCH EVENT:model_load_after",0.000000,23,0.000264,0,648,14417920,14185656
"DISPATCH EVENT:core_abstract_load_after",0.000000,18,0.000171,0,664,14417920,14185672
mage::dispatch::config_url_rewrite,0.000000,1,0.000918,0,216,3932160,3754544
mage::dispatch::routers_match,0.000000,1,0.288422,10485760,10409312,3932160,3756472
mage::dispatch::controller::action::predispatch,0.000000,1,0.029751,1835008,2114368,4194304,3839784
CORE::create_object_of::Mage_Core_Model_Layout,0.000000,1,0.000143,0,21216,4194304,3898240
CORE::create_object_of::Mage_Core_Model_Session,0.000000,1,0.018299,262144,74624,4194304,4051872
Mage_Core_Model_Session_Abstract_Varien::start/setOptions,0.000000,1,0.000148,0,744,4194304,4055200
CORE::create_object_of::Mage_Core_Model_Mysql4_Session,0.000000,1,0.000087,0,1280,4194304,4074056
Mage_Core_Model_Session_Abstract_Varien::start/start,0.000000,1,0.011944,0,1896,4456448,4083392
mage::dispatch::controller::action::predispatch::load_area::frontend::config,0.000000,1,0.000010,0,736,4456448,4128960
mage::dispatch::controller::action::predispatch::load_area::frontend::events,0.000000,1,0.000014,0,864,4456448,4131464
mage::dispatch::controller::action::predispatch::load_area::frontend::design,0.000000,1,0.002387,0,128080,4456448,4134096
CORE::create_object_of::Mage_Core_Model_Design_Package,0.000000,1,0.000008,0,1400,4456448,4184144
CORE::create_object_of::Mage_Core_Model_Design,0.000000,1,0.000019,0,3096,4456448,4224128
CORE::create_object_of::Mage_Core_Model_Mysql4_Design,0.000000,1,0.000032,0,3112,4456448,4254264
mage::dispatch::controller::action::predispatch::load_area::frontend::translate,0.000000,1,0.003543,1572864,1559472,4456448,4263952
CORE::create_object_of::Mage_Core_Model_Translate,0.000000,1,0.000010,0,1888,4456448,4288912
CORE::create_object_of::Mage_Core_Model_Locale,0.000000,1,0.000160,0,3832,4456448,4293536
"DISPATCH EVENT:core_locale_set_locale",0.000000,1,0.000036,0,664,4456448,4297288
CORE::create_object_of::Mage_Core_Model_Translate_Inline,0.000000,1,0.000009,262144,1296,4456448,4311088
"DISPATCH EVENT:controller_action_predispatch",0.000000,1,0.004409,0,124504,6029312,5825520
"OBSERVER: log",0.000000,2,0.007914,0,124712,14417920,14188296
CORE::create_object_of::Mage_Log_Model_Visitor,0.000000,1,0.000017,0,3096,6029312,5888184
CORE::create_object_of::Mage_Log_Model_Mysql4_Visitor,0.000000,1,0.000029,0,3096,6029312,5939992
"DISPATCH EVENT:model_save_before",0.000000,2,0.000047,0,664,14417920,14189280
"DISPATCH EVENT:core_abstract_save_before",0.000000,2,0.000035,0,744,14417920,14189296
"DISPATCH EVENT:model_save_after",0.000000,2,0.000039,0,648,14417920,14191040
"DISPATCH EVENT:core_abstract_save_after",0.000000,2,0.000034,0,664,14417920,14191056
"DISPATCH EVENT:controller_action_predispatch_cms",0.000000,1,0.000030,0,696,6029312,5951776
"DISPATCH EVENT:controller_action_predispatch_cms_index_index",0.000000,1,0.000030,0,776,6029312,5954104
mage::dispatch::controller::action::cms_index_index,0.000000,1,0.253553,8388608,8193928,6029312,5955904
CORE::create_object_of::Mage_Cms_Model_Page,0.000000,1,0.000016,0,3096,6291456,6010456
CORE::create_object_of::Mage_Cms_Model_Mysql4_Page,0.000000,1,0.000027,0,3088,6291456,6042104
"DISPATCH EVENT:cms_page_load_after",0.000000,1,0.000427,0,35904,6291456,6058624
"OBSERVER: googleoptimizer_observer",0.000000,2,0.000417,0,31608,14155776,13968392
CORE::create_object_of::Mage_GoogleOptimizer_Model_Observer,0.000000,1,0.000007,0,600,6291456,6087424
CORE::create_object_of::Mage_Core_Model_Layout_Update,0.000000,1,0.000368,0,5592,6291456,6119936
CORE::create_object_of::Mage_Page_Model_Config,0.000000,1,0.000006,0,736,6291456,6150136
"DISPATCH EVENT:controller_action_layout_load_before",0.000000,1,0.005135,786432,734592,6291456,6184864
"OBSERVER: customer_is_logged_in_observer",0.000000,1,0.005052,786432,730008,6291456,6203568
CORE::create_object_of::Mage_Customer_Model_Observer,0.000000,1,0.000006,0,600,6291456,6209544
CORE::create_object_of::Systime_Sso_Model_Session,0.000000,1,0.000474,0,87432,6553600,6317704
CORE::create_object_of::Mage_Customer_Model_Config_Share,0.000000,1,0.000017,0,3112,6553600,6397240
"DISPATCH EVENT:customer_session_init",0.000000,1,0.000031,0,664,6553600,6405200
CORE::create_object_of::Systime_Sso_Model_Customer,0.000000,1,0.000018,0,4104,6815744,6580688
CORE::create_object_of::Mage_Customer_Model_Entity_Customer,0.000000,1,0.001947,262144,116584,6815744,6773632
CORE::create_object_of::Mage_Eav_Model_Config,0.000000,1,0.000008,0,1944,7077888,6799776
"EAV: Mage_Eav_Model_Config::getEntityType",0.000000,9,0.002823,0,96352,13631488,13319416
CORE::create_object_of::Mage_Eav_Model_Entity_Type,0.000000,2,0.000034,0,6496,11272192,11161784
CORE::create_object_of::Mage_Eav_Model_Mysql4_Entity_Type,0.000000,1,0.000029,0,3104,7077888,6880704
mage::dispatch::controller::action::cms_index_index::layout_load,0.000000,1,0.075076,262144,42184,7077888,6920488
"layout/package_update: default",0.000000,1,0.072742,0,26664,7077888,6924888
"DISPATCH EVENT:core_layout_update_updates_get_after",0.000000,1,0.000032,0,824,7077888,6929600
Mage_Core_Model_Design_Package::getFilename,0.000000,46,0.006368,0,70808,14417920,14130688
Mage_Core_Model_Design_Package::validateFile,0.000000,87,0.007130,0,40040,14417920,14177120
"layout/package_update: cms_page",0.000000,1,0.000692,262144,2592,7077888,6952736
"layout/package_update: STORE_da",0.000000,1,0.000230,0,216,7340032,6956512
"layout/package_update: THEME_frontend_default_systime_hellosleek",0.000000,1,0.000186,0,216,7340032,6958520
"layout/package_update: cms_index_index",0.000000,1,0.000474,0,216,7340032,6960432
"layout/package_update: page_one_column",0.000000,1,0.000252,0,216,7340032,6962376
"layout/package_update: customer_logged_out",0.000000,1,0.000355,0,1352,7340032,6964336
"DISPATCH EVENT:controller_action_layout_generate_xml_before",0.000000,1,0.000059,0,744,7340032,6966912
mage::dispatch::controller::action::cms_index_index::layout_generate_xml,0.000000,1,0.000704,0,216,7340032,6968688
"DISPATCH EVENT:controller_action_layout_generate_blocks_before",0.000000,1,0.000033,0,808,7340032,6971384
mage::dispatch::controller::action::cms_index_index::layout_generate_blocks,0.000000,1,0.021884,2883584,3083632,7340032,6973232
"BLOCK: formkey",0.000000,1,0.000445,0,142136,7340032,6978232
"DISPATCH EVENT:core_block_abstract_prepare_layout_before",0.000000,55,0.000585,0,712,14417920,14196224
"DISPATCH EVENT:core_block_abstract_prepare_layout_after",0.000000,55,0.000495,0,696,14417920,14196216
"BLOCK: root",0.000000,1,0.000418,262144,77776,7340032,7122712
"BLOCK: head",0.000000,1,0.001454,0,166792,7602176,7204384
"BLOCK ACTION: head -> addCss",0.000000,13,0.000244,0,30592,7602176,7395816
"BLOCK ACTION: head -> addItem",0.000000,4,0.000084,0,14168,7602176,7427664
"BLOCK ACTION: head -> addJs",0.000000,12,0.000202,0,27464,7602176,7423856
"BLOCK: topbar",0.000000,1,0.000213,262144,68552,7602176,7430256
"BLOCK: header",0.000000,1,0.000241,0,70424,7864320,7500672
"BLOCK: store_language",0.000000,1,0.000248,0,74088,7864320,7574808
"BLOCK: top.search",0.000000,1,0.000144,0,5216,7864320,7650472
"BLOCK: top.menu",0.000000,1,0.000327,262144,120160,7864320,7657544
"BLOCK: breadcrumbs",0.000000,1,0.000239,0,69832,8126464,7777760
"BLOCK: left",0.000000,1,0.000131,0,4216,8126464,7849144
"BLOCK: global_messages",0.000000,1,0.000408,0,86080,8126464,7855240
CORE::create_object_of::Mage_Core_Model_Message_Collection,0.000000,5,0.000033,0,3536,14417920,14130304
"BLOCK: messages",0.000000,1,0.000151,0,5048,8126464,7942880
"BLOCK: content",0.000000,1,0.000129,0,4216,8126464,7949488
"BLOCK: right",0.000000,1,0.000128,0,4344,8126464,7955272
"BLOCK: footer",0.000000,1,0.000384,262144,106888,8126464,7961480
"BLOCK: footer_links",0.000000,1,0.000262,0,82448,8388608,8073120
"BLOCK: before_body_end",0.000000,1,0.000131,0,4384,8388608,8155312
"BLOCK: ",0.000000,1,0.000213,0,61560,8388608,8159688
"BLOCK ACTION: top.links -> addLink",0.000000,2,0.000012,0,376,10223616,10060776
"BLOCK: catalog.topnav",0.000000,1,0.002099,524288,449888,8388608,8227576
"BLOCK ACTION: footer_links -> addLink",0.000000,5,0.002302,262144,189864,9961472,9684264
CORE::create_object_of::Mage_Core_Model_Url,0.000000,15,0.000305,0,26856,14417920,14167896
"BLOCK: checkout_cart_link",0.000000,1,0.000223,0,68752,9175040,8826552
"BLOCK ACTION: checkout_cart_link -> addCartLink",0.000000,1,0.000016,0,528,9175040,8898808
"BLOCK ACTION: checkout_cart_link -> addCheckoutLink",0.000000,1,0.000213,0,20696,9175040,8900776
"BLOCK: cart_sidebar",0.000000,1,0.000368,0,155720,9175040,8921160
"BLOCK ACTION: cart_sidebar -> addItemRender",0.000000,4,0.000076,0,9128,9961472,9702048
"BLOCK: left.poll",0.000000,1,0.002357,262144,155144,9175040,9084616
CORE::create_object_of::Mage_Poll_Model_Poll,0.000000,2,0.000030,0,6544,9437184,9240304
CORE::create_object_of::Mage_Poll_Model_Mysql4_Poll,0.000000,1,0.000031,0,3088,9437184,9237016
"BLOCK ACTION: left.poll -> setPollTemplate",0.000000,2,0.000035,0,2768,9437184,9244032
"BLOCK: cms_footer_links",0.000000,1,0.000241,0,61672,9437184,9244752
"BLOCK ACTION: cms_footer_links -> setBlockId",0.000000,1,0.000028,0,1488,9437184,9309744
"BLOCK: cms_footer_contactinfo",0.000000,1,0.000131,0,4576,9437184,9310232
"BLOCK ACTION: cms_footer_contactinfo -> setBlockId",0.000000,1,0.000023,0,1232,9437184,9318136
"BLOCK: tags_popular",0.000000,1,0.000240,262144,72312,9437184,9319056
"BLOCK ACTION: tags_popular -> setTemplate",0.000000,1,0.000023,0,1232,9699328,9394688
"BLOCK: newsletter",0.000000,1,0.000241,0,69504,9699328,9395712
"BLOCK: google_analytics",0.000000,1,0.000368,0,125696,9699328,9467544
"BLOCK: wishlist_link",0.000000,1,0.000217,262144,68264,9699328,9595528
"BLOCK ACTION: wishlist_link -> addWishlistLink",0.000000,1,0.000016,0,528,9961472,9667304
"BLOCK: sidebar.right.top",0.000000,1,0.000201,0,68464,9961472,9705584
"BLOCK ACTION: sidebar.right.top -> setBlockPosition",0.000000,1,0.000030,0,1528,9961472,9777392
"BLOCK: sidebar.right.bottom",0.000000,1,0.000122,0,4952,9961472,9777888
"BLOCK ACTION: sidebar.right.bottom -> setBlockPosition",0.000000,1,0.000023,0,1248,9961472,9786320
"BLOCK: sidebar.left.top",0.000000,1,0.000114,0,5072,9961472,9786520
"BLOCK ACTION: sidebar.left.top -> setBlockPosition",0.000000,1,0.000022,0,1248,9961472,9794944
"BLOCK: sidebar.left.bottom",0.000000,1,0.000111,0,4952,9961472,9795160
"BLOCK ACTION: sidebar.left.bottom -> setBlockPosition",0.000000,1,0.000023,0,1248,9961472,9803592
"BLOCK: content.top",0.000000,1,0.000115,0,5936,9961472,9803784
"BLOCK ACTION: content.top -> setBlockPosition",0.000000,1,0.000022,0,1232,9961472,9813056
"BLOCK: menu.top",0.000000,1,0.000113,0,5048,9961472,9813240
"BLOCK ACTION: menu.top -> setBlockPosition",0.000000,1,0.000023,0,1232,9961472,9821624
"BLOCK: menu.bottom",0.000000,1,0.000113,0,4928,9961472,9821824
"BLOCK ACTION: menu.bottom -> setBlockPosition",0.000000,1,0.000023,0,1232,9961472,9830216
"BLOCK: page.bottom",0.000000,1,0.000111,0,4928,9961472,9830416
"BLOCK ACTION: page.bottom -> setBlockPosition",0.000000,1,0.000022,0,1232,9961472,9838808
"BLOCK: cms_page",0.000000,1,0.000632,262144,65616,9961472,9839272
"BLOCK: googleoptimizer.control.script",0.000000,2,0.000473,0,142816,10223616,10060096
"BLOCK ACTION: googleoptimizer.control.script -> setScriptType",0.000000,2,0.000037,0,1688,10223616,10062232
"BLOCK: googleoptimizer.tracking.script",0.000000,2,0.000261,0,6104,10223616,10060376
"BLOCK ACTION: googleoptimizer.tracking.script -> setScriptType",0.000000,2,0.000035,0,1688,10223616,10062512
"DISPATCH EVENT:controller_action_layout_generate_blocks_after",0.000000,1,0.000053,0,712,10223616,10059344
CORE::create_object_of::Mage_Catalog_Model_Session,0.000000,1,0.000099,0,4008,10223616,10110976
CORE::create_object_of::Mage_Checkout_Model_Session,0.000000,1,0.000076,0,4144,10485760,10171648
mage::dispatch::controller::action::cms_index_index::layout_render,0.000000,1,0.144401,3932160,4013856,10485760,10178480
"DISPATCH EVENT:controller_action_layout_render_before",0.000000,1,0.000034,0,696,10485760,10180904
"DISPATCH EVENT:controller_action_layout_render_before_cms_index_index",0.000000,1,0.000031,0,728,10485760,10183392
"DISPATCH EVENT:core_block_abstract_to_html_before",0.000000,38,0.000368,0,696,14417920,14150024
Mage_Core_Block_Template::renderView,0.000000,10,0.102941,3670016,3580656,14417920,14129200
frontend/default/systime_hellosleek/template/page/1column.phtml,0.000000,1,0.143429,3932160,3958824,10485760,10191936
frontend/default/systime_hellosleek/template/page/html/head.phtml,0.000000,1,0.007793,0,70008,10485760,10263472
Mage_Core_Model_Design_Package::getSkinUrl,0.000000,31,0.007026,0,58024,14417920,14175824
"DISPATCH EVENT:core_block_abstract_to_html_after",0.000000,38,0.000377,0,696,14417920,14150720
frontend/default/systime_hellosleek/template/systimesso/topbar.phtml,0.000000,1,0.000789,262144,7048,10485760,10335728
frontend/default/systime_hellosleek/template/page/html/header.phtml,0.000000,1,0.090688,3670016,3655216,10747904,10340952
frontend/default/systime_hellosleek/template/catalogsearch/form.mini.phtml,0.000000,1,0.000586,0,2544,10747904,10388944
frontend/default/systime_hellosleek/template/page/switch/languages.phtml,0.000000,1,0.001090,0,10792,10747904,10393656
CORE::create_object_of::AW_Zblocks_Model_Mysql4_Zblocks_Collection,0.000000,4,0.001147,0,82272,14417920,14148880
CORE::create_object_of::AW_Zblocks_Model_Mysql4_Zblocks,0.000000,4,0.000102,0,9864,14417920,14153488
CORE::create_object_of::Mage_Core_Model_Email_Template_Filter,0.000000,18,0.000151,0,42864,14417920,14164912
frontend/default/systime_hellosleek/template/catalog/navigation/top.phtml,0.000000,1,0.083166,3407872,3443176,10747904,10576056
CORE::create_object_of::Mage_Catalog_Model_Category,0.000000,4,0.000372,0,29496,14155776,13949336
CORE::create_object_of::Mage_Catalog_Model_Resource_Eav_Mysql4_Category,0.000000,1,0.001426,0,12904,11272192,11155952
CORE::create_object_of::Aitoc_Aitmanufacturers_Model_Rewrite_CatalogModelResourceEavMysql4CategoryTree,0.000000,1,0.000203,0,18704,11534336,11290624
CORE::create_object_of::Mage_Catalog_Model_Resource_Eav_Mysql4_Category_Collection,0.000000,1,0.000310,0,19360,12582912,12216392
"EAV: Mage_Eav_Model_Config::getAttribute",0.000000,29,0.010512,262144,286592,14155776,13807640
CORE::create_object_of::Mage_Catalog_Model_Resource_Eav_Attribute,0.000000,33,0.000423,262144,121752,14155776,13781992
_LOAD_ATTRIBUTE_BY_CODE__,0.000000,3,0.009608,262144,67120,12845056,12501160
CORE::create_object_of::Mage_Eav_Model_Mysql4_Entity_Attribute,0.000000,2,0.000055,0,5368,13893632,13419928
"DISPATCH EVENT:eav_entity_attribute_load_after",0.000000,3,0.000072,0,680,12845056,12511264
"DISPATCH EVENT:catalog_category_tree_init_inactive_category_ids",0.000000,1,0.000039,0,712,12845056,12529312
CORE::create_object_of::Mage_Eav_Model_Entity_Attribute_Backend_Default,0.000000,24,0.000151,0,25944,14155776,13929696
__EAV_COLLECTION_BEFORE_LOAD__,0.000000,1,0.000106,0,5096,12845056,12584576
"DISPATCH EVENT:eav_collection_abstract_load_before",0.000000,1,0.000035,0,696,12845056,12587176
"DISPATCH EVENT:catalog_category_collection_load_before",0.000000,1,0.000033,0,696,12845056,12589624
__EAV_COLLECTION_LOAD_ENT__,0.000000,1,0.009141,786432,724544,12845056,12591392
__EAV_COLLECTION_LOAD_ATTR__,0.000000,1,0.007360,262144,51264,13631488,13317696
__EAV_COLLECTION_ORIG_DATA__,0.000000,1,0.000101,0,216,13893632,13370680
__EAV_COLLECTION_AFTER_LOAD__,0.000000,1,0.000073,0,2912,13893632,13372696
"DISPATCH EVENT:catalog_category_collection_load_after",0.000000,1,0.000050,0,952,13893632,13375304
CORE::create_object_of::Mage_Catalog_Model_Layer,0.000000,1,0.000011,0,1736,13893632,13324128
__EAV_LOAD_MODEL__,0.000000,1,0.013610,262144,623984,13893632,13331152
CORE::create_object_of::Mage_Eav_Model_Mysql4_Entity_Attribute_Collection,0.000000,1,0.000257,0,16144,13893632,13412376
__EAV_LOAD_MODEL_ATTRIBUTES__,0.000000,1,0.005754,0,40920,14155776,13805472
CORE::create_object_of::Mage_Catalog_Model_Category_Attribute_Backend_Urlkey,0.000000,1,0.000008,0,1288,14155776,13846912
__EAV_LOAD_MODEL_AFTER_LOAD__,0.000000,1,0.001653,0,107032,14155776,13848112
CORE::create_object_of::Mage_Eav_Model_Entity_Attribute_Backend_Time_Created,0.000000,1,0.000007,0,1288,14155776,13867960
CORE::create_object_of::Mage_Eav_Model_Entity_Attribute_Backend_Time_Updated,0.000000,1,0.000007,0,1288,14155776,13883288
CORE::create_object_of::Mage_Eav_Model_Entity_Attribute_Backend_Increment,0.000000,1,0.000007,0,1288,14155776,13900224
CORE::create_object_of::Mage_Catalog_Model_Category_Attribute_Backend_Image,0.000000,1,0.000007,0,1288,14155776,13917544
CORE::create_object_of::Mage_Eav_Model_Entity_Attribute_Backend_Datetime,0.000000,2,0.000014,0,2360,14155776,13946688
CORE::create_object_of::Mage_Catalog_Model_Category_Attribute_Backend_Sortby,0.000000,2,0.000014,0,2360,14155776,13963328
"DISPATCH EVENT:catalog_category_load_after",0.000000,1,0.000184,0,3384,14155776,13941416
"REWRITE: Mage_Catalog_Model_Category::getUrl",1321963086.313389,93,0,0,0,14155776,13963400
CORE::create_object_of::Mage_Cms_Model_Block,0.000000,14,0.000169,0,36480,14417920,14180192
CORE::create_object_of::Mage_Cms_Model_Mysql4_Block,0.000000,1,0.000028,0,3096,14155776,13998552
CORE::create_object_of::Mage_Checkout_Model_Cart,0.000000,1,0.000012,0,1720,14155776,14038736
frontend/default/systime_hellosleek/template/page/html/breadcrumbs.phtml,0.000000,1,0.000053,0,1816,14417920,13998472
frontend/default/systime_hellosleek/template/systime/systime-labfeed.phtml,0.000000,1,0.003194,0,25808,14417920,14131840
frontend/default/systime_hellosleek/template/page/html/footer.phtml,0.000000,1,0.004374,0,9152,14417920,14131792
mage::dispatch::controller::action::postdispatch,0.000000,1,0.004162,0,15432,14417920,14151752
"DISPATCH EVENT:controller_action_postdispatch_cms_index_index",0.000000,1,0.000058,0,968,14417920,14154360
"DISPATCH EVENT:controller_action_postdispatch_cms",0.000000,1,0.000035,0,696,14417920,14157056
"DISPATCH EVENT:controller_action_postdispatch",0.000000,1,0.003717,0,7736,14417920,14159472
mage::app::dispatch::send_response,0.000000,1,0.000448,0,2880,14417920,14167520
"DISPATCH EVENT:http_response_send_before",0.000000,1,0.000035,0,680,14417920,14170072
