"Action","Aktion"
"All types","Alle Typen"
"Backup file ""%s"" can\'t read or write","Sicherungsdatei ""%s"" konnte nicht gelesen oder geschrieben werden."
"Backup file ""%s"" doesn\'t exist","Sicherungsdatei ""%s"" existiert nicht."
"Backup file doesn't exist","Sicherungsdatei existiert nicht"
"Backup file handler don\'t specify","Sicherungsdatei-Handler ungültig"
"Backup file path don\'t specify","Sicherungsdatei-Pfad ungültig"
"Backups","Sicherungen"
"Cannot read backup file","Sicherungsdatei konnte nicht gelesen werden"
"Create Backup","Sicherung erstellen"
"DB","DB"
"Download","Herunterladen"
"Error write to Backup file ""%s""","Fehler beim Schreiben der Sicherungsdatei ""%s"""
"File compressed with Zlib, but this extension is not installed on server","Die Datei ist mit Zlib komprimiert. Diese Dateierweiterung ist jedoch auf dem Server nicht installiert"
"Notifications","Benachrichtigungen"
"Size, byte","Größe in Byte"
"Time","Zeit"
"Type","Typ"
"Wrong order of creation for new backup","Falsche Erstellungsreihenfolge für neues Backup"
